%!PS-Adobe-3.0 EPSF-3.0
%%Creator: cairo 1.14.1 (http://cairographics.org)
%%CreationDate: Thu Jun 29 18:01:06 2017
%%Pages: 1
%%DocumentData: Clean7Bit
%%LanguageLevel: 2
%%BoundingBox: 0 -1 1009 218
%%EndComments
%%BeginProlog
save
50 dict begin
/q { gsave } bind def
/Q { grestore } bind def
/cm { 6 array astore concat } bind def
/w { setlinewidth } bind def
/J { setlinecap } bind def
/j { setlinejoin } bind def
/M { setmiterlimit } bind def
/d { setdash } bind def
/m { moveto } bind def
/l { lineto } bind def
/c { curveto } bind def
/h { closepath } bind def
/re { exch dup neg 3 1 roll 5 3 roll moveto 0 rlineto
      0 exch rlineto 0 rlineto closepath } bind def
/S { stroke } bind def
/f { fill } bind def
/f* { eofill } bind def
/n { newpath } bind def
/W { clip } bind def
/W* { eoclip } bind def
/BT { } bind def
/ET { } bind def
/pdfmark where { pop globaldict /?pdfmark /exec load put }
    { globaldict begin /?pdfmark /pop load def /pdfmark
    /cleartomark load def end } ifelse
/BDC { mark 3 1 roll /BDC pdfmark } bind def
/EMC { mark /EMC pdfmark } bind def
/cairo_store_point { /cairo_point_y exch def /cairo_point_x exch def } def
/Tj { show currentpoint cairo_store_point } bind def
/TJ {
  {
    dup
    type /stringtype eq
    { show } { -0.001 mul 0 cairo_font_matrix dtransform rmoveto } ifelse
  } forall
  currentpoint cairo_store_point
} bind def
/cairo_selectfont { cairo_font_matrix aload pop pop pop 0 0 6 array astore
    cairo_font exch selectfont cairo_point_x cairo_point_y moveto } bind def
/Tf { pop /cairo_font exch def /cairo_font_matrix where
      { pop cairo_selectfont } if } bind def
/Td { matrix translate cairo_font_matrix matrix concatmatrix dup
      /cairo_font_matrix exch def dup 4 get exch 5 get cairo_store_point
      /cairo_font where { pop cairo_selectfont } if } bind def
/Tm { 2 copy 8 2 roll 6 array astore /cairo_font_matrix exch def
      cairo_store_point /cairo_font where { pop cairo_selectfont } if } bind def
/g { setgray } bind def
/rg { setrgbcolor } bind def
/d1 { setcachedevice } bind def
%%EndProlog
%%BeginSetup
%%EndSetup
%%Page: 1 1
%%BeginPageSetup
%%PageBoundingBox: 0 -1 1009 218
%%EndPageSetup
q 0 -1 1009 219 rectclip q
0.156863 0.164706 0.211765 rg
2.617 217.91 m 1005.867 217.91 l 1007.316 217.91 1008.488 217.441 1008.488
 216.863 c 1008.488 1.047 l 1008.488 0.469 1007.316 0 1005.867 0 c 2.617
 0 l 1.168 0 0 0.469 0 1.047 c 0 216.863 l 0 217.441 1.168 217.91 2.617 
217.91 c h
2.617 217.91 m f
0.545098 0.913725 0.992157 rg
40.723 165.676 m 37.844 160.043 l 35.09 160.043 l 46.707 182.094 l 50.227
 182.094 l 52.98 160.043 l 50.102 160.043 l 49.461 165.676 l h
49.203 167.98 m 47.922 179.723 l 41.941 167.98 l h
49.203 167.98 m f
64.262 164.203 m 63.965 162.688 64.742 161.934 66.598 161.934 c 67.473 
161.934 68.445 162.125 69.512 162.508 c 69.832 160.555 l 68.656 159.98 67.27
 159.691 65.672 159.691 c 64.156 159.691 63.027 160.109 62.277 160.941 c
 61.531 161.773 61.309 162.902 61.605 164.332 c 65.031 181.547 l 59.848 
181.547 l 60.297 183.691 l 68.168 183.691 l h
64.262 164.203 m f
87.387 184.781 m 87.984 184.781 88.422 184.598 88.699 184.234 c 88.996 
183.895 89.094 183.445 88.988 182.891 c 88.879 182.336 88.602 181.879 88.156
 181.516 c 87.727 181.176 87.215 181.004 86.617 181.004 c 86.043 181.004
 85.617 181.176 85.34 181.516 c 85.063 181.879 84.977 182.336 85.082 182.891
 c 85.188 183.445 85.457 183.895 85.883 184.234 c 86.309 184.598 86.813 
184.781 87.387 184.781 c h
84.988 162.188 m 89.723 162.188 l 89.305 160.043 l 76.699 160.043 l 77.113
 162.188 l 82.297 162.188 l 84.828 174.766 l 79.801 174.766 l 80.219 176.906
 l 87.93 176.906 l h
84.988 162.188 m f
109.773 177.262 m 110.734 177.262 111.449 176.918 111.918 176.234 c 112.387
 175.574 112.441 174.359 112.078 172.59 c 109.582 160.043 l 107.117 160.043
 l 109.551 172.141 l 109.785 173.313 109.859 174.102 109.773 174.508 c 109.711
 174.934 109.391 175.148 108.813 175.148 c 107.727 175.148 106.617 174.477
 105.484 173.133 c 102.863 160.043 l 100.367 160.043 l 102.797 172.141 l
 103.031 173.313 103.109 174.102 103.023 174.508 c 102.957 174.934 102.637
 175.148 102.063 175.148 c 100.973 175.148 99.863 174.477 98.734 173.133
 c 96.109 160.043 l 93.645 160.043 l 97.008 176.906 l 99.086 176.906 l 98.895
 174.926 l 99.555 175.672 100.207 176.246 100.848 176.652 c 101.508 177.059
 102.234 177.262 103.023 177.262 c 104.602 177.262 105.465 176.512 105.613
 175.02 c 106.254 175.746 106.906 176.301 107.566 176.684 c 108.227 177.066
 108.965 177.262 109.773 177.262 c h
109.773 177.262 m f
118.051 167.531 m 117.73 165.676 117.934 164.277 118.656 163.34 c 119.383
 162.402 120.438 161.934 121.824 161.934 c 122.656 161.934 123.438 162.051
 124.16 162.285 c 124.91 162.539 125.73 162.926 126.625 163.438 c 127.523
 161.645 l 126.605 161.027 125.602 160.547 124.512 160.203 c 123.445 159.863
 122.402 159.691 121.379 159.691 c 118.945 159.691 117.207 160.48 116.16
 162.059 c 115.137 163.66 114.891 165.793 115.426 168.461 c 115.746 170.145
 116.332 171.648 117.188 172.973 c 118.059 174.316 119.129 175.363 120.387
 176.109 c 121.664 176.875 123.043 177.262 124.512 177.262 c 126.648 177.262
 128.172 176.512 129.09 175.02 c 130.027 173.547 130.242 171.531 129.73 
168.973 c 129.621 168.48 129.504 168 129.379 167.531 c h
124.098 175.051 m 122.797 175.051 121.645 174.582 120.641 173.645 c 119.641
 172.727 118.914 171.371 118.465 169.582 c 127.234 169.582 l 127.555 171.352
 127.438 172.707 126.883 173.645 c 126.328 174.582 125.398 175.051 124.098
 175.051 c h
124.098 175.051 m f
136.949 176.906 m 139.254 176.906 l 139.027 174.539 l 139.859 175.395 140.832
 176.055 141.941 176.523 c 143.051 177.016 144.117 177.262 145.141 177.262
 c 148.297 177.262 149.535 175.598 148.852 172.27 c 146.422 160.043 l 143.734
 160.043 l 145.781 170.285 l 146.039 171.543 146.156 172.504 146.133 173.164
 c 146.133 173.824 145.961 174.316 145.621 174.637 c 145.281 174.957 144.691
 175.117 143.859 175.117 c 142.945 175.117 142.027 174.84 141.109 174.285
 c 140.191 173.73 139.402 173.066 138.742 172.301 c 136.277 160.043 l 133.59
 160.043 l h
136.949 176.906 m f
166.344 160.906 m 165.703 160.523 164.949 160.227 164.074 160.012 c 163.219
 159.797 162.387 159.691 161.578 159.691 c 159.805 159.691 158.504 160.152
 157.672 161.066 c 156.863 162.008 156.605 163.234 156.906 164.75 c 158.922
 174.797 l 155.047 174.797 l 155.465 176.906 l 159.336 176.906 l 160.105
 180.715 l 162.855 181.035 l 162.023 176.906 l 167.879 176.906 l 167.113
 174.797 l 161.609 174.797 l 159.625 164.781 l 159.434 163.82 159.539 163.105
 159.945 162.637 c 160.371 162.168 161.148 161.934 162.281 161.934 c 163.434
 161.934 164.563 162.199 165.672 162.73 c h
166.344 160.906 m f
181.852 177.262 m 184.176 177.262 185.797 176.473 186.715 174.891 c 187.656
 173.336 187.859 171.203 187.324 168.492 c 186.789 165.848 185.723 163.715
 184.125 162.094 c 182.547 160.492 180.605 159.691 178.301 159.691 c 175.977
 159.691 174.332 160.473 173.371 162.027 c 172.434 163.605 172.242 165.75
 172.797 168.461 c 173.328 171.125 174.387 173.262 175.965 174.859 c 177.563
 176.461 179.527 177.262 181.852 177.262 c h
181.402 175.051 m 179.934 175.051 178.715 174.508 177.758 173.422 c 176.816
 172.332 176.137 170.68 175.707 168.461 c 175.262 166.242 175.281 164.59
 175.773 163.5 c 176.285 162.434 177.277 161.898 178.75 161.898 c 180.219
 161.898 181.414 162.434 182.332 163.5 c 183.27 164.59 183.965 166.254 184.414
 168.492 c 184.859 170.711 184.828 172.352 184.316 173.422 c 183.824 174.508
 182.855 175.051 181.402 175.051 c h
181.402 175.051 m f
1 g
194.703 162.508 m 194.703 163.297 194.969 163.957 195.504 164.492 c 196.059
 165.047 196.73 165.324 197.52 165.324 c 198.332 165.324 199.004 165.047
 199.535 164.492 c 200.07 163.957 200.336 163.297 200.336 162.508 c 200.336
 161.699 200.07 161.027 199.535 160.492 c 199.004 159.957 198.332 159.691
 197.52 159.691 c 196.73 159.691 196.059 159.957 195.504 160.492 c 194.969
 161.047 194.703 161.719 194.703 162.508 c h
194.703 162.508 m f
1 0.47451 0.776471 rg
210.34 176.906 m 212.645 176.906 l 212.867 174.539 l 213.527 175.395 214.359
 176.055 215.363 176.523 c 216.387 177.016 217.41 177.262 218.434 177.262
 c 221.594 177.262 223.172 175.598 223.172 172.27 c 223.172 160.043 l 220.484
 160.043 l 220.484 170.285 l 220.484 171.543 220.41 172.504 220.258 173.164
 c 220.133 173.824 219.863 174.316 219.461 174.637 c 219.055 174.957 218.434
 175.117 217.602 175.117 c 216.688 175.117 215.82 174.84 215.012 174.285
 c 214.199 173.73 213.539 173.066 213.027 172.301 c 213.027 160.043 l 210.34
 160.043 l h
210.34 176.906 m f
231.672 167.531 m 231.734 165.676 232.215 164.277 233.109 163.34 c 234.027
 162.402 235.18 161.934 236.566 161.934 c 237.398 161.934 238.156 162.051
 238.84 162.285 c 239.543 162.539 240.289 162.926 241.078 163.438 c 242.328
 161.645 l 241.539 161.027 240.629 160.547 239.605 160.203 c 238.605 159.863
 237.59 159.691 236.566 159.691 c 234.133 159.691 232.234 160.48 230.871
 162.059 c 229.527 163.66 228.855 165.793 228.855 168.461 c 228.855 170.145
 229.152 171.648 229.75 172.973 c 230.348 174.316 231.203 175.363 232.313
 176.109 c 233.422 176.875 234.711 177.262 236.184 177.262 c 238.316 177.262
 239.992 176.512 241.207 175.02 c 242.445 173.547 243.063 171.531 243.063
 168.973 c 243.063 168.48 243.043 168 243 167.531 c h
236.215 175.051 m 234.914 175.051 233.855 174.582 233.047 173.645 c 232.234
 172.727 231.777 171.371 231.672 169.582 c 240.438 169.582 l 240.418 171.352
 240.035 172.707 239.285 173.645 c 238.539 174.582 237.516 175.051 236.215
 175.051 c h
236.215 175.051 m f
257.418 160.043 m 255.211 172.395 l 252.844 160.043 l 249.129 160.043 l
 246.09 176.906 l 248.809 176.906 l 250.984 161.707 l 253.676 174.766 l 
256.844 174.766 l 259.371 161.707 l 261.547 176.906 l 264.137 176.906 l 
261.227 160.043 l h
257.418 160.043 m f
0.945098 0.980392 0.54902 rg
291.793 183.691 m 295.184 183.691 l 294.672 175.371 l 292.305 175.371 l
 h
291.793 183.691 m f
320.902 175.309 m 320.902 172.855 320.145 171.063 318.629 169.934 c 317.113
 168.801 315.035 168.234 312.387 168.234 c 309.539 168.234 l 309.539 160.043
 l 306.789 160.043 l 306.789 182.094 l 312.387 182.094 l 315.098 182.094
 317.188 181.527 318.66 180.395 c 320.152 179.266 320.902 177.57 320.902
 175.309 c h
317.926 175.277 m 317.926 176.875 317.457 178.039 316.516 178.766 c 315.598
 179.512 314.34 179.883 312.742 179.883 c 309.539 179.883 l 309.539 170.445
 l 312.645 170.445 l 314.309 170.445 315.598 170.809 316.516 171.531 c 317.457
 172.258 317.926 173.504 317.926 175.277 c h
317.926 175.277 m f
328.152 164.941 m 328.152 163.852 328.375 163.051 328.824 162.539 c 329.293
 162.051 330.02 161.805 331 161.805 c 331.895 161.805 332.762 162.059 333.594
 162.57 c 334.426 163.086 335.086 163.723 335.574 164.492 c 335.574 176.906
 l 338.266 176.906 l 338.266 160.043 l 335.961 160.043 l 335.734 162.316
 l 335.074 161.484 334.254 160.832 333.273 160.363 c 332.313 159.918 331.332
 159.691 330.328 159.691 c 328.727 159.691 327.512 160.117 326.68 160.973
 c 325.871 161.824 325.465 163.051 325.465 164.652 c 325.465 176.906 l 328.152
 176.906 l h
328.152 164.941 m f
351.242 164.203 m 351.242 162.688 352.172 161.934 354.027 161.934 c 354.902
 161.934 355.84 162.125 356.844 162.508 c 357.547 160.555 l 356.48 159.98
 355.148 159.691 353.547 159.691 c 352.031 159.691 350.816 160.109 349.898
 160.941 c 349.004 161.773 348.555 162.902 348.555 164.332 c 348.555 181.547
 l 343.371 181.547 l 343.371 183.691 l 351.242 183.691 l h
351.242 164.203 m f
371.391 177.262 m 375.465 177.262 377.504 174.336 377.504 168.492 c 377.504
 165.824 376.949 163.691 375.84 162.094 c 374.73 160.492 373.117 159.691
 371.008 159.691 c 369.172 159.691 367.68 160.332 366.527 161.613 c 366.527
 153.582 l 363.84 153.262 l 363.84 176.906 l 366.145 176.906 l 366.367 174.539
 l 366.984 175.414 367.723 176.086 368.574 176.555 c 369.449 177.027 370.387
 177.262 371.391 177.262 c h
370.75 175.086 m 369.898 175.086 369.109 174.828 368.383 174.316 c 367.68
 173.805 367.059 173.164 366.527 172.395 c 366.527 164.043 l 366.977 163.383
 367.531 162.859 368.191 162.477 c 368.875 162.113 369.609 161.934 370.398
 161.934 c 371.809 161.934 372.852 162.465 373.535 163.531 c 374.238 164.621
 374.59 166.273 374.59 168.492 c 374.59 170.711 374.281 172.363 373.664 
173.453 c 373.043 174.539 372.074 175.086 370.75 175.086 c h
370.75 175.086 m f
389.457 177.262 m 391.785 177.262 393.566 176.473 394.801 174.891 c 396.063
 173.336 396.691 171.203 396.691 168.492 c 396.691 165.848 396.051 163.715
 394.77 162.094 c 393.512 160.492 391.73 159.691 389.426 159.691 c 387.102
 159.691 385.309 160.473 384.051 162.027 c 382.793 163.605 382.164 165.75
 382.164 168.461 c 382.164 171.125 382.793 173.262 384.051 174.859 c 385.332
 176.461 387.133 177.262 389.457 177.262 c h
389.457 175.051 m 387.988 175.051 386.887 174.508 386.164 173.422 c 385.438
 172.332 385.074 170.68 385.074 168.461 c 385.074 166.242 385.426 164.59
 386.129 163.5 c 386.855 162.434 387.953 161.898 389.426 161.898 c 390.898
 161.898 391.988 162.434 392.691 163.5 c 393.414 164.59 393.777 166.254 
393.777 168.492 c 393.777 170.711 393.414 172.352 392.691 173.422 c 391.988
 174.508 390.91 175.051 389.457 175.051 c h
389.457 175.051 m f
406.918 183.691 m 410.309 183.691 l 409.797 175.371 l 407.43 175.371 l 
h
406.918 183.691 m f
0.384314 0.447059 0.643137 rg
48.18 127.531 m 50.773 127.531 l 50.773 125.484 l 47.859 125.484 l 47.188
 120.043 l 44.914 120.043 l 45.621 125.484 l 40.98 125.484 l 40.242 120.043
 l 37.973 120.043 l 38.676 125.484 l 36.148 125.484 l 36.148 127.531 l 38.93
 127.531 l 39.922 134.637 l 37.332 134.637 l 37.332 136.75 l 40.18 136.75
 l 40.914 142.094 l 43.188 142.094 l 42.453 136.75 l 47.125 136.75 l 47.859
 142.094 l 50.133 142.094 l 49.395 136.75 l 51.957 136.75 l 51.957 134.637
 l 49.109 134.637 l h
45.875 127.531 m 46.867 134.637 l 42.164 134.637 l 41.234 127.531 l h
45.875 127.531 m f
108.879 129.996 m 100.207 120.234 l 98.191 121.965 l 100.207 124.172 l 
100.762 124.789 101.422 125.336 102.191 125.805 c 76.879 125.805 l 76.879
 128.109 l 103.82 128.109 l 105.52 129.996 l 103.82 131.883 l 76.879 131.883
 l 76.879 134.188 l 102.191 134.188 l 101.465 134.637 100.805 135.191 100.207
 135.852 c 98.191 138.027 l 100.207 139.758 l h
108.879 129.996 m f
144.117 127.531 m 146.711 127.531 l 146.711 125.484 l 143.797 125.484 l
 143.125 120.043 l 140.852 120.043 l 141.559 125.484 l 136.918 125.484 l
 136.18 120.043 l 133.91 120.043 l 134.613 125.484 l 132.086 125.484 l 132.086
 127.531 l 134.867 127.531 l 135.859 134.637 l 133.27 134.637 l 133.27 136.75
 l 136.117 136.75 l 136.852 142.094 l 139.125 142.094 l 138.391 136.75 l
 143.063 136.75 l 143.797 142.094 l 146.07 142.094 l 145.332 136.75 l 147.895
 136.75 l 147.895 134.637 l 145.047 134.637 l h
141.813 127.531 m 142.805 134.637 l 138.102 134.637 l 137.172 127.531 l
 h
141.813 127.531 m f
165.992 137.004 m 154.695 130.059 l 165.992 123.051 l 164.551 121.102 l
 152.395 128.684 l 152.395 131.469 l 164.68 139.051 l h
165.992 137.004 m f
186.461 131.18 m 186.461 127 185.5 124.098 183.582 122.477 c 181.66 120.855
 179.293 120.043 176.477 120.043 c 171.422 120.043 l 171.422 142.094 l 176.125
 142.094 l 179.219 142.094 181.715 141.313 183.613 139.758 c 185.512 138.199
 186.461 135.34 186.461 131.18 c h
183.484 131.18 m 183.484 133.57 183.152 135.395 182.492 136.652 c 181.852
 137.934 181.051 138.773 180.094 139.18 c 179.133 139.605 178.035 139.82
 176.797 139.82 c 174.203 139.82 l 174.203 122.285 l 176.828 122.285 l 178.727
 122.285 180.305 122.934 181.563 124.234 c 182.844 125.559 183.484 127.875
 183.484 131.18 c h
183.484 131.18 m f
197.551 144.781 m 198.148 144.781 198.629 144.598 198.992 144.234 c 199.355
 143.895 199.535 143.445 199.535 142.891 c 199.535 142.336 199.355 141.879
 198.992 141.516 c 198.629 141.176 198.148 141.004 197.551 141.004 c 196.977
 141.004 196.508 141.176 196.145 141.516 c 195.801 141.879 195.633 142.336
 195.633 142.891 c 195.633 143.445 195.801 143.895 196.145 144.234 c 196.508
 144.598 196.977 144.781 197.551 144.781 c h
199.695 122.188 m 204.43 122.188 l 204.43 120.043 l 191.824 120.043 l 191.824
 122.188 l 197.008 122.188 l 197.008 134.766 l 191.984 134.766 l 191.984
 136.906 l 199.695 136.906 l h
199.695 122.188 m f
212.484 127.531 m 212.547 125.676 213.027 124.277 213.922 123.34 c 214.84
 122.402 215.992 121.934 217.379 121.934 c 218.211 121.934 218.969 122.051
 219.652 122.285 c 220.355 122.539 221.102 122.926 221.891 123.438 c 223.141
 121.645 l 222.352 121.027 221.441 120.547 220.418 120.203 c 219.418 119.863
 218.402 119.691 217.379 119.691 c 214.945 119.691 213.047 120.48 211.684
 122.059 c 210.34 123.66 209.668 125.793 209.668 128.461 c 209.668 130.145
 209.965 131.648 210.563 132.973 c 211.16 134.316 212.016 135.363 213.125
 136.109 c 214.234 136.875 215.523 137.262 216.996 137.262 c 219.129 137.262
 220.805 136.512 222.02 135.02 c 223.258 133.547 223.875 131.531 223.875
 128.973 c 223.875 128.48 223.855 128 223.813 127.531 c h
217.027 135.051 m 215.727 135.051 214.668 134.582 213.859 133.645 c 213.047
 132.727 212.59 131.371 212.484 129.578 c 221.25 129.578 l 221.23 131.352
 220.848 132.707 220.098 133.645 c 219.352 134.582 218.328 135.051 217.027
 135.051 c h
217.027 135.051 m f
242.934 120.906 m 242.359 120.523 241.656 120.227 240.824 120.012 c 240.012
 119.797 239.203 119.691 238.391 119.691 c 236.621 119.691 235.234 120.152
 234.23 121.066 c 233.227 122.008 232.727 123.234 232.727 124.75 c 232.727
 134.797 l 228.855 134.797 l 228.855 136.906 l 232.727 136.906 l 232.727
 140.715 l 235.414 141.035 l 235.414 136.906 l 241.27 136.906 l 240.918 
134.797 l 235.414 134.797 l 235.414 124.781 l 235.414 123.82 235.672 123.105
 236.184 122.637 c 236.695 122.168 237.516 121.934 238.648 121.934 c 239.797
 121.934 240.875 122.199 241.879 122.73 c h
242.934 120.906 m f
260.809 123.723 m 260.809 123.063 260.918 122.57 261.129 122.254 c 261.344
 121.953 261.695 121.73 262.188 121.578 c 261.516 119.66 l 259.871 119.875
 258.848 120.672 258.441 122.059 c 257.844 121.293 257.086 120.707 256.172
 120.301 c 255.273 119.895 254.27 119.691 253.164 119.691 c 251.477 119.691
 250.145 120.16 249.164 121.102 c 248.203 122.039 247.723 123.297 247.723
 124.875 c 247.723 126.605 248.395 127.938 249.738 128.875 c 251.102 129.816
 253.055 130.285 255.594 130.285 c 258.09 130.285 l 258.09 131.66 l 258.09
 132.855 257.75 133.707 257.066 134.219 c 256.383 134.754 255.391 135.02
 254.09 135.02 c 252.809 135.02 251.348 134.73 249.707 134.156 c 248.969
 136.203 l 250.953 136.906 252.801 137.262 254.508 137.262 c 256.555 137.262
 258.113 136.781 259.18 135.82 c 260.266 134.859 260.809 133.527 260.809
 131.82 c h
253.836 121.707 m 254.668 121.707 255.457 121.922 256.203 122.348 c 256.969
 122.773 257.598 123.363 258.09 124.109 c 258.09 128.43 l 255.656 128.43
 l 253.867 128.43 252.574 128.129 251.785 127.531 c 250.996 126.934 250.602
 126.059 250.602 124.906 c 250.602 122.773 251.68 121.707 253.836 121.707
 c h
253.836 121.707 m f
279.293 137.262 m 279.977 137.262 280.766 137.145 281.66 136.906 c 281.277
 131.18 l 279.102 131.18 l 279.102 134.797 l 278.941 134.797 l 276.34 134.797
 274.492 132.941 273.406 129.227 c 273.406 122.125 l 276.828 122.125 l 276.828
 120.043 l 268.063 120.043 l 268.063 122.125 l 270.719 122.125 l 270.719
 134.828 l 268.063 134.828 l 268.063 136.906 l 272.734 136.906 l 273.246
 132.906 l 273.93 134.359 274.738 135.445 275.676 136.172 c 276.637 136.898
 277.844 137.262 279.293 137.262 c h
279.293 137.262 m f
295.219 119.949 m 294.555 118.008 293.648 116.461 292.496 115.309 c 291.344
 114.156 289.734 113.473 287.664 113.262 c 287.281 115.402 l 288.41 115.598
 289.309 115.895 289.969 116.301 c 290.652 116.684 291.184 117.176 291.57
 117.773 c 291.953 118.348 292.305 119.105 292.625 120.043 c 291.73 120.043
 l 285.875 136.906 l 288.723 136.906 l 293.555 122.094 l 298.32 136.906 
l 301.105 136.906 l h
295.219 119.949 m f
320.773 131.18 m 320.773 127 319.813 124.098 317.895 122.477 c 315.973 
120.855 313.605 120.043 310.789 120.043 c 305.734 120.043 l 305.734 142.094
 l 310.438 142.094 l 313.531 142.094 316.027 141.313 317.926 139.758 c 319.824
 138.199 320.773 135.34 320.773 131.18 c h
317.797 131.18 m 317.797 133.57 317.465 135.395 316.805 136.652 c 316.164
 137.934 315.363 138.773 314.406 139.18 c 313.445 139.605 312.348 139.82
 311.109 139.82 c 308.516 139.82 l 308.516 122.285 l 311.141 122.285 l 313.039
 122.285 314.617 122.934 315.875 124.234 c 317.156 125.559 317.797 127.875
 317.797 131.18 c h
317.797 131.18 m f
331.223 121.898 m 332.504 121.898 333.516 122.145 334.266 122.637 c 335.012
 123.125 335.383 123.777 335.383 124.59 c 335.383 125.145 335.289 125.59
 335.098 125.934 c 334.902 126.293 334.52 126.613 333.945 126.891 c 333.367
 127.191 332.492 127.488 331.32 127.789 c 329.359 128.277 327.906 128.867
 326.969 129.547 c 326.031 130.254 325.559 131.285 325.559 132.652 c 325.559
 134.059 326.148 135.18 327.32 136.012 c 328.492 136.844 330.039 137.262
 331.961 137.262 c 334.309 137.262 336.355 136.641 338.105 135.402 c 336.887
 133.547 l 336.184 134.039 335.449 134.41 334.68 134.668 c 333.914 134.945
 333.027 135.086 332.023 135.086 c 329.594 135.086 328.375 134.348 328.375
 132.875 c 328.375 132.363 328.504 131.949 328.762 131.629 c 329.039 131.309
 329.477 131.02 330.07 130.766 c 330.691 130.531 331.609 130.242 332.824
 129.898 c 334.66 129.41 336.023 128.781 336.922 128.012 c 337.836 127.266
 338.297 126.168 338.297 124.715 c 338.297 123.031 337.613 121.773 336.25
 120.941 c 334.883 120.109 333.207 119.691 331.223 119.691 c 328.578 119.691
 326.383 120.449 324.633 121.965 c 326.137 123.723 l 326.82 123.168 327.598
 122.723 328.473 122.379 c 329.348 122.059 330.266 121.898 331.223 121.898
 c h
331.223 121.898 m f
351.242 124.203 m 351.242 122.688 352.172 121.934 354.027 121.934 c 354.902
 121.934 355.84 122.125 356.844 122.508 c 357.547 120.555 l 356.48 119.98
 355.148 119.691 353.547 119.691 c 352.031 119.691 350.816 120.109 349.898
 120.941 c 349.004 121.773 348.555 122.902 348.555 124.332 c 348.555 141.547
 l 343.371 141.547 l 343.371 143.691 l 351.242 143.691 l h
351.242 124.203 m f
383.633 133.836 m 383.633 134.539 383.879 135.137 384.371 135.629 c 384.859
 136.141 385.469 136.395 386.195 136.395 c 386.941 136.395 387.559 136.141
 388.051 135.629 c 388.543 135.137 388.785 134.539 388.785 133.836 c 388.785
 133.109 388.543 132.492 388.051 131.98 c 387.559 131.469 386.941 131.211
 386.195 131.211 c 385.469 131.211 384.859 131.469 384.371 131.98 c 383.879
 132.492 383.633 133.109 383.633 133.836 c h
383.633 122.285 m 383.633 122.988 383.879 123.598 384.371 124.109 c 384.859
 124.621 385.469 124.875 386.195 124.875 c 386.941 124.875 387.559 124.621
 388.051 124.109 c 388.543 123.617 388.785 123.008 388.785 122.285 c 388.785
 121.539 388.543 120.918 388.051 120.43 c 387.559 119.938 386.941 119.691
 386.195 119.691 c 385.469 119.691 384.859 119.938 384.371 120.43 c 383.879
 120.918 383.633 121.539 383.633 122.285 c h
370.836 133.836 m 370.836 134.539 371.078 135.137 371.57 135.629 c 372.063
 136.141 372.668 136.395 373.395 136.395 c 374.141 136.395 374.762 136.141
 375.25 135.629 c 375.742 135.137 375.988 134.539 375.988 133.836 c 375.988
 133.109 375.742 132.492 375.25 131.98 c 374.762 131.469 374.141 131.211
 373.395 131.211 c 372.668 131.211 372.063 131.469 371.57 131.98 c 371.078
 132.492 370.836 133.109 370.836 133.836 c h
370.836 122.285 m 370.836 122.988 371.078 123.598 371.57 124.109 c 372.063
 124.621 372.668 124.875 373.395 124.875 c 374.141 124.875 374.762 124.621
 375.25 124.109 c 375.742 123.617 375.988 123.008 375.988 122.285 c 375.988
 121.539 375.742 120.918 375.25 120.43 c 374.762 119.938 374.141 119.691
 373.395 119.691 c 372.668 119.691 372.063 119.938 371.57 120.43 c 371.078
 120.918 370.836 121.539 370.836 122.285 c h
370.836 122.285 m f
404.168 125.676 m 402.406 120.043 l 399.652 120.043 l 406.855 142.094 l
 410.375 142.094 l 417.543 120.043 l 414.664 120.043 l 412.902 125.676 l
 h
412.168 127.98 m 408.551 139.723 l 404.902 127.98 l h
412.168 127.98 m f
427.992 124.203 m 427.992 122.688 428.922 121.934 430.777 121.934 c 431.652
 121.934 432.59 122.125 433.594 122.508 c 434.297 120.555 l 433.23 119.98
 431.898 119.691 430.297 119.691 c 428.781 119.691 427.566 120.109 426.648
 120.941 c 425.754 121.773 425.305 122.902 425.305 124.332 c 425.305 141.547
 l 420.121 141.547 l 420.121 143.691 l 427.992 143.691 l h
427.992 124.203 m f
446.988 144.781 m 447.586 144.781 448.066 144.598 448.43 144.234 c 448.793
 143.895 448.973 143.445 448.973 142.891 c 448.973 142.336 448.793 141.879
 448.43 141.516 c 448.066 141.176 447.586 141.004 446.988 141.004 c 446.414
 141.004 445.945 141.176 445.582 141.516 c 445.238 141.879 445.07 142.336
 445.07 142.891 c 445.07 143.445 445.238 143.895 445.582 144.234 c 445.945
 144.598 446.414 144.781 446.988 144.781 c h
449.133 122.188 m 453.867 122.188 l 453.867 120.043 l 441.262 120.043 l
 441.262 122.188 l 446.445 122.188 l 446.445 134.766 l 441.422 134.766 l
 441.422 136.906 l 449.133 136.906 l h
449.133 122.188 m f
470.879 137.262 m 471.84 137.262 472.621 136.918 473.215 136.234 c 473.836
 135.574 474.145 134.359 474.145 132.59 c 474.145 120.043 l 471.68 120.043
 l 471.68 132.141 l 471.68 133.313 471.605 134.102 471.457 134.508 c 471.309
 134.934 470.945 135.148 470.367 135.148 c 469.281 135.148 468.301 134.477
 467.426 133.133 c 467.426 120.043 l 464.93 120.043 l 464.93 132.141 l 464.93
 133.313 464.855 134.102 464.703 134.508 c 464.555 134.934 464.191 135.148
 463.617 135.148 c 462.527 135.148 461.547 134.477 460.672 133.133 c 460.672
 120.043 l 458.207 120.043 l 458.207 136.906 l 460.289 136.906 l 460.48 
134.926 l 460.992 135.672 461.527 136.246 462.082 136.652 c 462.656 137.059
 463.34 137.262 464.129 137.262 c 465.707 137.262 466.719 136.512 467.168
 135.02 c 467.68 135.746 468.227 136.301 468.801 136.684 c 469.375 137.066
 470.07 137.262 470.879 137.262 c h
470.879 137.262 m f
481.109 127.531 m 481.172 125.676 481.652 124.277 482.547 123.34 c 483.465
 122.402 484.617 121.934 486.004 121.934 c 486.836 121.934 487.594 122.051
 488.277 122.285 c 488.98 122.539 489.727 122.926 490.516 123.438 c 491.766
 121.645 l 490.977 121.027 490.066 120.547 489.043 120.203 c 488.043 119.863
 487.027 119.691 486.004 119.691 c 483.57 119.691 481.672 120.48 480.309
 122.059 c 478.965 123.66 478.293 125.793 478.293 128.461 c 478.293 130.145
 478.59 131.648 479.188 132.973 c 479.785 134.316 480.641 135.363 481.75
 136.109 c 482.859 136.875 484.148 137.262 485.621 137.262 c 487.754 137.262
 489.43 136.512 490.645 135.02 c 491.883 133.547 492.5 131.531 492.5 128.973
 c 492.5 128.48 492.48 128 492.438 127.531 c h
485.652 135.051 m 484.352 135.051 483.293 134.582 482.484 133.645 c 481.672
 132.727 481.215 131.371 481.109 129.578 c 489.875 129.578 l 489.855 131.352
 489.473 132.707 488.723 133.645 c 487.977 134.582 486.953 135.051 485.652
 135.051 c h
485.652 135.051 m f
498.152 136.906 m 500.457 136.906 l 500.68 134.539 l 501.34 135.395 502.172
 136.055 503.176 136.523 c 504.199 137.016 505.223 137.262 506.246 137.262
 c 509.406 137.262 510.984 135.598 510.984 132.27 c 510.984 120.043 l 508.297
 120.043 l 508.297 130.285 l 508.297 131.543 508.223 132.504 508.07 133.164
 c 507.945 133.824 507.676 134.316 507.273 134.637 c 506.867 134.957 506.246
 135.117 505.414 135.117 c 504.5 135.117 503.633 134.84 502.824 134.285 
c 502.012 133.73 501.352 133.066 500.84 132.301 c 500.84 120.043 l 498.152
 120.043 l h
498.152 136.906 m f
530.746 120.906 m 530.172 120.523 529.469 120.227 528.637 120.012 c 527.824
 119.797 527.016 119.691 526.203 119.691 c 524.434 119.691 523.047 120.152
 522.043 121.066 c 521.039 122.008 520.539 123.234 520.539 124.75 c 520.539
 134.797 l 516.668 134.797 l 516.668 136.906 l 520.539 136.906 l 520.539
 140.715 l 523.227 141.035 l 523.227 136.906 l 529.082 136.906 l 528.73 
134.797 l 523.227 134.797 l 523.227 124.781 l 523.227 123.82 523.484 123.105
 523.996 122.637 c 524.508 122.168 525.328 121.934 526.461 121.934 c 527.609
 121.934 528.688 122.199 529.691 122.73 c h
530.746 120.906 m f
542.957 137.262 m 545.285 137.262 547.066 136.473 548.301 134.891 c 549.563
 133.336 550.191 131.203 550.191 128.492 c 550.191 125.848 549.551 123.715
 548.27 122.094 c 547.012 120.492 545.23 119.691 542.926 119.691 c 540.602
 119.691 538.809 120.473 537.551 122.027 c 536.293 123.605 535.664 125.75
 535.664 128.461 c 535.664 131.125 536.293 133.262 537.551 134.859 c 538.832
 136.461 540.633 137.262 542.957 137.262 c h
542.957 135.051 m 541.488 135.051 540.387 134.508 539.664 133.422 c 538.938
 132.332 538.574 130.68 538.574 128.461 c 538.574 126.242 538.926 124.59
 539.629 123.5 c 540.355 122.434 541.453 121.898 542.926 121.898 c 544.398
 121.898 545.488 122.434 546.191 123.5 c 546.914 124.59 547.277 126.254 
547.277 128.492 c 547.277 130.711 546.914 132.352 546.191 133.422 c 545.488
 134.508 544.41 135.051 542.957 135.051 c h
542.957 135.051 m f
559.523 133.836 m 559.523 134.539 559.766 135.137 560.258 135.629 c 560.75
 136.141 561.355 136.395 562.082 136.395 c 562.828 136.395 563.449 136.141
 563.938 135.629 c 564.43 135.137 564.676 134.539 564.676 133.836 c 564.676
 133.109 564.43 132.492 563.938 131.98 c 563.449 131.469 562.828 131.211
 562.082 131.211 c 561.355 131.211 560.75 131.469 560.258 131.98 c 559.766
 132.492 559.523 133.109 559.523 133.836 c h
559.523 122.285 m 559.523 122.988 559.766 123.598 560.258 124.109 c 560.75
 124.621 561.355 124.875 562.082 124.875 c 562.828 124.875 563.449 124.621
 563.938 124.109 c 564.43 123.617 564.676 123.008 564.676 122.285 c 564.676
 121.539 564.43 120.918 563.938 120.43 c 563.449 119.938 562.828 119.691
 562.082 119.691 c 561.355 119.691 560.75 119.938 560.258 120.43 c 559.766
 120.918 559.523 121.539 559.523 122.285 c h
559.523 122.285 m f
581.301 142.445 m 583.648 142.445 585.43 141.461 586.645 139.5 c 587.883
 137.559 588.5 134.754 588.5 131.086 c 588.5 127.395 587.883 124.566 586.645
 122.605 c 585.43 120.664 583.648 119.691 581.301 119.691 c 578.953 119.691
 577.164 120.664 575.926 122.605 c 574.711 124.566 574.102 127.395 574.102
 131.086 c 574.102 134.754 574.711 137.559 575.926 139.5 c 577.164 141.461
 578.953 142.445 581.301 142.445 c h
581.301 140.27 m 578.379 140.27 576.918 137.207 576.918 131.086 c 576.918
 124.941 578.379 121.867 581.301 121.867 c 584.223 121.867 585.688 124.941
 585.688 131.086 c 585.688 137.207 584.223 140.27 581.301 140.27 c h
581.301 133.164 m 581.898 133.164 582.398 132.961 582.805 132.555 c 583.211
 132.152 583.414 131.66 583.414 131.086 c 583.414 130.488 583.211 129.984
 582.805 129.578 c 582.398 129.176 581.898 128.973 581.301 128.973 c 580.703
 128.973 580.203 129.176 579.797 129.578 c 579.414 129.984 579.223 130.488
 579.223 131.086 c 579.223 131.66 579.414 132.152 579.797 132.555 c 580.203
 132.961 580.703 133.164 581.301 133.164 c h
581.301 133.164 m f
606.922 135.18 m 602.219 130.445 l 606.922 125.645 l 605.227 123.949 l 
600.488 128.715 l 595.688 123.949 l 593.992 125.645 l 598.762 130.445 l 
593.992 135.18 l 595.688 136.875 l 600.488 132.141 l 605.227 136.875 l h
606.922 135.18 m f
619.676 142.445 m 622.023 142.445 623.805 141.461 625.02 139.5 c 626.258
 137.559 626.875 134.754 626.875 131.086 c 626.875 127.395 626.258 124.566
 625.02 122.605 c 623.805 120.664 622.023 119.691 619.676 119.691 c 617.328
 119.691 615.539 120.664 614.301 122.605 c 613.086 124.566 612.477 127.395
 612.477 131.086 c 612.477 134.754 613.086 137.559 614.301 139.5 c 615.539
 141.461 617.328 142.445 619.676 142.445 c h
619.676 140.27 m 616.754 140.27 615.293 137.207 615.293 131.086 c 615.293
 124.941 616.754 121.867 619.676 121.867 c 622.598 121.867 624.063 124.941
 624.063 131.086 c 624.063 137.207 622.598 140.27 619.676 140.27 c h
619.676 133.164 m 620.273 133.164 620.773 132.961 621.18 132.555 c 621.586
 132.152 621.789 131.66 621.789 131.086 c 621.789 130.488 621.586 129.984
 621.18 129.578 c 620.773 129.176 620.273 128.973 619.676 128.973 c 619.078
 128.973 618.578 129.176 618.172 129.578 c 617.789 129.984 617.598 130.488
 617.598 131.086 c 617.598 131.66 617.789 132.152 618.172 132.555 c 618.578
 132.961 619.078 133.164 619.676 133.164 c h
619.676 133.164 m f
638.863 142.445 m 641.211 142.445 642.992 141.461 644.207 139.5 c 645.445
 137.559 646.063 134.754 646.063 131.086 c 646.063 127.395 645.445 124.566
 644.207 122.605 c 642.992 120.664 641.211 119.691 638.863 119.691 c 636.516
 119.691 634.727 120.664 633.488 122.605 c 632.273 124.566 631.664 127.395
 631.664 131.086 c 631.664 134.754 632.273 137.559 633.488 139.5 c 634.727
 141.461 636.516 142.445 638.863 142.445 c h
638.863 140.27 m 635.941 140.27 634.48 137.207 634.48 131.086 c 634.48 
124.941 635.941 121.867 638.863 121.867 c 641.785 121.867 643.25 124.941
 643.25 131.086 c 643.25 137.207 641.785 140.27 638.863 140.27 c h
638.863 133.164 m 639.461 133.164 639.961 132.961 640.367 132.555 c 640.773
 132.152 640.977 131.66 640.977 131.086 c 640.977 130.488 640.773 129.984
 640.367 129.578 c 639.961 129.176 639.461 128.973 638.863 128.973 c 638.266
 128.973 637.766 129.176 637.359 129.578 c 636.977 129.984 636.785 130.488
 636.785 131.086 c 636.785 131.66 636.977 132.152 637.359 132.555 c 637.766
 132.961 638.266 133.164 638.863 133.164 c h
638.863 133.164 m f
658.051 142.445 m 660.398 142.445 662.18 141.461 663.395 139.5 c 664.633
 137.559 665.25 134.754 665.25 131.086 c 665.25 127.395 664.633 124.566 
663.395 122.605 c 662.18 120.664 660.398 119.691 658.051 119.691 c 655.703
 119.691 653.914 120.664 652.676 122.605 c 651.461 124.566 650.852 127.395
 650.852 131.086 c 650.852 134.754 651.461 137.559 652.676 139.5 c 653.914
 141.461 655.703 142.445 658.051 142.445 c h
658.051 140.27 m 655.129 140.27 653.668 137.207 653.668 131.086 c 653.668
 124.941 655.129 121.867 658.051 121.867 c 660.973 121.867 662.438 124.941
 662.438 131.086 c 662.438 137.207 660.973 140.27 658.051 140.27 c h
658.051 133.164 m 658.648 133.164 659.148 132.961 659.555 132.555 c 659.961
 132.152 660.164 131.66 660.164 131.086 c 660.164 130.488 659.961 129.984
 659.555 129.578 c 659.148 129.176 658.648 128.973 658.051 128.973 c 657.453
 128.973 656.953 129.176 656.547 129.578 c 656.164 129.984 655.973 130.488
 655.973 131.086 c 655.973 131.66 656.164 132.152 656.547 132.555 c 656.953
 132.961 657.453 133.164 658.051 133.164 c h
658.051 133.164 m f
677.238 142.445 m 679.586 142.445 681.367 141.461 682.582 139.5 c 683.82
 137.559 684.438 134.754 684.438 131.086 c 684.438 127.395 683.82 124.566
 682.582 122.605 c 681.367 120.664 679.586 119.691 677.238 119.691 c 674.891
 119.691 673.102 120.664 671.863 122.605 c 670.648 124.566 670.039 127.395
 670.039 131.086 c 670.039 134.754 670.648 137.559 671.863 139.5 c 673.102
 141.461 674.891 142.445 677.238 142.445 c h
677.238 140.27 m 674.316 140.27 672.855 137.207 672.855 131.086 c 672.855
 124.941 674.316 121.867 677.238 121.867 c 680.16 121.867 681.625 124.941
 681.625 131.086 c 681.625 137.207 680.16 140.27 677.238 140.27 c h
677.238 133.164 m 677.836 133.164 678.336 132.961 678.742 132.555 c 679.148
 132.152 679.352 131.66 679.352 131.086 c 679.352 130.488 679.148 129.984
 678.742 129.578 c 678.336 129.176 677.836 128.973 677.238 128.973 c 676.641
 128.973 676.141 129.176 675.734 129.578 c 675.352 129.984 675.16 130.488
 675.16 131.086 c 675.16 131.66 675.352 132.152 675.734 132.555 c 676.141
 132.961 676.641 133.164 677.238 133.164 c h
677.238 133.164 m f
696.426 142.445 m 698.773 142.445 700.555 141.461 701.77 139.5 c 703.008
 137.559 703.625 134.754 703.625 131.086 c 703.625 127.395 703.008 124.566
 701.77 122.605 c 700.555 120.664 698.773 119.691 696.426 119.691 c 694.078
 119.691 692.289 120.664 691.051 122.605 c 689.836 124.566 689.227 127.395
 689.227 131.086 c 689.227 134.754 689.836 137.559 691.051 139.5 c 692.289
 141.461 694.078 142.445 696.426 142.445 c h
696.426 140.27 m 693.504 140.27 692.043 137.207 692.043 131.086 c 692.043
 124.941 693.504 121.867 696.426 121.867 c 699.348 121.867 700.813 124.941
 700.813 131.086 c 700.813 137.207 699.348 140.27 696.426 140.27 c h
696.426 133.164 m 697.023 133.164 697.523 132.961 697.93 132.555 c 698.336
 132.152 698.539 131.66 698.539 131.086 c 698.539 130.488 698.336 129.984
 697.93 129.578 c 697.523 129.176 697.023 128.973 696.426 128.973 c 695.828
 128.973 695.328 129.176 694.922 129.578 c 694.539 129.984 694.348 130.488
 694.348 131.086 c 694.348 131.66 694.539 132.152 694.922 132.555 c 695.328
 132.961 695.828 133.164 696.426 133.164 c h
696.426 133.164 m f
715.613 142.445 m 717.961 142.445 719.742 141.461 720.957 139.5 c 722.195
 137.559 722.813 134.754 722.813 131.086 c 722.813 127.395 722.195 124.566
 720.957 122.605 c 719.742 120.664 717.961 119.691 715.613 119.691 c 713.266
 119.691 711.477 120.664 710.238 122.605 c 709.023 124.566 708.414 127.395
 708.414 131.086 c 708.414 134.754 709.023 137.559 710.238 139.5 c 711.477
 141.461 713.266 142.445 715.613 142.445 c h
715.613 140.27 m 712.691 140.27 711.23 137.207 711.23 131.086 c 711.23 
124.941 712.691 121.867 715.613 121.867 c 718.535 121.867 720 124.941 720
 131.086 c 720 137.207 718.535 140.27 715.613 140.27 c h
715.613 133.164 m 716.211 133.164 716.711 132.961 717.117 132.555 c 717.523
 132.152 717.727 131.66 717.727 131.086 c 717.727 130.488 717.523 129.984
 717.117 129.578 c 716.711 129.176 716.211 128.973 715.613 128.973 c 715.016
 128.973 714.516 129.176 714.109 129.578 c 713.727 129.984 713.535 130.488
 713.535 131.086 c 713.535 131.66 713.727 132.152 714.109 132.555 c 714.516
 132.961 715.016 133.164 715.613 133.164 c h
715.613 133.164 m f
734.801 142.445 m 737.148 142.445 738.93 141.461 740.145 139.5 c 741.383
 137.559 742 134.754 742 131.086 c 742 127.395 741.383 124.566 740.145 122.605
 c 738.93 120.664 737.148 119.691 734.801 119.691 c 732.453 119.691 730.664
 120.664 729.426 122.605 c 728.211 124.566 727.602 127.395 727.602 131.086
 c 727.602 134.754 728.211 137.559 729.426 139.5 c 730.664 141.461 732.453
 142.445 734.801 142.445 c h
734.801 140.27 m 731.879 140.27 730.418 137.207 730.418 131.086 c 730.418
 124.941 731.879 121.867 734.801 121.867 c 737.723 121.867 739.188 124.941
 739.188 131.086 c 739.188 137.207 737.723 140.27 734.801 140.27 c h
734.801 133.164 m 735.398 133.164 735.898 132.961 736.305 132.555 c 736.711
 132.152 736.914 131.66 736.914 131.086 c 736.914 130.488 736.711 129.984
 736.305 129.578 c 735.898 129.176 735.398 128.973 734.801 128.973 c 734.203
 128.973 733.703 129.176 733.297 129.578 c 732.914 129.984 732.723 130.488
 732.723 131.086 c 732.723 131.66 732.914 132.152 733.297 132.555 c 733.703
 132.961 734.203 133.164 734.801 133.164 c h
734.801 133.164 m f
759.59 139.918 m 750.887 139.918 l 750.887 132.973 l 751.504 133.336 752.113
 133.578 752.711 133.707 c 753.328 133.855 753.977 133.934 754.66 133.934
 c 756.496 133.934 757.957 133.324 759.047 132.109 c 760.156 130.891 760.711
 129.195 760.711 127.02 c 760.711 125.57 760.398 124.289 759.781 123.18 
c 759.184 122.07 758.32 121.207 757.188 120.59 c 756.059 119.992 754.746
 119.691 753.254 119.691 c 750.801 119.691 748.668 120.566 746.852 122.316
 c 748.516 123.949 l 749.859 122.582 751.441 121.898 753.254 121.898 c 754.727
 121.898 755.867 122.348 756.676 123.242 c 757.488 124.141 757.895 125.43
 757.895 127.117 c 757.895 128.781 757.531 129.977 756.805 130.699 c 756.078
 131.445 755.109 131.82 753.895 131.82 c 753.316 131.82 752.793 131.766 
752.324 131.66 c 751.855 131.555 751.238 131.363 750.469 131.086 c 748.293
 131.086 l 748.293 142.094 l 759.973 142.094 l h
759.59 139.918 m f
778.871 123.723 m 778.871 123.063 778.98 122.57 779.191 122.254 c 779.406
 121.953 779.758 121.73 780.25 121.578 c 779.578 119.66 l 777.934 119.875
 776.91 120.672 776.504 122.059 c 775.906 121.293 775.148 120.707 774.234
 120.301 c 773.336 119.895 772.332 119.691 771.227 119.691 c 769.539 119.691
 768.207 120.16 767.227 121.102 c 766.266 122.039 765.785 123.297 765.785
 124.875 c 765.785 126.605 766.457 127.938 767.801 128.875 c 769.164 129.816
 771.117 130.285 773.656 130.285 c 776.152 130.285 l 776.152 131.66 l 776.152
 132.855 775.813 133.707 775.129 134.219 c 774.445 134.754 773.453 135.02
 772.152 135.02 c 770.871 135.02 769.41 134.73 767.77 134.156 c 767.031 
136.203 l 769.016 136.906 770.863 137.262 772.57 137.262 c 774.617 137.262
 776.176 136.781 777.242 135.82 c 778.328 134.859 778.871 133.527 778.871
 131.82 c h
771.898 121.707 m 772.73 121.707 773.52 121.922 774.266 122.348 c 775.031
 122.773 775.66 123.363 776.152 124.109 c 776.152 128.43 l 773.719 128.43
 l 771.93 128.43 770.637 128.129 769.848 127.531 c 769.059 126.934 768.664
 126.059 768.664 124.906 c 768.664 122.773 769.742 121.707 771.898 121.707
 c h
771.898 121.707 m f
793.613 121.996 m 795.086 121.996 796.547 122.488 797.996 123.469 c 799.277
 121.707 l 798.57 121.09 797.699 120.598 796.652 120.234 c 795.605 119.875
 794.594 119.691 793.613 119.691 c 791.117 119.691 789.164 120.473 787.758
 122.027 c 786.371 123.605 785.676 125.73 785.676 128.395 c 785.676 130.082
 785.984 131.598 786.605 132.941 c 787.242 134.285 788.16 135.34 789.355
 136.109 c 790.551 136.875 791.969 137.262 793.613 137.262 c 795.789 137.262
 797.664 136.598 799.242 135.277 c 797.934 133.516 l 796.461 134.496 795.008
 134.988 793.582 134.988 c 792.066 134.988 790.848 134.422 789.934 133.293
 c 789.035 132.184 788.59 130.551 788.59 128.395 c 788.59 126.242 789.035
 124.629 789.934 123.563 c 790.848 122.52 792.074 121.996 793.613 121.996
 c h
793.613 121.996 m f
811.199 142.41 m 813.609 142.41 815.414 141.664 816.609 140.172 c 817.801
 138.68 818.398 136.59 818.398 133.898 c 818.398 130.809 817.996 128.344
 817.184 126.508 c 816.395 124.672 815.168 123.223 813.504 122.156 c 811.859
 121.109 809.578 120.184 806.656 119.371 c 806.016 121.422 l 809.152 122.23
 811.508 123.363 813.086 124.813 c 814.688 126.262 815.508 128.27 815.551
 130.828 c 815.02 130.039 814.305 129.387 813.406 128.875 c 812.512 128.363
 811.488 128.109 810.336 128.109 c 809.121 128.109 808.031 128.395 807.07
 128.973 c 806.133 129.547 805.398 130.359 804.863 131.402 c 804.332 132.473
 804.063 133.719 804.063 135.148 c 804.063 136.684 804.371 137.996 804.992
 139.086 c 805.633 140.172 806.484 140.992 807.551 141.547 c 808.641 142.125
 809.855 142.41 811.199 142.41 c h
810.785 130.285 m 812.703 130.285 814.313 131.254 815.617 133.195 c 815.66
 135.777 815.328 137.59 814.625 138.637 c 813.918 139.703 812.777 140.234
 811.199 140.234 c 809.77 140.234 808.691 139.797 807.969 138.926 c 807.242
 138.051 806.879 136.758 806.879 135.051 c 806.879 133.43 807.211 132.227
 807.871 131.438 c 808.555 130.668 809.523 130.285 810.785 130.285 c h
810.785 130.285 m f
834.293 144.012 m 835.891 144.012 837.418 143.715 838.867 143.117 c 838.004
 141.102 l 836.938 141.57 835.73 141.805 834.387 141.805 c 832.039 141.805
 830.867 140.875 830.867 139.02 c 830.867 135.598 l 836.563 135.598 l 836.273
 133.453 l 830.867 133.453 l 830.867 120.043 l 828.148 120.043 l 828.148
 133.453 l 824.148 133.453 l 824.148 135.598 l 828.148 135.598 l 828.148
 138.957 l 828.148 140.473 828.723 141.688 829.875 142.605 c 831.047 143.543
 832.52 144.012 834.293 144.012 c h
834.293 144.012 m f
856.871 122.219 m 856.871 120.043 l 844.168 120.043 l 844.168 122.219 l
 849.574 122.219 l 849.574 139.148 l 844.551 136.109 l 843.367 137.996 l
 849.926 142.094 l 852.293 142.094 l 852.293 122.219 l h
856.871 122.219 m f
875.707 136.844 m 875.707 135.797 875.387 134.883 874.746 134.094 c 874.105
 133.305 873.156 132.555 871.898 131.852 c 873.391 131.234 874.555 130.422
 875.387 129.422 c 876.219 128.418 876.633 127.266 876.633 125.965 c 876.633
 124.77 876.324 123.691 875.707 122.73 c 875.086 121.773 874.203 121.027
 873.051 120.492 c 871.898 119.957 870.566 119.691 869.051 119.691 c 867.516
 119.691 866.18 119.957 865.051 120.492 c 863.918 121.047 863.055 121.793
 862.457 122.73 c 861.883 123.672 861.594 124.727 861.594 125.898 c 861.594
 128.352 863.078 130.273 866.043 131.66 c 864.824 132.234 863.93 132.906
 863.355 133.676 c 862.801 134.465 862.523 135.469 862.523 136.684 c 862.523
 137.941 862.852 139.008 863.516 139.883 c 864.176 140.758 865.008 141.398
 866.012 141.805 c 867.035 142.23 868.07 142.445 869.113 142.445 c 870.246
 142.445 871.313 142.242 872.313 141.836 c 873.316 141.43 874.129 140.801
 874.746 139.949 c 875.387 139.117 875.707 138.082 875.707 136.844 c h
865.145 136.652 m 865.145 135.84 865.328 135.191 865.691 134.699 c 866.074
 134.23 866.574 133.848 867.195 133.547 c 867.813 133.27 868.75 132.93 870.012
 132.523 c 871.098 133.164 871.875 133.781 872.348 134.379 c 872.836 135
 873.082 135.777 873.082 136.715 c 873.082 137.824 872.73 138.699 872.027
 139.34 c 871.344 140 870.371 140.332 869.113 140.332 c 867.855 140.332 
866.875 140.012 866.172 139.371 c 865.488 138.73 865.145 137.824 865.145
 136.652 c h
873.785 125.898 m 873.785 126.84 873.551 127.598 873.082 128.172 c 872.613
 128.77 871.992 129.238 871.227 129.578 c 870.48 129.922 869.359 130.359
 867.867 130.891 c 865.582 129.824 864.441 128.16 864.441 125.898 c 864.441
 124.641 864.836 123.648 865.625 122.926 c 866.414 122.219 867.559 121.867
 869.051 121.867 c 870.543 121.867 871.707 122.242 872.539 122.988 c 873.371
 123.734 873.785 124.707 873.785 125.898 c h
873.785 125.898 m f
923.848 122.508 m 923.848 123.297 924.125 123.957 924.68 124.492 c 925.215
 125.047 925.875 125.324 926.664 125.324 c 927.477 125.324 928.148 125.047
 928.68 124.492 c 929.215 123.957 929.48 123.297 929.48 122.508 c 929.48
 121.699 929.215 121.027 928.68 120.492 c 928.148 119.957 927.477 119.691
 926.664 119.691 c 925.875 119.691 925.215 119.957 924.68 120.492 c 924.125
 121.047 923.848 121.719 923.848 122.508 c h
936.648 122.508 m 936.648 123.297 936.914 123.957 937.449 124.492 c 938.004
 125.047 938.676 125.324 939.465 125.324 c 940.273 125.324 940.945 125.047
 941.48 124.492 c 942.012 123.957 942.281 123.297 942.281 122.508 c 942.281
 121.699 942.012 121.027 941.48 120.492 c 940.945 119.957 940.273 119.691
 939.465 119.691 c 938.676 119.691 938.004 119.957 937.449 120.492 c 936.914
 121.047 936.648 121.719 936.648 122.508 c h
911.047 122.508 m 911.047 123.297 911.324 123.957 911.879 124.492 c 912.414
 125.047 913.074 125.324 913.863 125.324 c 914.676 125.324 915.348 125.047
 915.879 124.492 c 916.414 123.957 916.68 123.297 916.68 122.508 c 916.68
 121.699 916.414 121.027 915.879 120.492 c 915.348 119.957 914.676 119.691
 913.863 119.691 c 913.074 119.691 912.414 119.957 911.879 120.492 c 911.324
 121.047 911.047 121.719 911.047 122.508 c h
911.047 122.508 m f
971.867 131.438 m 971.867 128.684 l 959.707 121.102 l 958.27 123.086 l 
969.563 130.059 l 958.27 137.004 l 959.578 139.051 l h
971.867 131.438 m f
0.545098 0.913725 0.992157 rg
40.723 85.676 m 37.844 80.043 l 35.09 80.043 l 46.707 102.094 l 50.227 
102.094 l 52.98 80.043 l 50.102 80.043 l 49.461 85.676 l h
49.203 87.98 m 47.922 99.723 l 41.941 87.98 l h
49.203 87.98 m f
64.262 84.203 m 63.965 82.688 64.742 81.934 66.598 81.934 c 67.473 81.934
 68.445 82.125 69.512 82.508 c 69.832 80.555 l 68.656 79.98 67.27 79.691
 65.672 79.691 c 64.156 79.691 63.027 80.109 62.277 80.941 c 61.531 81.773
 61.309 82.902 61.605 84.332 c 65.031 101.547 l 59.848 101.547 l 60.297 
103.691 l 68.168 103.691 l h
64.262 84.203 m f
87.387 104.781 m 87.984 104.781 88.422 104.598 88.699 104.234 c 88.996 
103.895 89.094 103.445 88.988 102.891 c 88.879 102.336 88.602 101.879 88.156
 101.516 c 87.727 101.176 87.215 101.004 86.617 101.004 c 86.043 101.004
 85.617 101.176 85.34 101.516 c 85.063 101.879 84.977 102.336 85.082 102.891
 c 85.188 103.445 85.457 103.895 85.883 104.234 c 86.309 104.598 86.813 
104.781 87.387 104.781 c h
84.988 82.188 m 89.723 82.188 l 89.305 80.043 l 76.699 80.043 l 77.113 
82.188 l 82.297 82.188 l 84.828 94.766 l 79.801 94.766 l 80.219 96.906 l
 87.93 96.906 l h
84.988 82.188 m f
109.773 97.262 m 110.734 97.262 111.449 96.918 111.918 96.234 c 112.387
 95.574 112.441 94.359 112.078 92.59 c 109.582 80.043 l 107.117 80.043 l
 109.551 92.141 l 109.785 93.313 109.859 94.102 109.773 94.508 c 109.711
 94.934 109.391 95.148 108.813 95.148 c 107.727 95.148 106.617 94.477 105.484
 93.133 c 102.863 80.043 l 100.367 80.043 l 102.797 92.141 l 103.031 93.313
 103.109 94.102 103.023 94.508 c 102.957 94.934 102.637 95.148 102.063 95.148
 c 100.973 95.148 99.863 94.477 98.734 93.133 c 96.109 80.043 l 93.645 80.043
 l 97.008 96.906 l 99.086 96.906 l 98.895 94.926 l 99.555 95.672 100.207
 96.246 100.848 96.652 c 101.508 97.059 102.234 97.262 103.023 97.262 c 
104.602 97.262 105.465 96.512 105.613 95.02 c 106.254 95.746 106.906 96.301
 107.566 96.684 c 108.227 97.066 108.965 97.262 109.773 97.262 c h
109.773 97.262 m f
118.051 87.531 m 117.73 85.676 117.934 84.277 118.656 83.34 c 119.383 82.402
 120.438 81.934 121.824 81.934 c 122.656 81.934 123.438 82.051 124.16 82.285
 c 124.91 82.539 125.73 82.926 126.625 83.438 c 127.523 81.645 l 126.605
 81.027 125.602 80.547 124.512 80.203 c 123.445 79.863 122.402 79.691 121.379
 79.691 c 118.945 79.691 117.207 80.48 116.16 82.059 c 115.137 83.66 114.891
 85.793 115.426 88.461 c 115.746 90.145 116.332 91.648 117.188 92.973 c 
118.059 94.316 119.129 95.363 120.387 96.109 c 121.664 96.875 123.043 97.262
 124.512 97.262 c 126.648 97.262 128.172 96.512 129.09 95.02 c 130.027 93.547
 130.242 91.531 129.73 88.973 c 129.621 88.48 129.504 88 129.379 87.531 
c h
124.098 95.051 m 122.797 95.051 121.645 94.582 120.641 93.645 c 119.641
 92.727 118.914 91.371 118.465 89.578 c 127.234 89.578 l 127.555 91.352 
127.438 92.707 126.883 93.645 c 126.328 94.582 125.398 95.051 124.098 95.051
 c h
124.098 95.051 m f
136.949 96.906 m 139.254 96.906 l 139.027 94.539 l 139.859 95.395 140.832
 96.055 141.941 96.523 c 143.051 97.016 144.117 97.262 145.141 97.262 c 
148.297 97.262 149.535 95.598 148.852 92.27 c 146.422 80.043 l 143.734 80.043
 l 145.781 90.285 l 146.039 91.543 146.156 92.504 146.133 93.164 c 146.133
 93.824 145.961 94.316 145.621 94.637 c 145.281 94.957 144.691 95.117 143.859
 95.117 c 142.945 95.117 142.027 94.84 141.109 94.285 c 140.191 93.73 139.402
 93.066 138.742 92.301 c 136.277 80.043 l 133.59 80.043 l h
136.949 96.906 m f
166.344 80.906 m 165.703 80.523 164.949 80.227 164.074 80.012 c 163.219
 79.797 162.387 79.691 161.578 79.691 c 159.805 79.691 158.504 80.152 157.672
 81.066 c 156.863 82.008 156.605 83.234 156.906 84.75 c 158.922 94.797 l
 155.047 94.797 l 155.465 96.906 l 159.336 96.906 l 160.105 100.715 l 162.855
 101.035 l 162.023 96.906 l 167.879 96.906 l 167.113 94.797 l 161.609 94.797
 l 159.625 84.781 l 159.434 83.82 159.539 83.105 159.945 82.637 c 160.371
 82.168 161.148 81.934 162.281 81.934 c 163.434 81.934 164.563 82.199 165.672
 82.73 c h
166.344 80.906 m f
181.852 97.262 m 184.176 97.262 185.797 96.473 186.715 94.891 c 187.656
 93.336 187.859 91.203 187.324 88.492 c 186.789 85.848 185.723 83.715 184.125
 82.094 c 182.547 80.492 180.605 79.691 178.301 79.691 c 175.977 79.691 
174.332 80.473 173.371 82.027 c 172.434 83.605 172.242 85.75 172.797 88.461
 c 173.328 91.125 174.387 93.262 175.965 94.859 c 177.563 96.461 179.527
 97.262 181.852 97.262 c h
181.402 95.051 m 179.934 95.051 178.715 94.508 177.758 93.422 c 176.816
 92.332 176.137 90.68 175.707 88.461 c 175.262 86.242 175.281 84.59 175.773
 83.5 c 176.285 82.434 177.277 81.898 178.75 81.898 c 180.219 81.898 181.414
 82.434 182.332 83.5 c 183.27 84.59 183.965 86.254 184.414 88.492 c 184.859
 90.711 184.828 92.352 184.316 93.422 c 183.824 94.508 182.855 95.051 181.402
 95.051 c h
181.402 95.051 m f
1 g
194.703 82.508 m 194.703 83.297 194.969 83.957 195.504 84.492 c 196.059
 85.047 196.73 85.324 197.52 85.324 c 198.332 85.324 199.004 85.047 199.535
 84.492 c 200.07 83.957 200.336 83.297 200.336 82.508 c 200.336 81.699 200.07
 81.027 199.535 80.492 c 199.004 79.957 198.332 79.691 197.52 79.691 c 196.73
 79.691 196.059 79.957 195.504 80.492 c 194.969 81.047 194.703 81.719 194.703
 82.508 c h
194.703 82.508 m f
1 0.47451 0.776471 rg
210.34 96.906 m 212.645 96.906 l 212.867 94.539 l 213.527 95.395 214.359
 96.055 215.363 96.523 c 216.387 97.016 217.41 97.262 218.434 97.262 c 221.594
 97.262 223.172 95.598 223.172 92.27 c 223.172 80.043 l 220.484 80.043 l
 220.484 90.285 l 220.484 91.543 220.41 92.504 220.258 93.164 c 220.133 
93.824 219.863 94.316 219.461 94.637 c 219.055 94.957 218.434 95.117 217.602
 95.117 c 216.688 95.117 215.82 94.84 215.012 94.285 c 214.199 93.73 213.539
 93.066 213.027 92.301 c 213.027 80.043 l 210.34 80.043 l h
210.34 96.906 m f
231.672 87.531 m 231.734 85.676 232.215 84.277 233.109 83.34 c 234.027 
82.402 235.18 81.934 236.566 81.934 c 237.398 81.934 238.156 82.051 238.84
 82.285 c 239.543 82.539 240.289 82.926 241.078 83.438 c 242.328 81.645 
l 241.539 81.027 240.629 80.547 239.605 80.203 c 238.605 79.863 237.59 79.691
 236.566 79.691 c 234.133 79.691 232.234 80.48 230.871 82.059 c 229.527 
83.66 228.855 85.793 228.855 88.461 c 228.855 90.145 229.152 91.648 229.75
 92.973 c 230.348 94.316 231.203 95.363 232.313 96.109 c 233.422 96.875 
234.711 97.262 236.184 97.262 c 238.316 97.262 239.992 96.512 241.207 95.02
 c 242.445 93.547 243.063 91.531 243.063 88.973 c 243.063 88.48 243.043 
88 243 87.531 c h
236.215 95.051 m 234.914 95.051 233.855 94.582 233.047 93.645 c 232.234
 92.727 231.777 91.371 231.672 89.578 c 240.438 89.578 l 240.418 91.352 
240.035 92.707 239.285 93.645 c 238.539 94.582 237.516 95.051 236.215 95.051
 c h
236.215 95.051 m f
257.418 80.043 m 255.211 92.395 l 252.844 80.043 l 249.129 80.043 l 246.09
 96.906 l 248.809 96.906 l 250.984 81.707 l 253.676 94.766 l 256.844 94.766
 l 259.371 81.707 l 261.547 96.906 l 264.137 96.906 l 261.227 80.043 l h
257.418 80.043 m f
0.945098 0.980392 0.54902 rg
291.793 103.691 m 295.184 103.691 l 294.672 95.371 l 292.305 95.371 l h
291.793 103.691 m f
321.316 80.043 m 318.629 80.043 l 317.957 91.563 l 317.828 93.59 317.766
 96.246 317.766 99.531 c 314.051 84.012 l 311.27 84.012 l 307.301 99.531
 l 307.344 98.766 307.363 97.738 307.363 96.461 c 307.363 94.496 307.32 
92.867 307.238 91.563 c 306.66 80.043 l 304.035 80.043 l 305.285 102.094
 l 309.156 102.094 l 312.742 86.988 l 316.164 102.094 l 320.07 102.094 l
 h
321.316 80.043 m f
337.559 83.723 m 337.559 83.063 337.668 82.57 337.879 82.254 c 338.094 
81.953 338.445 81.73 338.938 81.578 c 338.266 79.66 l 336.621 79.875 335.598
 80.672 335.191 82.059 c 334.594 81.293 333.836 80.707 332.922 80.301 c 
332.023 79.895 331.02 79.691 329.914 79.691 c 328.227 79.691 326.895 80.16
 325.914 81.102 c 324.953 82.039 324.473 83.297 324.473 84.875 c 324.473
 86.605 325.145 87.938 326.488 88.875 c 327.852 89.816 329.805 90.285 332.344
 90.285 c 334.84 90.285 l 334.84 91.66 l 334.84 92.855 334.5 93.707 333.816
 94.219 c 333.133 94.754 332.141 95.02 330.84 95.02 c 329.559 95.02 328.098
 94.73 326.457 94.156 c 325.719 96.203 l 327.703 96.906 329.551 97.262 331.258
 97.262 c 333.305 97.262 334.863 96.781 335.93 95.82 c 337.016 94.859 337.559
 93.527 337.559 91.82 c h
330.586 81.707 m 331.418 81.707 332.207 81.922 332.953 82.348 c 333.719
 82.773 334.348 83.363 334.84 84.109 c 334.84 88.43 l 332.406 88.43 l 330.617
 88.43 329.324 88.129 328.535 87.531 c 327.746 86.934 327.352 86.059 327.352
 84.906 c 327.352 82.773 328.43 81.707 330.586 81.707 c h
330.586 81.707 m f
344.652 96.906 m 346.957 96.906 l 347.18 94.539 l 347.84 95.395 348.672
 96.055 349.676 96.523 c 350.699 97.016 351.723 97.262 352.746 97.262 c 
355.906 97.262 357.484 95.598 357.484 92.27 c 357.484 80.043 l 354.797 80.043
 l 354.797 90.285 l 354.797 91.543 354.723 92.504 354.57 93.164 c 354.445
 93.824 354.176 94.316 353.773 94.637 c 353.367 94.957 352.746 95.117 351.914
 95.117 c 351 95.117 350.133 94.84 349.324 94.285 c 348.512 93.73 347.852
 93.066 347.34 92.301 c 347.34 80.043 l 344.652 80.043 l h
344.652 96.906 m f
376.574 82.348 m 376.254 80.043 l 363.902 80.043 l 363.902 82.094 l 373.246
 94.539 l 364.641 94.539 l 364.641 96.906 l 376.48 96.906 l 376.48 94.797
 l 367.199 82.348 l h
376.574 82.348 m f
395.121 83.723 m 395.121 83.063 395.23 82.57 395.441 82.254 c 395.656 81.953
 396.008 81.73 396.5 81.578 c 395.828 79.66 l 394.184 79.875 393.16 80.672
 392.754 82.059 c 392.156 81.293 391.398 80.707 390.484 80.301 c 389.586
 79.895 388.582 79.691 387.477 79.691 c 385.789 79.691 384.457 80.16 383.477
 81.102 c 382.516 82.039 382.035 83.297 382.035 84.875 c 382.035 86.605 
382.707 87.938 384.051 88.875 c 385.414 89.816 387.367 90.285 389.906 90.285
 c 392.402 90.285 l 392.402 91.66 l 392.402 92.855 392.063 93.707 391.379
 94.219 c 390.695 94.754 389.703 95.02 388.402 95.02 c 387.121 95.02 385.66
 94.73 384.02 94.156 c 383.281 96.203 l 385.266 96.906 387.113 97.262 388.82
 97.262 c 390.867 97.262 392.426 96.781 393.492 95.82 c 394.578 94.859 395.121
 93.527 395.121 91.82 c h
388.148 81.707 m 388.98 81.707 389.77 81.922 390.516 82.348 c 391.281 82.773
 391.91 83.363 392.402 84.109 c 392.402 88.43 l 389.969 88.43 l 388.18 88.43
 386.887 88.129 386.098 87.531 c 385.309 86.934 384.914 86.059 384.914 84.906
 c 384.914 82.773 385.992 81.707 388.148 81.707 c h
388.148 81.707 m f
402.215 96.906 m 404.52 96.906 l 404.742 94.539 l 405.402 95.395 406.234
 96.055 407.238 96.523 c 408.262 97.016 409.285 97.262 410.309 97.262 c 
413.469 97.262 415.047 95.598 415.047 92.27 c 415.047 80.043 l 412.359 80.043
 l 412.359 90.285 l 412.359 91.543 412.285 92.504 412.133 93.164 c 412.008
 93.824 411.738 94.316 411.336 94.637 c 410.93 94.957 410.309 95.117 409.477
 95.117 c 408.563 95.117 407.695 94.84 406.887 94.285 c 406.074 93.73 405.414
 93.066 404.902 92.301 c 404.902 80.043 l 402.215 80.043 l h
402.215 96.906 m f
433.496 83.723 m 433.496 83.063 433.605 82.57 433.816 82.254 c 434.031 
81.953 434.383 81.73 434.875 81.578 c 434.203 79.66 l 432.559 79.875 431.535
 80.672 431.129 82.059 c 430.531 81.293 429.773 80.707 428.859 80.301 c 
427.961 79.895 426.957 79.691 425.852 79.691 c 424.164 79.691 422.832 80.16
 421.852 81.102 c 420.891 82.039 420.41 83.297 420.41 84.875 c 420.41 86.605
 421.082 87.938 422.426 88.875 c 423.789 89.816 425.742 90.285 428.281 90.285
 c 430.777 90.285 l 430.777 91.66 l 430.777 92.855 430.438 93.707 429.754
 94.219 c 429.07 94.754 428.078 95.02 426.777 95.02 c 425.496 95.02 424.035
 94.73 422.395 94.156 c 421.656 96.203 l 423.641 96.906 425.488 97.262 427.195
 97.262 c 429.242 97.262 430.801 96.781 431.867 95.82 c 432.953 94.859 433.496
 93.527 433.496 91.82 c h
426.523 81.707 m 427.355 81.707 428.145 81.922 428.891 82.348 c 429.656
 82.773 430.285 83.363 430.777 84.109 c 430.777 88.43 l 428.344 88.43 l 
426.555 88.43 425.262 88.129 424.473 87.531 c 423.684 86.934 423.289 86.059
 423.289 84.906 c 423.289 82.773 424.367 81.707 426.523 81.707 c h
426.523 81.707 m f
445.293 103.691 m 448.684 103.691 l 448.172 95.371 l 445.805 95.371 l h
445.293 103.691 m f
0.384314 0.447059 0.643137 rg
48.18 47.531 m 50.773 47.531 l 50.773 45.484 l 47.859 45.484 l 47.188 40.043
 l 44.914 40.043 l 45.621 45.484 l 40.98 45.484 l 40.242 40.043 l 37.973
 40.043 l 38.676 45.484 l 36.148 45.484 l 36.148 47.531 l 38.93 47.531 l
 39.922 54.637 l 37.332 54.637 l 37.332 56.75 l 40.18 56.75 l 40.914 62.094
 l 43.188 62.094 l 42.453 56.75 l 47.125 56.75 l 47.859 62.094 l 50.133 
62.094 l 49.395 56.75 l 51.957 56.75 l 51.957 54.637 l 49.109 54.637 l h
45.875 47.531 m 46.867 54.637 l 42.164 54.637 l 41.234 47.531 l h
45.875 47.531 m f
108.879 49.996 m 100.207 40.234 l 98.191 41.965 l 100.207 44.172 l 100.762
 44.789 101.422 45.336 102.191 45.805 c 76.879 45.805 l 76.879 48.109 l 
103.82 48.109 l 105.52 49.996 l 103.82 51.883 l 76.879 51.883 l 76.879 54.188
 l 102.191 54.188 l 101.465 54.637 100.805 55.191 100.207 55.852 c 98.191
 58.027 l 100.207 59.758 l h
108.879 49.996 m f
144.117 47.531 m 146.711 47.531 l 146.711 45.484 l 143.797 45.484 l 143.125
 40.043 l 140.852 40.043 l 141.559 45.484 l 136.918 45.484 l 136.18 40.043
 l 133.91 40.043 l 134.613 45.484 l 132.086 45.484 l 132.086 47.531 l 134.867
 47.531 l 135.859 54.637 l 133.27 54.637 l 133.27 56.75 l 136.117 56.75 
l 136.852 62.094 l 139.125 62.094 l 138.391 56.75 l 143.063 56.75 l 143.797
 62.094 l 146.07 62.094 l 145.332 56.75 l 147.895 56.75 l 147.895 54.637
 l 145.047 54.637 l h
141.813 47.531 m 142.805 54.637 l 138.102 54.637 l 137.172 47.531 l h
141.813 47.531 m f
165.992 57.004 m 154.695 50.059 l 165.992 43.051 l 164.551 41.102 l 152.395
 48.684 l 152.395 51.469 l 164.68 59.051 l h
165.992 57.004 m f
186.461 51.18 m 186.461 47 185.5 44.098 183.582 42.477 c 181.66 40.855 
179.293 40.043 176.477 40.043 c 171.422 40.043 l 171.422 62.094 l 176.125
 62.094 l 179.219 62.094 181.715 61.313 183.613 59.758 c 185.512 58.199 
186.461 55.34 186.461 51.18 c h
183.484 51.18 m 183.484 53.57 183.152 55.395 182.492 56.652 c 181.852 57.934
 181.051 58.773 180.094 59.18 c 179.133 59.605 178.035 59.82 176.797 59.82
 c 174.203 59.82 l 174.203 42.285 l 176.828 42.285 l 178.727 42.285 180.305
 42.934 181.563 44.234 c 182.844 45.559 183.484 47.875 183.484 51.18 c h
183.484 51.18 m f
197.551 64.781 m 198.148 64.781 198.629 64.598 198.992 64.234 c 199.355
 63.895 199.535 63.445 199.535 62.891 c 199.535 62.336 199.355 61.879 198.992
 61.516 c 198.629 61.176 198.148 61.004 197.551 61.004 c 196.977 61.004 
196.508 61.176 196.145 61.516 c 195.801 61.879 195.633 62.336 195.633 62.891
 c 195.633 63.445 195.801 63.895 196.145 64.234 c 196.508 64.598 196.977
 64.781 197.551 64.781 c h
199.695 42.188 m 204.43 42.188 l 204.43 40.043 l 191.824 40.043 l 191.824
 42.188 l 197.008 42.188 l 197.008 54.766 l 191.984 54.766 l 191.984 56.906
 l 199.695 56.906 l h
199.695 42.188 m f
212.484 47.531 m 212.547 45.676 213.027 44.277 213.922 43.34 c 214.84 42.402
 215.992 41.934 217.379 41.934 c 218.211 41.934 218.969 42.051 219.652 42.285
 c 220.355 42.539 221.102 42.926 221.891 43.438 c 223.141 41.645 l 222.352
 41.027 221.441 40.547 220.418 40.203 c 219.418 39.863 218.402 39.691 217.379
 39.691 c 214.945 39.691 213.047 40.48 211.684 42.059 c 210.34 43.66 209.668
 45.793 209.668 48.461 c 209.668 50.145 209.965 51.648 210.563 52.973 c 
211.16 54.316 212.016 55.363 213.125 56.109 c 214.234 56.875 215.523 57.262
 216.996 57.262 c 219.129 57.262 220.805 56.512 222.02 55.02 c 223.258 53.547
 223.875 51.531 223.875 48.973 c 223.875 48.48 223.855 48 223.813 47.531
 c h
217.027 55.051 m 215.727 55.051 214.668 54.582 213.859 53.645 c 213.047
 52.727 212.59 51.371 212.484 49.578 c 221.25 49.578 l 221.23 51.352 220.848
 52.707 220.098 53.645 c 219.352 54.582 218.328 55.051 217.027 55.051 c 
h
217.027 55.051 m f
242.934 40.906 m 242.359 40.523 241.656 40.227 240.824 40.012 c 240.012
 39.797 239.203 39.691 238.391 39.691 c 236.621 39.691 235.234 40.152 234.23
 41.066 c 233.227 42.008 232.727 43.234 232.727 44.75 c 232.727 54.797 l
 228.855 54.797 l 228.855 56.906 l 232.727 56.906 l 232.727 60.715 l 235.414
 61.035 l 235.414 56.906 l 241.27 56.906 l 240.918 54.797 l 235.414 54.797
 l 235.414 44.781 l 235.414 43.82 235.672 43.105 236.184 42.637 c 236.695
 42.168 237.516 41.934 238.648 41.934 c 239.797 41.934 240.875 42.199 241.879
 42.73 c h
242.934 40.906 m f
260.809 43.723 m 260.809 43.063 260.918 42.57 261.129 42.254 c 261.344 
41.953 261.695 41.73 262.188 41.578 c 261.516 39.66 l 259.871 39.875 258.848
 40.672 258.441 42.059 c 257.844 41.293 257.086 40.707 256.172 40.301 c 
255.273 39.895 254.27 39.691 253.164 39.691 c 251.477 39.691 250.145 40.16
 249.164 41.102 c 248.203 42.039 247.723 43.297 247.723 44.875 c 247.723
 46.605 248.395 47.938 249.738 48.875 c 251.102 49.816 253.055 50.285 255.594
 50.285 c 258.09 50.285 l 258.09 51.66 l 258.09 52.855 257.75 53.707 257.066
 54.219 c 256.383 54.754 255.391 55.02 254.09 55.02 c 252.809 55.02 251.348
 54.73 249.707 54.156 c 248.969 56.203 l 250.953 56.906 252.801 57.262 254.508
 57.262 c 256.555 57.262 258.113 56.781 259.18 55.82 c 260.266 54.859 260.809
 53.527 260.809 51.82 c h
253.836 41.707 m 254.668 41.707 255.457 41.922 256.203 42.348 c 256.969
 42.773 257.598 43.363 258.09 44.109 c 258.09 48.43 l 255.656 48.43 l 253.867
 48.43 252.574 48.129 251.785 47.531 c 250.996 46.934 250.602 46.059 250.602
 44.906 c 250.602 42.773 251.68 41.707 253.836 41.707 c h
253.836 41.707 m f
279.293 57.262 m 279.977 57.262 280.766 57.145 281.66 56.906 c 281.277 
51.18 l 279.102 51.18 l 279.102 54.797 l 278.941 54.797 l 276.34 54.797 
274.492 52.941 273.406 49.227 c 273.406 42.125 l 276.828 42.125 l 276.828
 40.043 l 268.063 40.043 l 268.063 42.125 l 270.719 42.125 l 270.719 54.828
 l 268.063 54.828 l 268.063 56.906 l 272.734 56.906 l 273.246 52.906 l 273.93
 54.359 274.738 55.445 275.676 56.172 c 276.637 56.898 277.844 57.262 279.293
 57.262 c h
279.293 57.262 m f
295.219 39.949 m 294.555 38.008 293.648 36.461 292.496 35.309 c 291.344
 34.156 289.734 33.473 287.664 33.262 c 287.281 35.402 l 288.41 35.598 289.309
 35.895 289.969 36.301 c 290.652 36.684 291.184 37.176 291.57 37.773 c 291.953
 38.348 292.305 39.105 292.625 40.043 c 291.73 40.043 l 285.875 56.906 l
 288.723 56.906 l 293.555 42.094 l 298.32 56.906 l 301.105 56.906 l h
295.219 39.949 m f
320.773 51.18 m 320.773 47 319.813 44.098 317.895 42.477 c 315.973 40.855
 313.605 40.043 310.789 40.043 c 305.734 40.043 l 305.734 62.094 l 310.438
 62.094 l 313.531 62.094 316.027 61.313 317.926 59.758 c 319.824 58.199 
320.773 55.34 320.773 51.18 c h
317.797 51.18 m 317.797 53.57 317.465 55.395 316.805 56.652 c 316.164 57.934
 315.363 58.773 314.406 59.18 c 313.445 59.605 312.348 59.82 311.109 59.82
 c 308.516 59.82 l 308.516 42.285 l 311.141 42.285 l 313.039 42.285 314.617
 42.934 315.875 44.234 c 317.156 45.559 317.797 47.875 317.797 51.18 c h
317.797 51.18 m f
331.223 41.898 m 332.504 41.898 333.516 42.145 334.266 42.637 c 335.012
 43.125 335.383 43.777 335.383 44.59 c 335.383 45.145 335.289 45.59 335.098
 45.934 c 334.902 46.293 334.52 46.613 333.945 46.891 c 333.367 47.191 332.492
 47.488 331.32 47.789 c 329.359 48.277 327.906 48.867 326.969 49.547 c 326.031
 50.254 325.559 51.285 325.559 52.652 c 325.559 54.059 326.148 55.18 327.32
 56.012 c 328.492 56.844 330.039 57.262 331.961 57.262 c 334.309 57.262 
336.355 56.641 338.105 55.402 c 336.887 53.547 l 336.184 54.039 335.449 
54.41 334.68 54.668 c 333.914 54.945 333.027 55.086 332.023 55.086 c 329.594
 55.086 328.375 54.348 328.375 52.875 c 328.375 52.363 328.504 51.949 328.762
 51.629 c 329.039 51.309 329.477 51.02 330.07 50.766 c 330.691 50.531 331.609
 50.242 332.824 49.898 c 334.66 49.41 336.023 48.781 336.922 48.012 c 337.836
 47.266 338.297 46.168 338.297 44.715 c 338.297 43.031 337.613 41.773 336.25
 40.941 c 334.883 40.109 333.207 39.691 331.223 39.691 c 328.578 39.691 
326.383 40.449 324.633 41.965 c 326.137 43.723 l 326.82 43.168 327.598 42.723
 328.473 42.379 c 329.348 42.059 330.266 41.898 331.223 41.898 c h
331.223 41.898 m f
351.242 44.203 m 351.242 42.688 352.172 41.934 354.027 41.934 c 354.902
 41.934 355.84 42.125 356.844 42.508 c 357.547 40.555 l 356.48 39.98 355.148
 39.691 353.547 39.691 c 352.031 39.691 350.816 40.109 349.898 40.941 c 
349.004 41.773 348.555 42.902 348.555 44.332 c 348.555 61.547 l 343.371 
61.547 l 343.371 63.691 l 351.242 63.691 l h
351.242 44.203 m f
383.633 53.836 m 383.633 54.539 383.879 55.137 384.371 55.629 c 384.859
 56.141 385.469 56.395 386.195 56.395 c 386.941 56.395 387.559 56.141 388.051
 55.629 c 388.543 55.137 388.785 54.539 388.785 53.836 c 388.785 53.109 
388.543 52.492 388.051 51.98 c 387.559 51.469 386.941 51.211 386.195 51.211
 c 385.469 51.211 384.859 51.469 384.371 51.98 c 383.879 52.492 383.633 
53.109 383.633 53.836 c h
383.633 42.285 m 383.633 42.988 383.879 43.598 384.371 44.109 c 384.859
 44.621 385.469 44.875 386.195 44.875 c 386.941 44.875 387.559 44.621 388.051
 44.109 c 388.543 43.617 388.785 43.008 388.785 42.285 c 388.785 41.539 
388.543 40.918 388.051 40.43 c 387.559 39.938 386.941 39.691 386.195 39.691
 c 385.469 39.691 384.859 39.938 384.371 40.43 c 383.879 40.918 383.633 
41.539 383.633 42.285 c h
370.836 53.836 m 370.836 54.539 371.078 55.137 371.57 55.629 c 372.063 
56.141 372.668 56.395 373.395 56.395 c 374.141 56.395 374.762 56.141 375.25
 55.629 c 375.742 55.137 375.988 54.539 375.988 53.836 c 375.988 53.109 
375.742 52.492 375.25 51.98 c 374.762 51.469 374.141 51.211 373.395 51.211
 c 372.668 51.211 372.063 51.469 371.57 51.98 c 371.078 52.492 370.836 53.109
 370.836 53.836 c h
370.836 42.285 m 370.836 42.988 371.078 43.598 371.57 44.109 c 372.063 
44.621 372.668 44.875 373.395 44.875 c 374.141 44.875 374.762 44.621 375.25
 44.109 c 375.742 43.617 375.988 43.008 375.988 42.285 c 375.988 41.539 
375.742 40.918 375.25 40.43 c 374.762 39.938 374.141 39.691 373.395 39.691
 c 372.668 39.691 372.063 39.938 371.57 40.43 c 371.078 40.918 370.836 41.539
 370.836 42.285 c h
370.836 42.285 m f
404.168 45.676 m 402.406 40.043 l 399.652 40.043 l 406.855 62.094 l 410.375
 62.094 l 417.543 40.043 l 414.664 40.043 l 412.902 45.676 l h
412.168 47.98 m 408.551 59.723 l 404.902 47.98 l h
412.168 47.98 m f
427.992 44.203 m 427.992 42.688 428.922 41.934 430.777 41.934 c 431.652
 41.934 432.59 42.125 433.594 42.508 c 434.297 40.555 l 433.23 39.98 431.898
 39.691 430.297 39.691 c 428.781 39.691 427.566 40.109 426.648 40.941 c 
425.754 41.773 425.305 42.902 425.305 44.332 c 425.305 61.547 l 420.121 
61.547 l 420.121 63.691 l 427.992 63.691 l h
427.992 44.203 m f
446.988 64.781 m 447.586 64.781 448.066 64.598 448.43 64.234 c 448.793 
63.895 448.973 63.445 448.973 62.891 c 448.973 62.336 448.793 61.879 448.43
 61.516 c 448.066 61.176 447.586 61.004 446.988 61.004 c 446.414 61.004 
445.945 61.176 445.582 61.516 c 445.238 61.879 445.07 62.336 445.07 62.891
 c 445.07 63.445 445.238 63.895 445.582 64.234 c 445.945 64.598 446.414 
64.781 446.988 64.781 c h
449.133 42.188 m 453.867 42.188 l 453.867 40.043 l 441.262 40.043 l 441.262
 42.188 l 446.445 42.188 l 446.445 54.766 l 441.422 54.766 l 441.422 56.906
 l 449.133 56.906 l h
449.133 42.188 m f
470.879 57.262 m 471.84 57.262 472.621 56.918 473.215 56.234 c 473.836 
55.574 474.145 54.359 474.145 52.59 c 474.145 40.043 l 471.68 40.043 l 471.68
 52.141 l 471.68 53.313 471.605 54.102 471.457 54.508 c 471.309 54.934 470.945
 55.148 470.367 55.148 c 469.281 55.148 468.301 54.477 467.426 53.133 c 
467.426 40.043 l 464.93 40.043 l 464.93 52.141 l 464.93 53.313 464.855 54.102
 464.703 54.508 c 464.555 54.934 464.191 55.148 463.617 55.148 c 462.527
 55.148 461.547 54.477 460.672 53.133 c 460.672 40.043 l 458.207 40.043 
l 458.207 56.906 l 460.289 56.906 l 460.48 54.926 l 460.992 55.672 461.527
 56.246 462.082 56.652 c 462.656 57.059 463.34 57.262 464.129 57.262 c 465.707
 57.262 466.719 56.512 467.168 55.02 c 467.68 55.746 468.227 56.301 468.801
 56.684 c 469.375 57.066 470.07 57.262 470.879 57.262 c h
470.879 57.262 m f
481.109 47.531 m 481.172 45.676 481.652 44.277 482.547 43.34 c 483.465 
42.402 484.617 41.934 486.004 41.934 c 486.836 41.934 487.594 42.051 488.277
 42.285 c 488.98 42.539 489.727 42.926 490.516 43.438 c 491.766 41.645 l
 490.977 41.027 490.066 40.547 489.043 40.203 c 488.043 39.863 487.027 39.691
 486.004 39.691 c 483.57 39.691 481.672 40.48 480.309 42.059 c 478.965 43.66
 478.293 45.793 478.293 48.461 c 478.293 50.145 478.59 51.648 479.188 52.973
 c 479.785 54.316 480.641 55.363 481.75 56.109 c 482.859 56.875 484.148 
57.262 485.621 57.262 c 487.754 57.262 489.43 56.512 490.645 55.02 c 491.883
 53.547 492.5 51.531 492.5 48.973 c 492.5 48.48 492.48 48 492.438 47.531
 c h
485.652 55.051 m 484.352 55.051 483.293 54.582 482.484 53.645 c 481.672
 52.727 481.215 51.371 481.109 49.578 c 489.875 49.578 l 489.855 51.352 
489.473 52.707 488.723 53.645 c 487.977 54.582 486.953 55.051 485.652 55.051
 c h
485.652 55.051 m f
498.152 56.906 m 500.457 56.906 l 500.68 54.539 l 501.34 55.395 502.172
 56.055 503.176 56.523 c 504.199 57.016 505.223 57.262 506.246 57.262 c 
509.406 57.262 510.984 55.598 510.984 52.27 c 510.984 40.043 l 508.297 40.043
 l 508.297 50.285 l 508.297 51.543 508.223 52.504 508.07 53.164 c 507.945
 53.824 507.676 54.316 507.273 54.637 c 506.867 54.957 506.246 55.117 505.414
 55.117 c 504.5 55.117 503.633 54.84 502.824 54.285 c 502.012 53.73 501.352
 53.066 500.84 52.301 c 500.84 40.043 l 498.152 40.043 l h
498.152 56.906 m f
530.746 40.906 m 530.172 40.523 529.469 40.227 528.637 40.012 c 527.824
 39.797 527.016 39.691 526.203 39.691 c 524.434 39.691 523.047 40.152 522.043
 41.066 c 521.039 42.008 520.539 43.234 520.539 44.75 c 520.539 54.797 l
 516.668 54.797 l 516.668 56.906 l 520.539 56.906 l 520.539 60.715 l 523.227
 61.035 l 523.227 56.906 l 529.082 56.906 l 528.73 54.797 l 523.227 54.797
 l 523.227 44.781 l 523.227 43.82 523.484 43.105 523.996 42.637 c 524.508
 42.168 525.328 41.934 526.461 41.934 c 527.609 41.934 528.688 42.199 529.691
 42.73 c h
530.746 40.906 m f
542.957 57.262 m 545.285 57.262 547.066 56.473 548.301 54.891 c 549.563
 53.336 550.191 51.203 550.191 48.492 c 550.191 45.848 549.551 43.715 548.27
 42.094 c 547.012 40.492 545.23 39.691 542.926 39.691 c 540.602 39.691 538.809
 40.473 537.551 42.027 c 536.293 43.605 535.664 45.75 535.664 48.461 c 535.664
 51.125 536.293 53.262 537.551 54.859 c 538.832 56.461 540.633 57.262 542.957
 57.262 c h
542.957 55.051 m 541.488 55.051 540.387 54.508 539.664 53.422 c 538.938
 52.332 538.574 50.68 538.574 48.461 c 538.574 46.242 538.926 44.59 539.629
 43.5 c 540.355 42.434 541.453 41.898 542.926 41.898 c 544.398 41.898 545.488
 42.434 546.191 43.5 c 546.914 44.59 547.277 46.254 547.277 48.492 c 547.277
 50.711 546.914 52.352 546.191 53.422 c 545.488 54.508 544.41 55.051 542.957
 55.051 c h
542.957 55.051 m f
559.523 53.836 m 559.523 54.539 559.766 55.137 560.258 55.629 c 560.75 
56.141 561.355 56.395 562.082 56.395 c 562.828 56.395 563.449 56.141 563.938
 55.629 c 564.43 55.137 564.676 54.539 564.676 53.836 c 564.676 53.109 564.43
 52.492 563.938 51.98 c 563.449 51.469 562.828 51.211 562.082 51.211 c 561.355
 51.211 560.75 51.469 560.258 51.98 c 559.766 52.492 559.523 53.109 559.523
 53.836 c h
559.523 42.285 m 559.523 42.988 559.766 43.598 560.258 44.109 c 560.75 
44.621 561.355 44.875 562.082 44.875 c 562.828 44.875 563.449 44.621 563.938
 44.109 c 564.43 43.617 564.676 43.008 564.676 42.285 c 564.676 41.539 564.43
 40.918 563.938 40.43 c 563.449 39.938 562.828 39.691 562.082 39.691 c 561.355
 39.691 560.75 39.938 560.258 40.43 c 559.766 40.918 559.523 41.539 559.523
 42.285 c h
559.523 42.285 m f
581.301 62.445 m 583.648 62.445 585.43 61.461 586.645 59.5 c 587.883 57.559
 588.5 54.754 588.5 51.086 c 588.5 47.395 587.883 44.566 586.645 42.605 
c 585.43 40.664 583.648 39.691 581.301 39.691 c 578.953 39.691 577.164 40.664
 575.926 42.605 c 574.711 44.566 574.102 47.395 574.102 51.086 c 574.102
 54.754 574.711 57.559 575.926 59.5 c 577.164 61.461 578.953 62.445 581.301
 62.445 c h
581.301 60.27 m 578.379 60.27 576.918 57.207 576.918 51.086 c 576.918 44.941
 578.379 41.867 581.301 41.867 c 584.223 41.867 585.688 44.941 585.688 51.086
 c 585.688 57.207 584.223 60.27 581.301 60.27 c h
581.301 53.164 m 581.898 53.164 582.398 52.961 582.805 52.555 c 583.211
 52.152 583.414 51.66 583.414 51.086 c 583.414 50.488 583.211 49.984 582.805
 49.578 c 582.398 49.176 581.898 48.973 581.301 48.973 c 580.703 48.973 
580.203 49.176 579.797 49.578 c 579.414 49.984 579.223 50.488 579.223 51.086
 c 579.223 51.66 579.414 52.152 579.797 52.555 c 580.203 52.961 580.703 
53.164 581.301 53.164 c h
581.301 53.164 m f
606.922 55.18 m 602.219 50.445 l 606.922 45.645 l 605.227 43.949 l 600.488
 48.715 l 595.688 43.949 l 593.992 45.645 l 598.762 50.445 l 593.992 55.18
 l 595.688 56.875 l 600.488 52.141 l 605.227 56.875 l h
606.922 55.18 m f
619.676 62.445 m 622.023 62.445 623.805 61.461 625.02 59.5 c 626.258 57.559
 626.875 54.754 626.875 51.086 c 626.875 47.395 626.258 44.566 625.02 42.605
 c 623.805 40.664 622.023 39.691 619.676 39.691 c 617.328 39.691 615.539
 40.664 614.301 42.605 c 613.086 44.566 612.477 47.395 612.477 51.086 c 
612.477 54.754 613.086 57.559 614.301 59.5 c 615.539 61.461 617.328 62.445
 619.676 62.445 c h
619.676 60.27 m 616.754 60.27 615.293 57.207 615.293 51.086 c 615.293 44.941
 616.754 41.867 619.676 41.867 c 622.598 41.867 624.063 44.941 624.063 51.086
 c 624.063 57.207 622.598 60.27 619.676 60.27 c h
619.676 53.164 m 620.273 53.164 620.773 52.961 621.18 52.555 c 621.586 
52.152 621.789 51.66 621.789 51.086 c 621.789 50.488 621.586 49.984 621.18
 49.578 c 620.773 49.176 620.273 48.973 619.676 48.973 c 619.078 48.973 
618.578 49.176 618.172 49.578 c 617.789 49.984 617.598 50.488 617.598 51.086
 c 617.598 51.66 617.789 52.152 618.172 52.555 c 618.578 52.961 619.078 
53.164 619.676 53.164 c h
619.676 53.164 m f
638.863 62.445 m 641.211 62.445 642.992 61.461 644.207 59.5 c 645.445 57.559
 646.063 54.754 646.063 51.086 c 646.063 47.395 645.445 44.566 644.207 42.605
 c 642.992 40.664 641.211 39.691 638.863 39.691 c 636.516 39.691 634.727
 40.664 633.488 42.605 c 632.273 44.566 631.664 47.395 631.664 51.086 c 
631.664 54.754 632.273 57.559 633.488 59.5 c 634.727 61.461 636.516 62.445
 638.863 62.445 c h
638.863 60.27 m 635.941 60.27 634.48 57.207 634.48 51.086 c 634.48 44.941
 635.941 41.867 638.863 41.867 c 641.785 41.867 643.25 44.941 643.25 51.086
 c 643.25 57.207 641.785 60.27 638.863 60.27 c h
638.863 53.164 m 639.461 53.164 639.961 52.961 640.367 52.555 c 640.773
 52.152 640.977 51.66 640.977 51.086 c 640.977 50.488 640.773 49.984 640.367
 49.578 c 639.961 49.176 639.461 48.973 638.863 48.973 c 638.266 48.973 
637.766 49.176 637.359 49.578 c 636.977 49.984 636.785 50.488 636.785 51.086
 c 636.785 51.66 636.977 52.152 637.359 52.555 c 637.766 52.961 638.266 
53.164 638.863 53.164 c h
638.863 53.164 m f
658.051 62.445 m 660.398 62.445 662.18 61.461 663.395 59.5 c 664.633 57.559
 665.25 54.754 665.25 51.086 c 665.25 47.395 664.633 44.566 663.395 42.605
 c 662.18 40.664 660.398 39.691 658.051 39.691 c 655.703 39.691 653.914 
40.664 652.676 42.605 c 651.461 44.566 650.852 47.395 650.852 51.086 c 650.852
 54.754 651.461 57.559 652.676 59.5 c 653.914 61.461 655.703 62.445 658.051
 62.445 c h
658.051 60.27 m 655.129 60.27 653.668 57.207 653.668 51.086 c 653.668 44.941
 655.129 41.867 658.051 41.867 c 660.973 41.867 662.438 44.941 662.438 51.086
 c 662.438 57.207 660.973 60.27 658.051 60.27 c h
658.051 53.164 m 658.648 53.164 659.148 52.961 659.555 52.555 c 659.961
 52.152 660.164 51.66 660.164 51.086 c 660.164 50.488 659.961 49.984 659.555
 49.578 c 659.148 49.176 658.648 48.973 658.051 48.973 c 657.453 48.973 
656.953 49.176 656.547 49.578 c 656.164 49.984 655.973 50.488 655.973 51.086
 c 655.973 51.66 656.164 52.152 656.547 52.555 c 656.953 52.961 657.453 
53.164 658.051 53.164 c h
658.051 53.164 m f
677.238 62.445 m 679.586 62.445 681.367 61.461 682.582 59.5 c 683.82 57.559
 684.438 54.754 684.438 51.086 c 684.438 47.395 683.82 44.566 682.582 42.605
 c 681.367 40.664 679.586 39.691 677.238 39.691 c 674.891 39.691 673.102
 40.664 671.863 42.605 c 670.648 44.566 670.039 47.395 670.039 51.086 c 
670.039 54.754 670.648 57.559 671.863 59.5 c 673.102 61.461 674.891 62.445
 677.238 62.445 c h
677.238 60.27 m 674.316 60.27 672.855 57.207 672.855 51.086 c 672.855 44.941
 674.316 41.867 677.238 41.867 c 680.16 41.867 681.625 44.941 681.625 51.086
 c 681.625 57.207 680.16 60.27 677.238 60.27 c h
677.238 53.164 m 677.836 53.164 678.336 52.961 678.742 52.555 c 679.148
 52.152 679.352 51.66 679.352 51.086 c 679.352 50.488 679.148 49.984 678.742
 49.578 c 678.336 49.176 677.836 48.973 677.238 48.973 c 676.641 48.973 
676.141 49.176 675.734 49.578 c 675.352 49.984 675.16 50.488 675.16 51.086
 c 675.16 51.66 675.352 52.152 675.734 52.555 c 676.141 52.961 676.641 53.164
 677.238 53.164 c h
677.238 53.164 m f
696.426 62.445 m 698.773 62.445 700.555 61.461 701.77 59.5 c 703.008 57.559
 703.625 54.754 703.625 51.086 c 703.625 47.395 703.008 44.566 701.77 42.605
 c 700.555 40.664 698.773 39.691 696.426 39.691 c 694.078 39.691 692.289
 40.664 691.051 42.605 c 689.836 44.566 689.227 47.395 689.227 51.086 c 
689.227 54.754 689.836 57.559 691.051 59.5 c 692.289 61.461 694.078 62.445
 696.426 62.445 c h
696.426 60.27 m 693.504 60.27 692.043 57.207 692.043 51.086 c 692.043 44.941
 693.504 41.867 696.426 41.867 c 699.348 41.867 700.813 44.941 700.813 51.086
 c 700.813 57.207 699.348 60.27 696.426 60.27 c h
696.426 53.164 m 697.023 53.164 697.523 52.961 697.93 52.555 c 698.336 
52.152 698.539 51.66 698.539 51.086 c 698.539 50.488 698.336 49.984 697.93
 49.578 c 697.523 49.176 697.023 48.973 696.426 48.973 c 695.828 48.973 
695.328 49.176 694.922 49.578 c 694.539 49.984 694.348 50.488 694.348 51.086
 c 694.348 51.66 694.539 52.152 694.922 52.555 c 695.328 52.961 695.828 
53.164 696.426 53.164 c h
696.426 53.164 m f
715.613 62.445 m 717.961 62.445 719.742 61.461 720.957 59.5 c 722.195 57.559
 722.813 54.754 722.813 51.086 c 722.813 47.395 722.195 44.566 720.957 42.605
 c 719.742 40.664 717.961 39.691 715.613 39.691 c 713.266 39.691 711.477
 40.664 710.238 42.605 c 709.023 44.566 708.414 47.395 708.414 51.086 c 
708.414 54.754 709.023 57.559 710.238 59.5 c 711.477 61.461 713.266 62.445
 715.613 62.445 c h
715.613 60.27 m 712.691 60.27 711.23 57.207 711.23 51.086 c 711.23 44.941
 712.691 41.867 715.613 41.867 c 718.535 41.867 720 44.941 720 51.086 c 
720 57.207 718.535 60.27 715.613 60.27 c h
715.613 53.164 m 716.211 53.164 716.711 52.961 717.117 52.555 c 717.523
 52.152 717.727 51.66 717.727 51.086 c 717.727 50.488 717.523 49.984 717.117
 49.578 c 716.711 49.176 716.211 48.973 715.613 48.973 c 715.016 48.973 
714.516 49.176 714.109 49.578 c 713.727 49.984 713.535 50.488 713.535 51.086
 c 713.535 51.66 713.727 52.152 714.109 52.555 c 714.516 52.961 715.016 
53.164 715.613 53.164 c h
715.613 53.164 m f
734.801 62.445 m 737.148 62.445 738.93 61.461 740.145 59.5 c 741.383 57.559
 742 54.754 742 51.086 c 742 47.395 741.383 44.566 740.145 42.605 c 738.93
 40.664 737.148 39.691 734.801 39.691 c 732.453 39.691 730.664 40.664 729.426
 42.605 c 728.211 44.566 727.602 47.395 727.602 51.086 c 727.602 54.754 
728.211 57.559 729.426 59.5 c 730.664 61.461 732.453 62.445 734.801 62.445
 c h
734.801 60.27 m 731.879 60.27 730.418 57.207 730.418 51.086 c 730.418 44.941
 731.879 41.867 734.801 41.867 c 737.723 41.867 739.188 44.941 739.188 51.086
 c 739.188 57.207 737.723 60.27 734.801 60.27 c h
734.801 53.164 m 735.398 53.164 735.898 52.961 736.305 52.555 c 736.711
 52.152 736.914 51.66 736.914 51.086 c 736.914 50.488 736.711 49.984 736.305
 49.578 c 735.898 49.176 735.398 48.973 734.801 48.973 c 734.203 48.973 
733.703 49.176 733.297 49.578 c 732.914 49.984 732.723 50.488 732.723 51.086
 c 732.723 51.66 732.914 52.152 733.297 52.555 c 733.703 52.961 734.203 
53.164 734.801 53.164 c h
734.801 53.164 m f
754.949 54.379 m 756.102 54.379 757.145 54.125 758.086 53.613 c 759.047
 53.102 759.801 52.32 760.355 51.277 c 760.91 50.254 761.188 48.984 761.188
 47.469 c 761.188 45.891 760.879 44.504 760.262 43.309 c 759.641 42.133 
758.809 41.238 757.766 40.621 c 756.719 40 755.547 39.691 754.246 39.691
 c 751.684 39.691 749.82 40.621 748.645 42.477 c 747.492 44.332 746.918 
46.988 746.918 50.445 c 746.918 52.875 747.238 54.988 747.879 56.781 c 748.539
 58.594 749.477 59.992 750.691 60.973 c 751.93 61.953 753.402 62.445 755.109
 62.445 c 756.711 62.445 758.172 62.008 759.492 61.133 c 758.438 59.34 l
 757.391 59.957 756.273 60.27 755.078 60.27 c 753.414 60.27 752.102 59.469
 751.141 57.867 c 750.18 56.289 749.68 54.145 749.637 51.438 c 750.32 52.461
 751.098 53.207 751.973 53.676 c 752.848 54.145 753.84 54.379 754.949 54.379
 c h
754.246 41.867 m 755.609 41.867 756.645 42.348 757.348 43.309 c 758.074
 44.289 758.438 45.645 758.438 47.371 c 758.438 50.594 757.137 52.203 754.531
 52.203 c 753.508 52.203 752.582 51.926 751.75 51.371 c 750.938 50.816 750.246
 50.059 749.668 49.102 c 749.711 46.582 750.098 44.75 750.82 43.598 c 751.547
 42.445 752.688 41.867 754.246 41.867 c h
754.246 41.867 m f
774.426 41.996 m 775.898 41.996 777.359 42.488 778.809 43.469 c 780.09 
41.707 l 779.383 41.09 778.512 40.598 777.465 40.234 c 776.418 39.875 775.406
 39.691 774.426 39.691 c 771.93 39.691 769.977 40.473 768.57 42.027 c 767.184
 43.605 766.488 45.73 766.488 48.395 c 766.488 50.082 766.797 51.598 767.418
 52.941 c 768.055 54.285 768.973 55.34 770.168 56.109 c 771.363 56.875 772.781
 57.262 774.426 57.262 c 776.602 57.262 778.477 56.598 780.055 55.277 c 
778.746 53.516 l 777.273 54.496 775.82 54.988 774.395 54.988 c 772.879 54.988
 771.66 54.422 770.746 53.293 c 769.848 52.184 769.402 50.551 769.402 48.395
 c 769.402 46.242 769.848 44.629 770.746 43.563 c 771.66 42.52 772.887 41.996
 774.426 41.996 c h
774.426 41.996 m f
799.66 45.387 m 796.813 45.387 l 796.813 40.043 l 794.219 40.043 l 794.219
 45.387 l 785.066 45.387 l 785.066 47.371 l 791.531 62.445 l 793.773 61.484
 l 787.918 47.563 l 794.254 47.563 l 794.477 53.805 l 796.813 53.805 l 796.813
 47.563 l 799.66 47.563 l h
799.66 45.387 m f
818.496 42.219 m 818.496 40.043 l 805.793 40.043 l 805.793 42.219 l 811.199
 42.219 l 811.199 59.148 l 806.176 56.109 l 804.992 57.996 l 811.551 62.094
 l 813.918 62.094 l 813.918 42.219 l h
818.496 42.219 m f
838.035 45.387 m 835.188 45.387 l 835.188 40.043 l 832.594 40.043 l 832.594
 45.387 l 823.441 45.387 l 823.441 47.371 l 829.906 62.445 l 832.148 61.484
 l 826.293 47.563 l 832.629 47.563 l 832.852 53.805 l 835.188 53.805 l 835.188
 47.563 l 838.035 47.563 l h
838.035 45.387 m f
849.926 62.445 m 852.273 62.445 854.055 61.461 855.27 59.5 c 856.508 57.559
 857.125 54.754 857.125 51.086 c 857.125 47.395 856.508 44.566 855.27 42.605
 c 854.055 40.664 852.273 39.691 849.926 39.691 c 847.578 39.691 845.789
 40.664 844.551 42.605 c 843.336 44.566 842.727 47.395 842.727 51.086 c 
842.727 54.754 843.336 57.559 844.551 59.5 c 845.789 61.461 847.578 62.445
 849.926 62.445 c h
849.926 60.27 m 847.004 60.27 845.543 57.207 845.543 51.086 c 845.543 44.941
 847.004 41.867 849.926 41.867 c 852.848 41.867 854.313 44.941 854.313 51.086
 c 854.313 57.207 852.848 60.27 849.926 60.27 c h
849.926 53.164 m 850.523 53.164 851.023 52.961 851.43 52.555 c 851.836 
52.152 852.039 51.66 852.039 51.086 c 852.039 50.488 851.836 49.984 851.43
 49.578 c 851.023 49.176 850.523 48.973 849.926 48.973 c 849.328 48.973 
848.828 49.176 848.422 49.578 c 848.039 49.984 847.848 50.488 847.848 51.086
 c 847.848 51.66 848.039 52.152 848.422 52.555 c 848.828 52.961 849.328 
53.164 849.926 53.164 c h
849.926 53.164 m f
875.707 56.844 m 875.707 55.797 875.387 54.883 874.746 54.094 c 874.105
 53.305 873.156 52.555 871.898 51.852 c 873.391 51.234 874.555 50.422 875.387
 49.422 c 876.219 48.418 876.633 47.266 876.633 45.965 c 876.633 44.77 876.324
 43.691 875.707 42.73 c 875.086 41.773 874.203 41.027 873.051 40.492 c 871.898
 39.957 870.566 39.691 869.051 39.691 c 867.516 39.691 866.18 39.957 865.051
 40.492 c 863.918 41.047 863.055 41.793 862.457 42.73 c 861.883 43.672 861.594
 44.727 861.594 45.898 c 861.594 48.352 863.078 50.273 866.043 51.66 c 864.824
 52.234 863.93 52.906 863.355 53.676 c 862.801 54.465 862.523 55.469 862.523
 56.684 c 862.523 57.941 862.852 59.008 863.516 59.883 c 864.176 60.758 
865.008 61.398 866.012 61.805 c 867.035 62.23 868.07 62.445 869.113 62.445
 c 870.246 62.445 871.313 62.242 872.313 61.836 c 873.316 61.43 874.129 
60.801 874.746 59.949 c 875.387 59.117 875.707 58.082 875.707 56.844 c h
865.145 56.652 m 865.145 55.84 865.328 55.191 865.691 54.699 c 866.074 
54.23 866.574 53.848 867.195 53.547 c 867.813 53.27 868.75 52.93 870.012
 52.523 c 871.098 53.164 871.875 53.781 872.348 54.379 c 872.836 55 873.082
 55.777 873.082 56.715 c 873.082 57.824 872.73 58.699 872.027 59.34 c 871.344
 60 870.371 60.332 869.113 60.332 c 867.855 60.332 866.875 60.012 866.172
 59.371 c 865.488 58.73 865.145 57.824 865.145 56.652 c h
873.785 45.898 m 873.785 46.84 873.551 47.598 873.082 48.172 c 872.613 
48.77 871.992 49.238 871.227 49.578 c 870.48 49.922 869.359 50.359 867.867
 50.891 c 865.582 49.824 864.441 48.16 864.441 45.898 c 864.441 44.641 864.836
 43.648 865.625 42.926 c 866.414 42.219 867.559 41.867 869.051 41.867 c 
870.543 41.867 871.707 42.242 872.539 42.988 c 873.371 43.734 873.785 44.707
 873.785 45.898 c h
873.785 45.898 m f
923.848 42.508 m 923.848 43.297 924.125 43.957 924.68 44.492 c 925.215 
45.047 925.875 45.324 926.664 45.324 c 927.477 45.324 928.148 45.047 928.68
 44.492 c 929.215 43.957 929.48 43.297 929.48 42.508 c 929.48 41.699 929.215
 41.027 928.68 40.492 c 928.148 39.957 927.477 39.691 926.664 39.691 c 925.875
 39.691 925.215 39.957 924.68 40.492 c 924.125 41.047 923.848 41.719 923.848
 42.508 c h
936.648 42.508 m 936.648 43.297 936.914 43.957 937.449 44.492 c 938.004
 45.047 938.676 45.324 939.465 45.324 c 940.273 45.324 940.945 45.047 941.48
 44.492 c 942.012 43.957 942.281 43.297 942.281 42.508 c 942.281 41.699 
942.012 41.027 941.48 40.492 c 940.945 39.957 940.273 39.691 939.465 39.691
 c 938.676 39.691 938.004 39.957 937.449 40.492 c 936.914 41.047 936.648
 41.719 936.648 42.508 c h
911.047 42.508 m 911.047 43.297 911.324 43.957 911.879 44.492 c 912.414
 45.047 913.074 45.324 913.863 45.324 c 914.676 45.324 915.348 45.047 915.879
 44.492 c 916.414 43.957 916.68 43.297 916.68 42.508 c 916.68 41.699 916.414
 41.027 915.879 40.492 c 915.348 39.957 914.676 39.691 913.863 39.691 c 
913.074 39.691 912.414 39.957 911.879 40.492 c 911.324 41.047 911.047 41.719
 911.047 42.508 c h
911.047 42.508 m f
971.867 51.438 m 971.867 48.684 l 959.707 41.102 l 958.27 43.086 l 969.563
 50.059 l 958.27 57.004 l 959.578 59.051 l h
971.867 51.438 m f
Q Q
showpage
%%Trailer
end restore
%%EOF
