%!PS-Adobe-3.0 EPSF-3.0
%%Creator: cairo 1.14.1 (http://cairographics.org)
%%CreationDate: Wed Jun 21 01:19:48 2017
%%Pages: 1
%%DocumentData: Clean7Bit
%%LanguageLevel: 2
%%BoundingBox: 0 -1 96 34
%%EndComments
%%BeginProlog
save
50 dict begin
/q { gsave } bind def
/Q { grestore } bind def
/cm { 6 array astore concat } bind def
/w { setlinewidth } bind def
/J { setlinecap } bind def
/j { setlinejoin } bind def
/M { setmiterlimit } bind def
/d { setdash } bind def
/m { moveto } bind def
/l { lineto } bind def
/c { curveto } bind def
/h { closepath } bind def
/re { exch dup neg 3 1 roll 5 3 roll moveto 0 rlineto
      0 exch rlineto 0 rlineto closepath } bind def
/S { stroke } bind def
/f { fill } bind def
/f* { eofill } bind def
/n { newpath } bind def
/W { clip } bind def
/W* { eoclip } bind def
/BT { } bind def
/ET { } bind def
/pdfmark where { pop globaldict /?pdfmark /exec load put }
    { globaldict begin /?pdfmark /pop load def /pdfmark
    /cleartomark load def end } ifelse
/BDC { mark 3 1 roll /BDC pdfmark } bind def
/EMC { mark /EMC pdfmark } bind def
/cairo_store_point { /cairo_point_y exch def /cairo_point_x exch def } def
/Tj { show currentpoint cairo_store_point } bind def
/TJ {
  {
    dup
    type /stringtype eq
    { show } { -0.001 mul 0 cairo_font_matrix dtransform rmoveto } ifelse
  } forall
  currentpoint cairo_store_point
} bind def
/cairo_selectfont { cairo_font_matrix aload pop pop pop 0 0 6 array astore
    cairo_font exch selectfont cairo_point_x cairo_point_y moveto } bind def
/Tf { pop /cairo_font exch def /cairo_font_matrix where
      { pop cairo_selectfont } if } bind def
/Td { matrix translate cairo_font_matrix matrix concatmatrix dup
      /cairo_font_matrix exch def dup 4 get exch 5 get cairo_store_point
      /cairo_font where { pop cairo_selectfont } if } bind def
/Tm { 2 copy 8 2 roll 6 array astore /cairo_font_matrix exch def
      cairo_store_point /cairo_font where { pop cairo_selectfont } if } bind def
/g { setgray } bind def
/rg { setrgbcolor } bind def
/d1 { setcachedevice } bind def
%%EndProlog
%%BeginSetup
%%EndSetup
%%Page: 1 1
%%BeginPageSetup
%%PageBoundingBox: 0 -1 96 34
%%EndPageSetup
q 0 -1 96 35 rectclip q
0.666667 0.698039 0.670588 rg
2.512 33.194 m 93.195 33.034 l 94.461 33.034 95.594 33.221 95.594 30.506
 c 95.484 0.643 l 0.223 0.643 l 0.223 30.616 l 0.223 31.955 0.352 33.194
 2.512 33.194 c h
2.512 33.194 m f
0 g
94.203 33.6 m 1.797 33.6 l 0.809 33.6 0 32.795 0 31.803 c 0 0.405 l 0 0.182
 0.184 -0.002 0.406 -0.002 c 95.594 -0.002 l 95.816 -0.002 96 0.182 96 0.405
 c 96 31.803 l 96 32.795 95.191 33.6 94.203 33.6 c h
1.797 32.787 m 94.203 32.787 l 94.746 32.787 95.188 32.346 95.188 31.803
 c 95.188 9.983 l 28.926 9.983 l 26.508 5.604 21.844 2.635 16.492 2.635 
c 11.137 2.635 6.473 5.604 4.055 9.983 c 0.813 9.983 l 0.813 31.803 l 0.813
 32.346 1.254 32.787 1.797 32.787 c h
1.797 32.787 m f
1 g
59.047 7.401 m 59.301 7.401 59.531 7.381 59.738 7.334 c 59.945 7.291 60.125
 7.217 60.273 7.116 c 60.422 7.014 60.539 6.881 60.621 6.713 c 60.699 6.545
 60.742 6.338 60.742 6.088 c 60.742 5.823 60.68 5.6 60.559 5.424 c 60.438
 5.245 60.258 5.1 60.02 4.983 c 60.348 4.889 60.594 4.725 60.754 4.491 c
 60.914 4.256 60.996 3.971 60.996 3.639 c 60.996 3.373 60.945 3.143 60.84
 2.948 c 60.738 2.752 60.598 2.592 60.422 2.467 c 60.246 2.346 60.043 2.252
 59.816 2.194 c 59.594 2.135 59.359 2.104 59.121 2.104 c 56.551 2.104 l 
56.551 7.401 l h
58.898 5.26 m 59.105 5.26 59.277 5.311 59.41 5.409 c 59.543 5.506 59.613
 5.666 59.613 5.889 c 59.613 6.01 59.59 6.112 59.543 6.19 c 59.5 6.272 59.441
 6.33 59.367 6.377 c 59.293 6.42 59.207 6.452 59.109 6.471 c 59.016 6.487
 58.914 6.495 58.809 6.495 c 57.719 6.495 l 57.719 5.26 l h
58.965 3.01 m 59.082 3.01 59.188 3.022 59.293 3.045 c 59.398 3.069 59.488
 3.104 59.57 3.155 c 59.648 3.209 59.711 3.28 59.758 3.37 c 59.805 3.455
 59.828 3.569 59.828 3.709 c 59.828 3.979 59.754 4.174 59.598 4.291 c 59.445
 4.405 59.242 4.463 58.988 4.463 c 57.719 4.463 l 57.719 3.01 l h
58.965 3.01 m f
61.203 7.401 m 62.508 7.401 l 63.75 5.311 l 64.984 7.401 l 66.281 7.401
 l 64.316 4.139 l 64.316 2.104 l 63.148 2.104 l 63.148 4.166 l h
61.203 7.401 m f
27.402 17.916 m 27.406 11.893 22.527 7.006 16.504 7.002 c 10.477 6.998 
5.59 11.877 5.586 17.901 c 5.586 17.916 l 5.586 23.94 10.465 28.823 16.488
 28.827 c 22.512 28.83 27.398 23.952 27.402 17.928 c h
27.402 17.916 m f
0 g
25.363 26.799 m 27.781 24.381 28.992 21.416 28.992 17.916 c 28.992 14.412
 27.801 11.483 25.426 9.123 c 22.902 6.643 19.922 5.401 16.48 5.401 c 13.082
 5.401 10.152 6.631 7.691 9.092 c 5.23 11.553 4 14.495 4 17.916 c 4 21.334
 5.23 24.295 7.691 26.799 c 10.09 29.217 13.02 30.428 16.48 30.428 c 19.984
 30.428 22.945 29.217 25.363 26.799 c h
9.32 25.17 m 7.273 23.108 6.25 20.686 6.25 17.912 c 6.25 15.139 7.266 12.737
 9.289 10.717 c 11.313 8.69 13.723 7.678 16.516 7.678 c 19.313 7.678 21.742
 8.702 23.809 10.745 c 25.77 12.643 26.75 15.034 26.75 17.912 c 26.75 20.768
 25.754 23.194 23.762 25.186 c 21.77 27.178 19.355 28.174 16.516 28.174 
c 13.68 28.174 11.281 27.174 9.32 25.17 c h
14.699 19.131 m 14.387 19.815 13.922 20.155 13.297 20.155 c 12.195 20.155
 11.641 19.412 11.641 17.928 c 11.641 16.444 12.195 15.702 13.297 15.702
 c 14.023 15.702 14.543 16.061 14.855 16.787 c 16.387 15.971 l 15.656 14.678
 14.563 14.03 13.105 14.03 c 11.98 14.03 11.082 14.377 10.406 15.065 c 9.727
 15.752 9.391 16.705 9.391 17.916 c 9.391 19.104 9.738 20.049 10.438 20.748
 c 11.133 21.452 12.004 21.799 13.043 21.799 c 14.586 21.799 15.688 21.194
 16.355 19.979 c h
21.891 19.131 m 21.578 19.815 21.121 20.155 20.516 20.155 c 19.391 20.155
 18.828 19.412 18.828 17.928 c 18.828 16.444 19.391 15.702 20.516 15.702
 c 21.246 15.702 21.758 16.061 22.047 16.787 c 23.613 15.971 l 22.883 14.678
 21.793 14.03 20.336 14.03 c 19.215 14.03 18.316 14.377 17.641 15.065 c 
16.965 15.752 16.629 16.705 16.629 17.916 c 16.629 19.104 16.969 20.049 
17.656 20.748 c 18.344 21.452 19.215 21.799 20.273 21.799 c 21.813 21.799
 22.914 21.194 23.578 19.979 c h
21.891 19.131 m f
1 g
69.605 21.428 m 69.605 16.682 65.758 12.834 61.016 12.834 c 56.27 12.834
 52.422 16.682 52.422 21.428 c 52.422 26.17 56.27 30.018 61.016 30.018 c
 65.758 30.018 69.605 26.17 69.605 21.428 c h
69.605 21.428 m f
0 g
63.5 23.912 m 63.5 24.245 63.23 24.51 62.902 24.51 c 59.105 24.51 l 58.777
 24.51 58.508 24.245 58.508 23.912 c 58.508 20.12 l 59.566 20.12 l 59.566
 15.623 l 62.441 15.623 l 62.441 20.12 l 63.5 20.12 l h
63.5 23.912 m f
62.301 26.307 m 62.301 25.592 61.719 25.01 61.004 25.01 c 60.285 25.01 
59.707 25.592 59.707 26.307 c 59.707 27.026 60.285 27.608 61.004 27.608 
c 61.719 27.608 62.301 27.026 62.301 26.307 c h
62.301 26.307 m f
60.992 30.893 m 58.422 30.893 56.246 29.995 54.465 28.202 c 52.641 26.346
 51.727 24.151 51.727 21.616 c 51.727 19.08 52.641 16.901 54.465 15.077 
c 56.293 13.252 58.469 12.338 60.992 12.338 c 63.547 12.338 65.762 13.26
 67.633 15.1 c 69.398 16.846 70.281 19.018 70.281 21.616 c 70.281 24.213
 69.383 26.409 67.586 28.202 c 65.789 29.995 63.594 30.893 60.992 30.893
 c h
61.016 29.221 m 63.121 29.221 64.91 28.479 66.379 26.995 c 67.867 25.526
 68.609 23.733 68.609 21.616 c 68.609 19.483 67.883 17.713 66.426 16.307
 c 64.891 14.791 63.09 14.034 61.016 14.034 c 58.941 14.034 57.152 14.784
 55.652 16.284 c 54.148 17.784 53.398 19.561 53.398 21.616 c 53.398 23.67
 54.156 25.463 55.676 26.995 c 57.129 28.479 58.91 29.221 61.016 29.221 
c h
61.016 29.221 m f*
Q Q
showpage
%%Trailer
end restore
%%EOF
