%!PS-Adobe-3.0 EPSF-3.0
%%Creator: cairo 1.14.1 (http://cairographics.org)
%%CreationDate: Thu Jun 29 00:00:34 2017
%%Pages: 1
%%DocumentData: Clean7Bit
%%LanguageLevel: 2
%%BoundingBox: 0 1 1593 205
%%EndComments
%%BeginProlog
save
50 dict begin
/q { gsave } bind def
/Q { grestore } bind def
/cm { 6 array astore concat } bind def
/w { setlinewidth } bind def
/J { setlinecap } bind def
/j { setlinejoin } bind def
/M { setmiterlimit } bind def
/d { setdash } bind def
/m { moveto } bind def
/l { lineto } bind def
/c { curveto } bind def
/h { closepath } bind def
/re { exch dup neg 3 1 roll 5 3 roll moveto 0 rlineto
      0 exch rlineto 0 rlineto closepath } bind def
/S { stroke } bind def
/f { fill } bind def
/f* { eofill } bind def
/n { newpath } bind def
/W { clip } bind def
/W* { eoclip } bind def
/BT { } bind def
/ET { } bind def
/pdfmark where { pop globaldict /?pdfmark /exec load put }
    { globaldict begin /?pdfmark /pop load def /pdfmark
    /cleartomark load def end } ifelse
/BDC { mark 3 1 roll /BDC pdfmark } bind def
/EMC { mark /EMC pdfmark } bind def
/cairo_store_point { /cairo_point_y exch def /cairo_point_x exch def } def
/Tj { show currentpoint cairo_store_point } bind def
/TJ {
  {
    dup
    type /stringtype eq
    { show } { -0.001 mul 0 cairo_font_matrix dtransform rmoveto } ifelse
  } forall
  currentpoint cairo_store_point
} bind def
/cairo_selectfont { cairo_font_matrix aload pop pop pop 0 0 6 array astore
    cairo_font exch selectfont cairo_point_x cairo_point_y moveto } bind def
/Tf { pop /cairo_font exch def /cairo_font_matrix where
      { pop cairo_selectfont } if } bind def
/Td { matrix translate cairo_font_matrix matrix concatmatrix dup
      /cairo_font_matrix exch def dup 4 get exch 5 get cairo_store_point
      /cairo_font where { pop cairo_selectfont } if } bind def
/Tm { 2 copy 8 2 roll 6 array astore /cairo_font_matrix exch def
      cairo_store_point /cairo_font where { pop cairo_selectfont } if } bind def
/g { setgray } bind def
/rg { setrgbcolor } bind def
/d1 { setcachedevice } bind def
%%EndProlog
%%BeginSetup
%%EndSetup
%%Page: 1 1
%%BeginPageSetup
%%PageBoundingBox: 0 1 1593 205
%%EndPageSetup
q 0 1 1593 204 rectclip q
0.156863 0.164706 0.211765 rg
4.137 204.785 m 1588.332 204.785 l 1590.621 204.785 1592.469 204.348 1592.469
 203.805 c 1592.469 1.98 l 1592.469 1.438 1590.621 1 1588.332 1 c 4.137 
1 l 1.848 1 0 1.438 0 1.98 c 0 203.805 l 0 204.348 1.848 204.785 4.137 204.785
 c h
4.137 204.785 m f
0.741176 0.576471 0.976471 rg
45.82 131.934 m 43.133 131.934 41.02 132.895 39.484 134.816 c 37.969 136.758
 37.211 139.594 37.211 143.328 c 37.211 145.758 37.641 147.828 38.492 149.535
 c 39.348 151.242 40.477 152.523 41.883 153.375 c 43.293 154.25 44.816 154.688
 46.461 154.688 c 47.848 154.688 49.008 154.496 49.949 154.109 c 50.887 
153.727 51.816 153.109 52.734 152.254 c 51.07 150.527 l 50.387 151.145 49.672
 151.605 48.926 151.902 c 48.199 152.203 47.379 152.352 46.461 152.352 c
 44.668 152.352 43.176 151.637 41.98 150.207 c 40.785 148.777 40.188 146.484
 40.188 143.328 c 40.188 140.191 40.668 137.898 41.629 136.445 c 42.609 
134.996 44.082 134.27 46.043 134.27 c 47.602 134.27 49 134.625 50.238 135.328
 c 50.238 142.016 l 45.918 142.016 l 45.598 144.352 l 53.02 144.352 l 53.02
 133.855 l 51.91 133.238 50.793 132.758 49.66 132.414 c 48.551 132.094 47.27
 131.934 45.82 131.934 c h
45.82 131.934 m f
64.574 157.023 m 65.168 157.023 65.648 156.84 66.012 156.48 c 66.375 156.137
 66.555 155.691 66.555 155.137 c 66.555 154.582 66.375 154.121 66.012 153.758
 c 65.648 153.418 65.168 153.246 64.574 153.246 c 63.996 153.246 63.527 
153.418 63.164 153.758 c 62.824 154.121 62.652 154.582 62.652 155.137 c 
62.652 155.691 62.824 156.137 63.164 156.48 c 63.527 156.84 63.996 157.023
 64.574 157.023 c h
66.715 134.43 m 71.453 134.43 l 71.453 132.285 l 58.844 132.285 l 58.844
 134.43 l 64.027 134.43 l 64.027 147.008 l 59.004 147.008 l 59.004 149.152
 l 66.715 149.152 l h
66.715 134.43 m f
85.309 132.285 m 82.203 132.285 l 76.094 149.152 l 78.973 149.152 l 83.836
 134.719 l 88.637 149.152 l 91.453 149.152 l h
85.309 132.285 m f
98.715 139.773 m 98.781 137.918 99.262 136.523 100.156 135.582 c 101.074
 134.645 102.227 134.176 103.613 134.176 c 104.445 134.176 105.203 134.293
 105.883 134.527 c 106.59 134.781 107.336 135.168 108.125 135.68 c 109.371
 133.887 l 108.582 133.27 107.676 132.789 106.652 132.445 c 105.648 132.105
 104.637 131.934 103.613 131.934 c 101.18 131.934 99.281 132.723 97.918 
134.305 c 96.574 135.902 95.902 138.035 95.902 140.703 c 95.902 142.387 
96.199 143.891 96.797 145.215 c 97.395 146.559 98.246 147.605 99.355 148.352
 c 100.465 149.117 101.758 149.504 103.227 149.504 c 105.363 149.504 107.035
 148.758 108.254 147.262 c 109.488 145.793 110.109 143.773 110.109 141.215
 c 110.109 140.723 110.086 140.246 110.043 139.773 c h
103.262 147.297 m 101.961 147.297 100.902 146.824 100.094 145.887 c 99.281
 144.969 98.824 143.613 98.715 141.824 c 107.484 141.824 l 107.465 143.594
 107.078 144.949 106.332 145.887 c 105.586 146.824 104.563 147.297 103.262
 147.297 c h
103.262 147.297 m f
115.773 149.152 m 118.078 149.152 l 118.301 146.781 l 118.961 147.637 119.793
 148.297 120.797 148.766 c 121.82 149.258 122.844 149.504 123.867 149.504
 c 127.027 149.504 128.605 147.84 128.605 144.512 c 128.605 132.285 l 125.918
 132.285 l 125.918 142.527 l 125.918 143.785 125.84 144.746 125.691 145.406
 c 125.566 146.07 125.297 146.559 124.891 146.879 c 124.488 147.199 123.867
 147.359 123.035 147.359 c 122.117 147.359 121.254 147.082 120.445 146.527
 c 119.633 145.973 118.973 145.313 118.461 144.543 c 118.461 132.285 l 115.773
 132.285 l h
115.773 149.152 m f
1 g
138.527 143.488 m 138.527 141.313 138.77 139.414 139.262 137.793 c 139.754
 136.191 140.477 134.73 141.438 133.406 c 142.418 132.105 143.723 130.73
 145.344 129.277 c 143.965 127.809 l 142.09 129.32 140.551 130.816 139.359
 132.285 c 138.184 133.758 137.277 135.402 136.637 137.215 c 136.02 139.027
 135.711 141.117 135.711 143.488 c 135.711 145.855 136.02 147.945 136.637
 149.758 c 137.277 151.574 138.184 153.215 139.359 154.688 c 140.551 156.16
 142.09 157.652 143.965 159.168 c 145.344 157.695 l 143.699 156.246 142.387
 154.867 141.406 153.566 c 140.445 152.266 139.723 150.805 139.23 149.184
 c 138.762 147.582 138.527 145.684 138.527 143.488 c h
138.527 143.488 m f
1 0.333333 0.333333 rg
152.594 129.949 m 166.258 158.176 l 168.402 157.152 l 154.77 128.992 l 
h
152.594 129.949 m f
186.93 149.152 m 184.016 149.152 l 179.664 156.734 l 175.344 149.152 l 
172.465 149.152 l 178.512 159.168 l 180.883 159.168 l h
186.93 149.152 m f
204.594 135.969 m 204.594 135.305 204.699 134.816 204.914 134.496 c 205.125
 134.195 205.477 133.973 205.969 133.824 c 205.297 131.902 l 203.656 132.117
 202.629 132.918 202.227 134.305 c 201.629 133.535 200.871 132.949 199.953
 132.543 c 199.059 132.137 198.055 131.934 196.945 131.934 c 195.258 131.934
 193.926 132.406 192.945 133.344 c 191.984 134.281 191.504 135.539 191.504
 137.117 c 191.504 138.848 192.176 140.18 193.52 141.117 c 194.887 142.059
 196.84 142.527 199.379 142.527 c 201.875 142.527 l 201.875 143.902 l 201.875
 145.098 201.531 145.949 200.848 146.465 c 200.168 146.996 199.176 147.262
 197.875 147.262 c 196.594 147.262 195.133 146.977 193.488 146.398 c 192.754
 148.445 l 194.738 149.152 196.582 149.504 198.289 149.504 c 200.336 149.504
 201.895 149.023 202.961 148.063 c 204.051 147.102 204.594 145.77 204.594
 144.063 c h
197.617 133.949 m 198.449 133.949 199.238 134.164 199.984 134.59 c 200.754
 135.02 201.383 135.605 201.875 136.352 c 201.875 140.672 l 199.441 140.672
 l 197.648 140.672 196.359 140.371 195.57 139.773 c 194.781 139.176 194.387
 138.305 194.387 137.152 c 194.387 135.02 195.461 133.949 197.617 133.949
 c h
197.617 133.949 m f
240.848 156.254 m 242.449 156.254 243.973 155.957 245.426 155.359 c 244.563
 153.344 l 243.496 153.813 242.289 154.047 240.945 154.047 c 238.598 154.047
 237.426 153.117 237.426 151.262 c 237.426 147.84 l 243.121 147.84 l 242.832
 145.695 l 237.426 145.695 l 237.426 132.285 l 234.707 132.285 l 234.707
 145.695 l 230.707 145.695 l 230.707 147.84 l 234.707 147.84 l 234.707 151.199
 l 234.707 152.715 235.281 153.93 236.434 154.848 c 237.605 155.785 239.078
 156.254 240.848 156.254 c h
240.848 156.254 m f
256.496 157.023 m 257.094 157.023 257.574 156.84 257.938 156.48 c 258.301
 156.137 258.48 155.691 258.48 155.137 c 258.48 154.582 258.301 154.121 
257.938 153.758 c 257.574 153.418 257.094 153.246 256.496 153.246 c 255.922
 153.246 255.453 153.418 255.09 153.758 c 254.746 154.121 254.578 154.582
 254.578 155.137 c 254.578 155.691 254.746 156.137 255.09 156.48 c 255.453
 156.84 255.922 157.023 256.496 157.023 c h
258.641 134.43 m 263.379 134.43 l 263.379 132.285 l 250.77 132.285 l 250.77
 134.43 l 255.953 134.43 l 255.953 147.008 l 250.93 147.008 l 250.93 149.152
 l 258.641 149.152 l h
258.641 134.43 m f
275.891 136.445 m 275.891 134.934 276.816 134.176 278.672 134.176 c 279.547
 134.176 280.488 134.367 281.488 134.75 c 282.191 132.801 l 281.125 132.223
 279.793 131.934 278.191 131.934 c 276.68 131.934 275.461 132.352 274.547
 133.184 c 273.648 134.016 273.199 135.145 273.199 136.574 c 273.199 153.793
 l 268.016 153.793 l 268.016 155.934 l 275.891 155.934 l h
275.891 136.445 m f
290.641 139.773 m 290.707 137.918 291.184 136.523 292.082 135.582 c 293
 134.645 294.152 134.176 295.539 134.176 c 296.367 134.176 297.125 134.293
 297.809 134.527 c 298.512 134.781 299.262 135.168 300.051 135.68 c 301.297
 133.887 l 300.508 133.27 299.602 132.789 298.578 132.445 c 297.574 132.105
 296.563 131.934 295.539 131.934 c 293.105 131.934 291.207 132.723 289.84
 134.305 c 288.496 135.902 287.824 138.035 287.824 140.703 c 287.824 142.387
 288.125 143.891 288.723 145.215 c 289.32 146.559 290.172 147.605 291.281
 148.352 c 292.391 149.117 293.68 149.504 295.152 149.504 c 297.285 149.504
 298.961 148.758 300.176 147.262 c 301.414 145.793 302.031 143.773 302.031
 141.215 c 302.031 140.723 302.012 140.246 301.969 139.773 c h
295.184 147.297 m 293.883 147.297 292.828 146.824 292.016 145.887 c 291.207
 144.969 290.746 143.613 290.641 141.824 c 299.41 141.824 l 299.387 143.594
 299.004 144.949 298.258 145.887 c 297.512 146.824 296.488 147.297 295.184
 147.297 c h
295.184 147.297 m f
326.801 149.152 m 329.105 149.152 l 329.328 146.781 l 329.992 147.637 330.824
 148.297 331.824 148.766 c 332.848 149.258 333.875 149.504 334.898 149.504
 c 338.055 149.504 339.633 147.84 339.633 144.512 c 339.633 132.285 l 336.945
 132.285 l 336.945 142.527 l 336.945 143.785 336.871 144.746 336.723 145.406
 c 336.594 146.07 336.328 146.559 335.922 146.879 c 335.516 147.199 334.898
 147.359 334.066 147.359 c 333.148 147.359 332.285 147.082 331.473 146.527
 c 330.664 145.973 330 145.313 329.488 144.543 c 329.488 132.285 l 326.801
 132.285 l h
326.801 149.152 m f
358.098 135.969 m 358.098 135.305 358.203 134.816 358.418 134.496 c 358.629
 134.195 358.984 133.973 359.473 133.824 c 358.801 131.902 l 357.16 132.117
 356.133 132.918 355.73 134.305 c 355.133 133.535 354.375 132.949 353.457
 132.543 c 352.563 132.137 351.559 131.934 350.449 131.934 c 348.766 131.934
 347.43 132.406 346.449 133.344 c 345.488 134.281 345.008 135.539 345.008
 137.117 c 345.008 138.848 345.68 140.18 347.023 141.117 c 348.391 142.059
 350.344 142.527 352.883 142.527 c 355.379 142.527 l 355.379 143.902 l 355.379
 145.098 355.035 145.949 354.352 146.465 c 353.672 146.996 352.68 147.262
 351.379 147.262 c 350.098 147.262 348.637 146.977 346.992 146.398 c 346.258
 148.445 l 348.242 149.152 350.086 149.504 351.793 149.504 c 353.84 149.504
 355.398 149.023 356.465 148.063 c 357.555 147.102 358.098 145.77 358.098
 144.063 c h
351.121 133.949 m 351.953 133.949 352.742 134.164 353.488 134.59 c 354.258
 135.02 354.887 135.605 355.379 136.352 c 355.379 140.672 l 352.945 140.672
 l 351.152 140.672 349.863 140.371 349.074 139.773 c 348.285 139.176 347.891
 138.305 347.891 137.152 c 347.891 135.02 348.965 133.949 351.121 133.949
 c h
351.121 133.949 m f
376.305 149.504 m 377.266 149.504 378.043 149.16 378.641 148.48 c 379.262
 147.816 379.57 146.602 379.57 144.832 c 379.57 132.285 l 377.105 132.285
 l 377.105 144.383 l 377.105 145.555 377.031 146.348 376.883 146.75 c 376.73
 147.176 376.371 147.391 375.793 147.391 c 374.707 147.391 373.723 146.719
 372.848 145.375 c 372.848 132.285 l 370.352 132.285 l 370.352 144.383 l
 370.352 145.555 370.277 146.348 370.129 146.75 c 369.98 147.176 369.617
 147.391 369.043 147.391 c 367.953 147.391 366.973 146.719 366.098 145.375
 c 366.098 132.285 l 363.633 132.285 l 363.633 149.152 l 365.715 149.152
 l 365.906 147.168 l 366.418 147.914 366.949 148.488 367.504 148.895 c 368.082
 149.301 368.766 149.504 369.555 149.504 c 371.133 149.504 372.145 148.758
 372.594 147.262 c 373.105 147.988 373.648 148.543 374.227 148.926 c 374.801
 149.313 375.496 149.504 376.305 149.504 c h
376.305 149.504 m f
386.547 139.773 m 386.609 137.918 387.09 136.523 387.984 135.582 c 388.902
 134.645 390.055 134.176 391.441 134.176 c 392.273 134.176 393.031 134.293
 393.715 134.527 c 394.418 134.781 395.164 135.168 395.953 135.68 c 397.203
 133.887 l 396.41 133.27 395.504 132.789 394.48 132.445 c 393.48 132.105
 392.465 131.934 391.441 131.934 c 389.008 131.934 387.109 132.723 385.746
 134.305 c 384.402 135.902 383.73 138.035 383.73 140.703 c 383.73 142.387
 384.027 143.891 384.625 145.215 c 385.223 146.559 386.074 147.605 387.184
 148.352 c 388.293 149.117 389.586 149.504 391.059 149.504 c 393.191 149.504
 394.867 148.758 396.082 147.262 c 397.32 145.793 397.938 143.773 397.938
 141.215 c 397.938 140.723 397.914 140.246 397.875 139.773 c h
391.09 147.297 m 389.789 147.297 388.73 146.824 387.922 145.887 c 387.109
 144.969 386.652 143.613 386.547 141.824 c 395.313 141.824 l 395.293 143.594
 394.906 144.949 394.16 145.887 c 393.414 146.824 392.391 147.297 391.09
 147.297 c h
391.09 147.297 m f
416.402 155.934 m 416.402 132.285 l 414.035 132.285 l 413.777 134.496 l
 413.16 133.641 412.445 133 411.633 132.574 c 410.824 132.148 409.949 131.934
 409.008 131.934 c 406.875 131.934 405.266 132.715 404.176 134.27 c 403.109
 135.828 402.578 137.973 402.578 140.703 c 402.578 142.387 402.844 143.891
 403.379 145.215 c 403.91 146.559 404.668 147.605 405.648 148.352 c 406.652
 149.117 407.824 149.504 409.168 149.504 c 411.023 149.504 412.539 148.832
 413.715 147.488 c 413.715 156.254 l h
409.875 147.328 m 408.465 147.328 407.379 146.773 406.609 145.664 c 405.863
 144.555 405.488 142.902 405.488 140.703 c 405.488 138.527 405.832 136.875
 406.512 135.742 c 407.219 134.633 408.23 134.078 409.555 134.078 c 411.152
 134.078 412.539 134.977 413.715 136.766 c 413.715 145.152 l 413.242 145.855
 412.68 146.387 412.016 146.75 c 411.355 147.137 410.641 147.328 409.875
 147.328 c h
409.875 147.328 m f
445.617 143.488 m 445.617 141.313 445.863 139.414 446.352 137.793 c 446.844
 136.191 447.57 134.73 448.527 133.406 c 449.512 132.105 450.813 130.73 
452.434 129.277 c 451.059 127.809 l 449.18 129.32 447.645 130.816 446.449
 132.285 c 445.277 133.758 444.371 135.402 443.73 137.215 c 443.109 139.027
 442.801 141.117 442.801 143.488 c 442.801 145.855 443.109 147.945 443.73
 149.758 c 444.371 151.574 445.277 153.215 446.449 154.688 c 447.645 156.16
 449.18 157.652 451.059 159.168 c 452.434 157.695 l 450.789 156.246 449.48
 154.867 448.496 153.566 c 447.539 152.266 446.813 150.805 446.32 149.184
 c 445.852 147.582 445.617 145.684 445.617 143.488 c h
445.617 143.488 m f
467.473 154.688 m 468.73 154.688 469.84 154.453 470.801 153.984 c 471.762
 153.516 472.496 152.895 473.008 152.129 c 473.543 151.379 473.809 150.582
 473.809 149.727 c 473.809 148.918 473.672 148.223 473.395 147.648 c 473.137
 147.07 472.805 146.59 472.402 146.207 c 472.016 145.844 471.496 145.43 
470.832 144.961 c 470.191 144.512 469.691 144.117 469.328 143.773 c 468.965
 143.434 468.656 143.008 468.402 142.496 c 468.145 141.984 468.016 141.363
 468.016 140.641 c 468.016 139.551 l 465.328 139.551 l 465.328 140.801 l
 465.328 141.672 465.48 142.43 465.777 143.07 c 466.074 143.711 466.438 
144.234 466.867 144.641 c 467.293 145.043 467.848 145.516 468.527 146.047
 c 469.383 146.707 470 147.273 470.387 147.742 c 470.789 148.234 470.992
 148.84 470.992 149.566 c 470.992 150.465 470.641 151.168 469.938 151.68
 c 469.234 152.191 468.328 152.445 467.219 152.445 c 466.43 152.445 465.629
 152.246 464.816 151.84 c 464.027 151.453 463.313 150.867 462.672 150.078
 c 460.785 151.52 l 462.578 153.633 464.805 154.688 467.473 154.688 c h
466.77 136.223 m 467.387 136.223 467.898 136.008 468.305 135.582 c 468.711
 135.176 468.914 134.676 468.914 134.078 c 468.914 133.461 468.711 132.949
 468.305 132.543 c 467.898 132.137 467.387 131.934 466.77 131.934 c 466.172
 131.934 465.66 132.137 465.234 132.543 c 464.828 132.969 464.625 133.48
 464.625 134.078 c 464.625 134.676 464.828 135.176 465.234 135.582 c 465.66
 136.008 466.172 136.223 466.77 136.223 c h
466.77 136.223 m f
493.52 149.246 m 482.227 142.305 l 493.52 135.297 l 492.082 133.344 l 479.922
 140.926 l 479.922 143.711 l 492.211 151.297 l h
493.52 149.246 m f
509.457 156.254 m 511.059 156.254 512.582 155.957 514.035 155.359 c 513.168
 153.344 l 512.102 153.813 510.898 154.047 509.555 154.047 c 507.207 154.047
 506.035 153.117 506.035 151.262 c 506.035 147.84 l 511.73 147.84 l 511.441
 145.695 l 506.035 145.695 l 506.035 132.285 l 503.313 132.285 l 503.313
 145.695 l 499.313 145.695 l 499.313 147.84 l 503.313 147.84 l 503.313 151.199
 l 503.313 152.715 503.891 153.93 505.043 154.848 c 506.215 155.785 507.688
 156.254 509.457 156.254 c h
509.457 156.254 m f
525.105 157.023 m 525.703 157.023 526.184 156.84 526.547 156.48 c 526.906
 156.137 527.09 155.691 527.09 155.137 c 527.09 154.582 526.906 154.121 
526.547 153.758 c 526.184 153.418 525.703 153.246 525.105 153.246 c 524.527
 153.246 524.059 153.418 523.699 153.758 c 523.355 154.121 523.184 154.582
 523.184 155.137 c 523.184 155.691 523.355 156.137 523.699 156.48 c 524.059
 156.84 524.527 157.023 525.105 157.023 c h
527.25 134.43 m 531.984 134.43 l 531.984 132.285 l 519.379 132.285 l 519.379
 134.43 l 524.563 134.43 l 524.563 147.008 l 519.539 147.008 l 519.539 149.152
 l 527.25 149.152 l h
527.25 134.43 m f
544.496 136.445 m 544.496 134.934 545.426 134.176 547.281 134.176 c 548.156
 134.176 549.094 134.367 550.098 134.75 c 550.801 132.801 l 549.734 132.223
 548.402 131.934 546.801 131.934 c 545.285 131.934 544.07 132.352 543.152
 133.184 c 542.258 134.016 541.809 135.145 541.809 136.574 c 541.809 153.793
 l 536.625 153.793 l 536.625 155.934 l 544.496 155.934 l h
544.496 136.445 m f
559.25 139.773 m 559.313 137.918 559.793 136.523 560.688 135.582 c 561.605
 134.645 562.758 134.176 564.145 134.176 c 564.977 134.176 565.734 134.293
 566.418 134.527 c 567.121 134.781 567.867 135.168 568.656 135.68 c 569.906
 133.887 l 569.117 133.27 568.211 132.789 567.184 132.445 c 566.184 132.105
 565.168 131.934 564.145 131.934 c 561.715 131.934 559.816 132.723 558.449
 134.305 c 557.105 135.902 556.434 138.035 556.434 140.703 c 556.434 142.387
 556.73 143.891 557.328 145.215 c 557.926 146.559 558.781 147.605 559.891
 148.352 c 561 149.117 562.289 149.504 563.762 149.504 c 565.895 149.504
 567.57 148.758 568.785 147.262 c 570.023 145.793 570.641 143.773 570.641
 141.215 c 570.641 140.723 570.621 140.246 570.578 139.773 c h
563.793 147.297 m 562.492 147.297 561.438 146.824 560.625 145.887 c 559.816
 144.969 559.355 143.613 559.25 141.824 c 568.016 141.824 l 567.996 143.594
 567.613 144.949 566.867 145.887 c 566.117 146.824 565.094 147.297 563.793
 147.297 c h
563.793 147.297 m f
576.305 149.152 m 578.609 149.152 l 578.832 146.781 l 579.496 147.637 580.328
 148.297 581.328 148.766 c 582.352 149.258 583.379 149.504 584.402 149.504
 c 587.559 149.504 589.137 147.84 589.137 144.512 c 589.137 132.285 l 586.449
 132.285 l 586.449 142.527 l 586.449 143.785 586.375 144.746 586.227 145.406
 c 586.098 146.07 585.832 146.559 585.426 146.879 c 585.02 147.199 584.402
 147.359 583.57 147.359 c 582.652 147.359 581.789 147.082 580.977 146.527
 c 580.168 145.973 579.504 145.313 578.992 144.543 c 578.992 132.285 l 576.305
 132.285 l h
576.305 149.152 m f
607.602 135.969 m 607.602 135.305 607.707 134.816 607.922 134.496 c 608.133
 134.195 608.488 133.973 608.977 133.824 c 608.305 131.902 l 606.664 132.117
 605.637 132.918 605.234 134.305 c 604.637 133.535 603.879 132.949 602.961
 132.543 c 602.066 132.137 601.063 131.934 599.953 131.934 c 598.27 131.934
 596.934 132.406 595.953 133.344 c 594.992 134.281 594.512 135.539 594.512
 137.117 c 594.512 138.848 595.184 140.18 596.531 141.117 c 597.895 142.059
 599.848 142.527 602.387 142.527 c 604.883 142.527 l 604.883 143.902 l 604.883
 145.098 604.539 145.949 603.855 146.465 c 603.176 146.996 602.184 147.262
 600.883 147.262 c 599.602 147.262 598.141 146.977 596.496 146.398 c 595.762
 148.445 l 597.746 149.152 599.59 149.504 601.297 149.504 c 603.344 149.504
 604.902 149.023 605.969 148.063 c 607.059 147.102 607.602 145.77 607.602
 144.063 c h
600.625 133.949 m 601.457 133.949 602.246 134.164 602.992 134.59 c 603.762
 135.02 604.391 135.605 604.883 136.352 c 604.883 140.672 l 602.449 140.672
 l 600.656 140.672 599.367 140.371 598.578 139.773 c 597.789 139.176 597.395
 138.305 597.395 137.152 c 597.395 135.02 598.469 133.949 600.625 133.949
 c h
600.625 133.949 m f
625.809 149.504 m 626.77 149.504 627.547 149.16 628.145 148.48 c 628.766
 147.816 629.074 146.602 629.074 144.832 c 629.074 132.285 l 626.609 132.285
 l 626.609 144.383 l 626.609 145.555 626.535 146.348 626.387 146.75 c 626.234
 147.176 625.875 147.391 625.297 147.391 c 624.211 147.391 623.227 146.719
 622.352 145.375 c 622.352 132.285 l 619.855 132.285 l 619.855 144.383 l
 619.855 145.555 619.781 146.348 619.633 146.75 c 619.484 147.176 619.121
 147.391 618.547 147.391 c 617.457 147.391 616.477 146.719 615.602 145.375
 c 615.602 132.285 l 613.137 132.285 l 613.137 149.152 l 615.219 149.152
 l 615.41 147.168 l 615.922 147.914 616.453 148.488 617.008 148.895 c 617.586
 149.301 618.27 149.504 619.059 149.504 c 620.637 149.504 621.648 148.758
 622.098 147.262 c 622.609 147.988 623.152 148.543 623.73 148.926 c 624.305
 149.313 625 149.504 625.809 149.504 c h
625.809 149.504 m f
635.953 139.773 m 636.016 137.918 636.496 136.523 637.395 135.582 c 638.313
 134.645 639.461 134.176 640.848 134.176 c 641.68 134.176 642.438 134.293
 643.121 134.527 c 643.824 134.781 644.57 135.168 645.359 135.68 c 646.609
 133.887 l 645.82 133.27 644.914 132.789 643.891 132.445 c 642.887 132.105
 641.875 131.934 640.848 131.934 c 638.418 131.934 636.52 132.723 635.152
 134.305 c 633.809 135.902 633.137 138.035 633.137 140.703 c 633.137 142.387
 633.438 143.891 634.035 145.215 c 634.629 146.559 635.484 147.605 636.594
 148.352 c 637.703 149.117 638.992 149.504 640.465 149.504 c 642.598 149.504
 644.273 148.758 645.488 147.262 c 646.727 145.793 647.344 143.773 647.344
 141.215 c 647.344 140.723 647.324 140.246 647.281 139.773 c h
640.496 147.297 m 639.195 147.297 638.141 146.824 637.328 145.887 c 636.52
 144.969 636.059 143.613 635.953 141.824 c 644.723 141.824 l 644.699 143.594
 644.316 144.949 643.57 145.887 c 642.824 146.824 641.797 147.297 640.496
 147.297 c h
640.496 147.297 m f
666.227 143.68 m 666.227 140.926 l 654.066 133.344 l 652.625 135.328 l 
663.922 142.305 l 652.625 149.246 l 653.938 151.297 l h
666.227 143.68 m f
675.762 134.75 m 675.762 135.539 676.027 136.203 676.563 136.734 c 677.117
 137.289 677.789 137.566 678.578 137.566 c 679.387 137.566 680.059 137.289
 680.594 136.734 c 681.125 136.203 681.395 135.539 681.395 134.75 c 681.395
 133.941 681.125 133.27 680.594 132.734 c 680.059 132.203 679.387 131.934
 678.578 131.934 c 677.789 131.934 677.117 132.203 676.563 132.734 c 676.027
 133.289 675.762 133.961 675.762 134.75 c h
675.762 134.75 m f
699.023 143.359 m 705.297 143.359 l 705.297 141.117 l 699.023 141.117 l
 699.023 134.75 l 696.527 134.75 l 696.527 141.117 l 690.32 141.117 l 690.32
 143.359 l 696.527 143.359 l 696.527 149.727 l 699.023 149.727 l h
699.023 143.359 m f
716.977 154.688 m 718.234 154.688 719.344 154.453 720.305 153.984 c 721.266
 153.516 722 152.895 722.512 152.129 c 723.047 151.379 723.313 150.582 723.313
 149.727 c 723.313 148.918 723.176 148.223 722.898 147.648 c 722.641 147.07
 722.313 146.59 721.906 146.207 c 721.52 145.844 721 145.43 720.336 144.961
 c 719.699 144.512 719.195 144.117 718.832 143.773 c 718.469 143.434 718.16
 143.008 717.906 142.496 c 717.648 141.984 717.52 141.363 717.52 140.641
 c 717.52 139.551 l 714.832 139.551 l 714.832 140.801 l 714.832 141.672 
714.984 142.43 715.281 143.07 c 715.578 143.711 715.941 144.234 716.371 
144.641 c 716.797 145.043 717.352 145.516 718.035 146.047 c 718.887 146.707
 719.504 147.273 719.891 147.742 c 720.293 148.234 720.496 148.84 720.496
 149.566 c 720.496 150.465 720.145 151.168 719.441 151.68 c 718.738 152.191
 717.832 152.445 716.723 152.445 c 715.934 152.445 715.133 152.246 714.32
 151.84 c 713.531 151.453 712.816 150.867 712.176 150.078 c 710.289 151.52
 l 712.082 153.633 714.313 154.688 716.977 154.688 c h
716.273 136.223 m 716.891 136.223 717.402 136.008 717.809 135.582 c 718.215
 135.176 718.418 134.676 718.418 134.078 c 718.418 133.461 718.215 132.949
 717.809 132.543 c 717.402 132.137 716.891 131.934 716.273 131.934 c 715.676
 131.934 715.164 132.137 714.738 132.543 c 714.332 132.969 714.129 133.48
 714.129 134.078 c 714.129 134.676 714.332 135.176 714.738 135.582 c 715.164
 136.008 715.676 136.223 716.273 136.223 c h
716.273 136.223 m f
738.992 143.488 m 738.992 145.684 738.746 147.582 738.258 149.184 c 737.789
 150.805 737.063 152.266 736.082 153.566 c 735.121 154.867 733.82 156.246
 732.176 157.695 c 733.555 159.168 l 735.43 157.652 736.957 156.16 738.129
 154.688 c 739.324 153.215 740.23 151.574 740.848 149.758 c 741.488 147.945
 741.809 145.855 741.809 143.488 c 741.809 141.117 741.488 139.027 740.848
 137.215 c 740.23 135.402 739.324 133.758 738.129 132.285 c 736.957 130.816
 735.43 129.32 733.555 127.809 c 732.176 129.277 l 733.797 130.73 735.09
 132.105 736.051 133.406 c 737.031 134.73 737.766 136.191 738.258 137.793
 c 738.746 139.414 738.992 141.313 738.992 143.488 c h
738.992 143.488 m f
776.914 132.285 m 774.707 144.641 l 772.336 132.285 l 768.625 132.285 l
 765.586 149.152 l 768.305 149.152 l 770.48 133.949 l 773.168 147.008 l 
776.336 147.008 l 778.867 133.949 l 781.043 149.152 l 783.633 149.152 l 
780.723 132.285 l h
776.914 132.285 m f
793.715 157.023 m 794.313 157.023 794.789 156.84 795.152 156.48 c 795.516
 156.137 795.699 155.691 795.699 155.137 c 795.699 154.582 795.516 154.121
 795.152 153.758 c 794.789 153.418 794.313 153.246 793.715 153.246 c 793.137
 153.246 792.668 153.418 792.305 153.758 c 791.965 154.121 791.793 154.582
 791.793 155.137 c 791.793 155.691 791.965 156.137 792.305 156.48 c 792.668
 156.84 793.137 157.023 793.715 157.023 c h
795.855 134.43 m 800.594 134.43 l 800.594 132.285 l 787.984 132.285 l 787.984
 134.43 l 793.168 134.43 l 793.168 147.008 l 788.145 147.008 l 788.145 149.152
 l 795.855 149.152 l h
795.855 134.43 m f
819.922 133.152 m 819.344 132.766 818.641 132.469 817.809 132.254 c 817
 132.043 816.188 131.934 815.379 131.934 c 813.605 131.934 812.219 132.395
 811.219 133.313 c 810.215 134.25 809.715 135.477 809.715 136.992 c 809.715
 147.039 l 805.84 147.039 l 805.84 149.152 l 809.715 149.152 l 809.715 152.961
 l 812.402 153.277 l 812.402 149.152 l 818.258 149.152 l 817.906 147.039
 l 812.402 147.039 l 812.402 137.023 l 812.402 136.063 812.656 135.348 813.168
 134.879 c 813.68 134.41 814.504 134.176 815.633 134.176 c 816.785 134.176
 817.863 134.441 818.867 134.977 c h
819.922 133.152 m f
828.402 146.816 m 829.063 147.668 829.875 148.328 830.832 148.801 c 831.793
 149.27 832.785 149.504 833.809 149.504 c 836.965 149.504 838.547 147.84
 838.547 144.512 c 838.547 132.285 l 835.855 132.285 l 835.855 144.48 l 
835.855 145.48 835.621 146.207 835.152 146.656 c 834.684 147.125 833.938
 147.359 832.914 147.359 c 832.039 147.359 831.195 147.082 830.387 146.527
 c 829.574 145.973 828.914 145.32 828.402 144.574 c 828.402 132.285 l 825.715
 132.285 l 825.715 155.902 l 828.402 156.191 l h
828.402 146.816 m f
848.723 146.078 m 848.723 146.781 848.965 147.379 849.457 147.871 c 849.949
 148.383 850.555 148.641 851.281 148.641 c 852.027 148.641 852.648 148.383
 853.137 147.871 c 853.629 147.379 853.875 146.781 853.875 146.078 c 853.875
 145.355 853.629 144.734 853.137 144.223 c 852.648 143.711 852.027 143.453
 851.281 143.453 c 850.555 143.453 849.949 143.711 849.457 144.223 c 848.965
 144.734 848.723 145.355 848.723 146.078 c h
848.723 134.527 m 848.723 135.23 848.965 135.84 849.457 136.352 c 849.949
 136.863 850.555 137.117 851.281 137.117 c 852.027 137.117 852.648 136.863
 853.137 136.352 c 853.629 135.859 853.875 135.254 853.875 134.527 c 853.875
 133.781 853.629 133.16 853.137 132.672 c 852.648 132.18 852.027 131.934
 851.281 131.934 c 850.555 131.934 849.949 132.18 849.457 132.672 c 848.965
 133.16 848.723 133.781 848.723 134.527 c h
848.723 134.527 m f
1 0.47451 0.776471 rg
864.645 158.176 m 878.34 129.949 l 876.164 128.992 l 862.531 157.152 l 
h
864.645 158.176 m f
888.996 134.145 m 890.277 134.145 891.289 134.387 892.035 134.879 c 892.781
 135.371 893.156 136.02 893.156 136.832 c 893.156 137.387 893.059 137.832
 892.867 138.176 c 892.676 138.539 892.293 138.859 891.715 139.137 c 891.141
 139.434 890.266 139.73 889.09 140.031 c 887.129 140.523 885.68 141.109 
884.738 141.793 c 883.801 142.496 883.332 143.531 883.332 144.895 c 883.332
 146.305 883.918 147.422 885.09 148.254 c 886.266 149.086 887.813 149.504
 889.73 149.504 c 892.078 149.504 894.125 148.883 895.875 147.648 c 894.66
 145.793 l 893.957 146.281 893.219 146.656 892.453 146.91 c 891.684 147.188
 890.797 147.328 889.797 147.328 c 887.363 147.328 886.148 146.59 886.148
 145.117 c 886.148 144.605 886.277 144.191 886.531 143.871 c 886.809 143.551
 887.246 143.262 887.844 143.008 c 888.461 142.773 889.379 142.484 890.594
 142.145 c 892.43 141.652 893.797 141.023 894.691 140.254 c 895.609 139.508
 896.066 138.41 896.066 136.961 c 896.066 135.273 895.383 134.016 894.02
 133.184 c 892.652 132.352 890.98 131.934 888.996 131.934 c 886.352 131.934
 884.152 132.691 882.402 134.207 c 883.906 135.969 l 884.59 135.414 885.367
 134.965 886.242 134.625 c 887.117 134.305 888.035 134.145 888.996 134.145
 c h
888.996 134.145 m f
1 0.333333 0.333333 rg
904.457 155.934 m 907.82 155.934 l 907.305 147.613 l 904.938 147.613 l 
h
909.801 155.934 m 913.164 155.934 l 912.684 147.613 l 910.313 147.613 l
 h
909.801 155.934 m f
923.66 155.934 m 927.02 155.934 l 926.508 147.613 l 924.137 147.613 l h
929.004 155.934 m 932.363 155.934 l 931.883 147.613 l 929.516 147.613 l
 h
929.004 155.934 m f
942.859 155.934 m 946.219 155.934 l 945.707 147.613 l 943.34 147.613 l 
h
948.203 155.934 m 951.563 155.934 l 951.082 147.613 l 948.715 147.613 l
 h
948.203 155.934 m f
963.625 143.488 m 963.625 141.313 963.871 139.414 964.363 137.793 c 964.852
 136.191 965.578 134.73 966.539 133.406 c 967.52 132.105 968.82 130.73 970.441
 129.277 c 969.066 127.809 l 967.188 129.32 965.652 130.816 964.457 132.285
 c 963.285 133.758 962.379 135.402 961.738 137.215 c 961.121 139.027 960.809
 141.117 960.809 143.488 c 960.809 145.855 961.121 147.945 961.738 149.758
 c 962.379 151.574 963.285 153.215 964.457 154.688 c 965.652 156.16 967.188
 157.652 969.066 159.168 c 970.441 157.695 l 968.801 156.246 967.488 154.867
 966.508 153.566 c 965.547 152.266 964.82 150.805 964.332 149.184 c 963.859
 147.582 963.625 145.684 963.625 143.488 c h
963.625 143.488 m f
985.578 154.688 m 986.836 154.688 987.945 154.453 988.906 153.984 c 989.867
 153.516 990.602 152.895 991.113 152.129 c 991.648 151.379 991.914 150.582
 991.914 149.727 c 991.914 148.918 991.777 148.223 991.5 147.648 c 991.242
 147.07 990.91 146.59 990.508 146.207 c 990.121 145.844 989.602 145.43 988.938
 144.961 c 988.297 144.512 987.797 144.117 987.434 143.773 c 987.07 143.434
 986.762 143.008 986.508 142.496 c 986.25 141.984 986.121 141.363 986.121
 140.641 c 986.121 139.551 l 983.434 139.551 l 983.434 140.801 l 983.434
 141.672 983.582 142.43 983.883 143.07 c 984.18 143.711 984.543 144.234 
984.969 144.641 c 985.398 145.043 985.953 145.516 986.633 146.047 c 987.488
 146.707 988.105 147.273 988.492 147.742 c 988.895 148.234 989.098 148.84
 989.098 149.566 c 989.098 150.465 988.746 151.168 988.043 151.68 c 987.34
 152.191 986.434 152.445 985.324 152.445 c 984.531 152.445 983.734 152.246
 982.922 151.84 c 982.133 151.453 981.418 150.867 980.777 150.078 c 978.891
 151.52 l 980.684 153.633 982.91 154.688 985.578 154.688 c h
984.875 136.223 m 985.492 136.223 986.004 136.008 986.41 135.582 c 986.816
 135.176 987.02 134.676 987.02 134.078 c 987.02 133.461 986.816 132.949 
986.41 132.543 c 986.004 132.137 985.492 131.934 984.875 131.934 c 984.277
 131.934 983.766 132.137 983.34 132.543 c 982.934 132.969 982.73 133.48 
982.73 134.078 c 982.73 134.676 982.934 135.176 983.34 135.582 c 983.766
 136.008 984.277 136.223 984.875 136.223 c h
984.875 136.223 m f
1011.625 149.246 m 1000.332 142.305 l 1011.625 135.297 l 1010.188 133.344
 l 998.027 140.926 l 998.027 143.711 l 1010.313 151.297 l h
1011.625 149.246 m f
1025.258 134.238 m 1026.73 134.238 1028.191 134.73 1029.641 135.711 c 1030.922
 133.949 l 1030.219 133.332 1029.344 132.84 1028.297 132.48 c 1027.254 132.117
 1026.238 131.934 1025.258 131.934 c 1022.762 131.934 1020.809 132.715 1019.402
 134.27 c 1018.016 135.852 1017.324 137.973 1017.324 140.641 c 1017.324 
142.324 1017.633 143.84 1018.25 145.184 c 1018.891 146.527 1019.809 147.582
 1021.004 148.352 c 1022.195 149.117 1023.617 149.504 1025.258 149.504 c
 1027.434 149.504 1029.313 148.84 1030.891 147.52 c 1029.578 145.758 l 1028.105
 146.742 1026.656 147.23 1025.227 147.23 c 1023.711 147.23 1022.496 146.664
 1021.578 145.535 c 1020.684 144.426 1020.234 142.793 1020.234 140.641 c
 1020.234 138.484 1020.684 136.875 1021.578 135.809 c 1022.496 134.762 1023.723
 134.238 1025.258 134.238 c h
1025.258 134.238 m f
1043.242 149.504 m 1045.566 149.504 1047.348 148.715 1048.586 147.137 c
 1049.844 145.578 1050.473 143.445 1050.473 140.734 c 1050.473 138.09 1049.836
 135.957 1048.555 134.336 c 1047.297 132.734 1045.516 131.934 1043.211 131.934
 c 1040.887 131.934 1039.094 132.715 1037.836 134.27 c 1036.574 135.852 
1035.945 137.992 1035.945 140.703 c 1035.945 143.371 1036.574 145.504 1037.836
 147.102 c 1039.113 148.703 1040.918 149.504 1043.242 149.504 c h
1043.242 147.297 m 1041.77 147.297 1040.672 146.75 1039.945 145.664 c 1039.223
 144.574 1038.859 142.922 1038.859 140.703 c 1038.859 138.484 1039.211 136.832
 1039.914 135.742 c 1040.641 134.676 1041.738 134.145 1043.211 134.145 c
 1044.684 134.145 1045.77 134.676 1046.473 135.742 c 1047.199 136.832 1047.563
 138.496 1047.563 140.734 c 1047.563 142.953 1047.199 144.598 1046.473 145.664
 c 1045.77 146.75 1044.691 147.297 1043.242 147.297 c h
1043.242 147.297 m f
1055.914 149.152 m 1058.219 149.152 l 1058.441 146.781 l 1059.105 147.637
 1059.938 148.297 1060.938 148.766 c 1061.961 149.258 1062.988 149.504 1064.012
 149.504 c 1067.168 149.504 1068.746 147.84 1068.746 144.512 c 1068.746 
132.285 l 1066.059 132.285 l 1066.059 142.527 l 1066.059 143.785 1065.984
 144.746 1065.836 145.406 c 1065.707 146.07 1065.441 146.559 1065.035 146.879
 c 1064.629 147.199 1064.012 147.359 1063.18 147.359 c 1062.262 147.359 
1061.398 147.082 1060.586 146.527 c 1059.777 145.973 1059.113 145.313 1058.602
 144.543 c 1058.602 132.285 l 1055.914 132.285 l h
1055.914 149.152 m f
1088.523 133.152 m 1087.945 132.766 1087.242 132.469 1086.41 132.254 c 
1085.602 132.043 1084.789 131.934 1083.977 131.934 c 1082.207 131.934 1080.82
 132.395 1079.82 133.313 c 1078.816 134.25 1078.316 135.477 1078.316 136.992
 c 1078.316 147.039 l 1074.441 147.039 l 1074.441 149.152 l 1078.316 149.152
 l 1078.316 152.961 l 1081.004 153.277 l 1081.004 149.152 l 1086.859 149.152
 l 1086.508 147.039 l 1081.004 147.039 l 1081.004 137.023 l 1081.004 136.063
 1081.258 135.348 1081.77 134.879 c 1082.281 134.41 1083.105 134.176 1084.234
 134.176 c 1085.387 134.176 1086.465 134.441 1087.465 134.977 c h
1088.523 133.152 m f
1096.457 139.773 m 1096.523 137.918 1097.004 136.523 1097.898 135.582 c
 1098.816 134.645 1099.969 134.176 1101.355 134.176 c 1102.188 134.176 1102.945
 134.293 1103.625 134.527 c 1104.332 134.781 1105.078 135.168 1105.867 135.68
 c 1107.113 133.887 l 1106.324 133.27 1105.418 132.789 1104.395 132.445 
c 1103.391 132.105 1102.379 131.934 1101.355 131.934 c 1098.922 131.934 
1097.023 132.723 1095.66 134.305 c 1094.316 135.902 1093.641 138.035 1093.641
 140.703 c 1093.641 142.387 1093.941 143.891 1094.539 145.215 c 1095.137
 146.559 1095.988 147.605 1097.098 148.352 c 1098.207 149.117 1099.5 149.504
 1100.969 149.504 c 1103.105 149.504 1104.777 148.758 1105.996 147.262 c
 1107.23 145.793 1107.852 143.773 1107.852 141.215 c 1107.852 140.723 1107.828
 140.246 1107.785 139.773 c h
1101.004 147.297 m 1099.699 147.297 1098.645 146.824 1097.836 145.887 c
 1097.023 144.969 1096.566 143.613 1096.457 141.824 c 1105.227 141.824 l
 1105.207 143.594 1104.82 144.949 1104.074 145.887 c 1103.328 146.824 1102.305
 147.297 1101.004 147.297 c h
1101.004 147.297 m f
1113.516 149.152 m 1115.82 149.152 l 1116.043 146.781 l 1116.703 147.637
 1117.535 148.297 1118.539 148.766 c 1119.563 149.258 1120.586 149.504 1121.609
 149.504 c 1124.77 149.504 1126.348 147.84 1126.348 144.512 c 1126.348 132.285
 l 1123.66 132.285 l 1123.66 142.527 l 1123.66 143.785 1123.582 144.746 
1123.434 145.406 c 1123.305 146.07 1123.039 146.559 1122.633 146.879 c 1122.23
 147.199 1121.609 147.359 1120.777 147.359 c 1119.859 147.359 1118.996 147.082
 1118.188 146.527 c 1117.375 145.973 1116.715 145.313 1116.203 144.543 c
 1116.203 132.285 l 1113.516 132.285 l h
1113.516 149.152 m f
1146.121 133.152 m 1145.547 132.766 1144.844 132.469 1144.012 132.254 c
 1143.199 132.043 1142.391 131.934 1141.578 131.934 c 1139.809 131.934 1138.422
 132.395 1137.418 133.313 c 1136.414 134.25 1135.914 135.477 1135.914 136.992
 c 1135.914 147.039 l 1132.043 147.039 l 1132.043 149.152 l 1135.914 149.152
 l 1135.914 152.961 l 1138.602 153.277 l 1138.602 149.152 l 1144.457 149.152
 l 1144.105 147.039 l 1138.602 147.039 l 1138.602 137.023 l 1138.602 136.063
 1138.859 135.348 1139.371 134.879 c 1139.883 134.41 1140.703 134.176 1141.836
 134.176 c 1142.988 134.176 1144.063 134.441 1145.066 134.977 c h
1146.121 133.152 m f
1165.129 143.68 m 1165.129 140.926 l 1152.969 133.344 l 1151.531 135.328
 l 1162.828 142.305 l 1151.531 149.246 l 1152.844 151.297 l h
1165.129 143.68 m f
1174.668 134.75 m 1174.668 135.539 1174.934 136.203 1175.465 136.734 c 
1176.02 137.289 1176.691 137.566 1177.484 137.566 c 1178.293 137.566 1178.965
 137.289 1179.5 136.734 c 1180.031 136.203 1180.297 135.539 1180.297 134.75
 c 1180.297 133.941 1180.031 133.27 1179.5 132.734 c 1178.965 132.203 1178.293
 131.934 1177.484 131.934 c 1176.691 131.934 1176.02 132.203 1175.465 132.734
 c 1174.934 133.289 1174.668 133.961 1174.668 134.75 c h
1174.668 134.75 m f
1197.93 143.359 m 1204.203 143.359 l 1204.203 141.117 l 1197.93 141.117
 l 1197.93 134.75 l 1195.434 134.75 l 1195.434 141.117 l 1189.227 141.117
 l 1189.227 143.359 l 1195.434 143.359 l 1195.434 149.727 l 1197.93 149.727
 l h
1197.93 143.359 m f
1215.785 154.688 m 1217.047 154.688 1218.156 154.453 1219.113 153.984 c
 1220.074 153.516 1220.809 152.895 1221.324 152.129 c 1221.855 151.379 1222.121
 150.582 1222.121 149.727 c 1222.121 148.918 1221.984 148.223 1221.707 147.648
 c 1221.449 147.07 1221.121 146.59 1220.715 146.207 c 1220.332 145.844 1219.809
 145.43 1219.148 144.961 c 1218.508 144.512 1218.004 144.117 1217.641 143.773
 c 1217.281 143.434 1216.969 143.008 1216.715 142.496 c 1216.457 141.984
 1216.332 141.363 1216.332 140.641 c 1216.332 139.551 l 1213.641 139.551
 l 1213.641 140.801 l 1213.641 141.672 1213.793 142.43 1214.09 143.07 c 
1214.391 143.711 1214.75 144.234 1215.18 144.641 c 1215.605 145.043 1216.16
 145.516 1216.844 146.047 c 1217.695 146.707 1218.316 147.273 1218.699 147.742
 c 1219.105 148.234 1219.305 148.84 1219.305 149.566 c 1219.305 150.465 
1218.953 151.168 1218.25 151.68 c 1217.547 152.191 1216.641 152.445 1215.531
 152.445 c 1214.742 152.445 1213.941 152.246 1213.129 151.84 c 1212.34 151.453
 1211.625 150.867 1210.988 150.078 c 1209.098 151.52 l 1210.891 153.633 
1213.121 154.688 1215.785 154.688 c h
1215.082 136.223 m 1215.703 136.223 1216.215 136.008 1216.617 135.582 c
 1217.023 135.176 1217.227 134.676 1217.227 134.078 c 1217.227 133.461 1217.023
 132.949 1216.617 132.543 c 1216.215 132.137 1215.703 131.934 1215.082 131.934
 c 1214.484 131.934 1213.973 132.137 1213.547 132.543 c 1213.141 132.969
 1212.938 133.48 1212.938 134.078 c 1212.938 134.676 1213.141 135.176 1213.547
 135.582 c 1213.973 136.008 1214.484 136.223 1215.082 136.223 c h
1215.082 136.223 m f
1237.801 143.488 m 1237.801 145.684 1237.559 147.582 1237.066 149.184 c
 1236.598 150.805 1235.871 152.266 1234.891 153.566 c 1233.93 154.867 1232.629
 156.246 1230.988 157.695 c 1232.363 159.168 l 1234.238 157.652 1235.766
 156.16 1236.938 154.688 c 1238.133 153.215 1239.039 151.574 1239.66 149.758
 c 1240.297 147.945 1240.617 145.855 1240.617 143.488 c 1240.617 141.117
 1240.297 139.027 1239.66 137.215 c 1239.039 135.402 1238.133 133.758 1236.938
 132.285 c 1235.766 130.816 1234.238 129.32 1232.363 127.809 c 1230.988 
129.277 l 1232.609 130.73 1233.898 132.105 1234.859 133.406 c 1235.84 134.73
 1236.574 136.191 1237.066 137.793 c 1237.559 139.414 1237.801 141.313 1237.801
 143.488 c h
1237.801 143.488 m f
1249.867 155.934 m 1253.227 155.934 l 1252.715 147.613 l 1250.348 147.613
 l h
1255.211 155.934 m 1258.57 155.934 l 1258.09 147.613 l 1255.723 147.613
 l h
1255.211 155.934 m f
1269.066 155.934 m 1272.426 155.934 l 1271.914 147.613 l 1269.547 147.613
 l h
1274.41 155.934 m 1277.77 155.934 l 1277.289 147.613 l 1274.922 147.613
 l h
1274.41 155.934 m f
1288.266 155.934 m 1291.625 155.934 l 1291.113 147.613 l 1288.746 147.613
 l h
1293.609 155.934 m 1296.969 155.934 l 1296.492 147.613 l 1294.121 147.613
 l h
1293.609 155.934 m f
1313.289 154.625 m 1314.465 154.496 1315.551 154.195 1316.555 153.727 c
 1317.559 153.277 1318.422 152.723 1319.148 152.063 c 1317.516 150.367 l
 1316.258 151.52 1314.848 152.191 1313.289 152.383 c 1313.289 145.117 l 
1315.168 144.5 1316.66 143.668 1317.77 142.625 c 1318.879 141.578 1319.434
 140.148 1319.434 138.336 c 1319.434 136.734 1318.902 135.348 1317.836 134.176
 c 1316.77 133.023 1315.254 132.32 1313.289 132.063 c 1313.289 127.391 l
 1311.113 127.391 l 1311.113 131.969 l 1309.727 132.031 1308.469 132.34 
1307.34 132.895 c 1306.207 133.473 1305.238 134.152 1304.426 134.941 c 1306.027
 136.734 l 1307.543 135.219 1309.238 134.387 1311.113 134.238 c 1311.113
 143.07 l 1309.195 143.711 1307.734 144.523 1306.73 145.504 c 1305.75 146.504
 1305.258 147.73 1305.258 149.184 c 1305.258 150.059 1305.473 150.891 1305.898
 151.68 c 1306.348 152.469 1307.008 153.117 1307.883 153.633 c 1308.777 
154.164 1309.855 154.496 1311.113 154.625 c 1311.113 159.422 l 1313.289 
159.422 l h
1311.113 152.32 m 1310.195 152.168 1309.461 151.828 1308.906 151.297 c 
1308.375 150.781 1308.105 150.09 1308.105 149.215 c 1308.105 148.426 1308.32
 147.773 1308.746 147.262 c 1309.195 146.75 1309.984 146.27 1311.113 145.824
 c h
1313.289 134.367 m 1315.445 134.793 1316.523 136.105 1316.523 138.305 c
 1316.523 139.219 1316.277 140 1315.785 140.641 c 1315.297 141.277 1314.465
 141.844 1313.289 142.336 c h
1313.289 134.367 m f
1323.113 129.949 m 1336.777 158.176 l 1338.922 157.152 l 1325.289 128.992
 l h
1323.113 129.949 m f
1 g
1352.906 143.488 m 1352.906 145.684 1352.66 147.582 1352.168 149.184 c 
1351.699 150.805 1350.973 152.266 1349.992 153.566 c 1349.031 154.867 1347.73
 156.246 1346.09 157.695 c 1347.465 159.168 l 1349.344 157.652 1350.867 
156.16 1352.039 154.688 c 1353.234 153.215 1354.141 151.574 1354.762 149.758
 c 1355.402 147.945 1355.719 145.855 1355.719 143.488 c 1355.719 141.117
 1355.402 139.027 1354.762 137.215 c 1354.141 135.402 1353.234 133.758 1352.039
 132.285 c 1350.867 130.816 1349.344 129.32 1347.465 127.809 c 1346.09 129.277
 l 1347.711 130.73 1349 132.105 1349.961 133.406 c 1350.941 134.73 1351.68
 136.191 1352.168 137.793 c 1352.66 139.414 1352.906 141.313 1352.906 143.488
 c h
1352.906 143.488 m f
1 0.47451 0.776471 rg
1394.902 155.934 m 1394.902 132.285 l 1392.531 132.285 l 1392.277 134.496
 l 1391.656 133.641 1390.941 133 1390.133 132.574 c 1389.32 132.148 1388.449
 131.934 1387.508 131.934 c 1385.375 131.934 1383.766 132.715 1382.676 134.27
 c 1381.609 135.828 1381.078 137.973 1381.078 140.703 c 1381.078 142.387
 1381.344 143.891 1381.875 145.215 c 1382.41 146.559 1383.168 147.605 1384.148
 148.352 c 1385.152 149.117 1386.324 149.504 1387.668 149.504 c 1389.523
 149.504 1391.039 148.832 1392.211 147.488 c 1392.211 156.254 l h
1388.371 147.328 m 1386.965 147.328 1385.875 146.773 1385.109 145.664 c
 1384.363 144.555 1383.988 142.902 1383.988 140.703 c 1383.988 138.527 1384.328
 136.875 1385.012 135.742 c 1385.715 134.633 1386.73 134.078 1388.051 134.078
 c 1389.652 134.078 1391.039 134.977 1392.211 136.766 c 1392.211 145.152
 l 1391.742 145.855 1391.18 146.387 1390.516 146.75 c 1389.855 147.137 1389.141
 147.328 1388.371 147.328 c h
1388.371 147.328 m f
1407.734 149.504 m 1410.059 149.504 1411.84 148.715 1413.078 147.137 c 
1414.336 145.578 1414.965 143.445 1414.965 140.734 c 1414.965 138.09 1414.324
 135.957 1413.043 134.336 c 1411.785 132.734 1410.004 131.934 1407.699 131.934
 c 1405.375 131.934 1403.582 132.715 1402.324 134.27 c 1401.066 135.852 
1400.438 137.992 1400.438 140.703 c 1400.438 143.371 1401.066 145.504 1402.324
 147.102 c 1403.605 148.703 1405.406 149.504 1407.734 149.504 c h
1407.734 147.297 m 1406.262 147.297 1405.16 146.75 1404.438 145.664 c 1403.711
 144.574 1403.348 142.922 1403.348 140.703 c 1403.348 138.484 1403.699 136.832
 1404.406 135.742 c 1405.129 134.676 1406.23 134.145 1407.699 134.145 c 
1409.172 134.145 1410.262 134.676 1410.965 135.742 c 1411.691 136.832 1412.051
 138.496 1412.051 140.734 c 1412.051 142.953 1411.691 144.598 1410.965 145.664
 c 1410.262 146.75 1409.184 147.297 1407.734 147.297 c h
1407.734 147.297 m f
0.384314 0.447059 0.643137 rg
87.902 99.777 m 90.492 99.777 l 90.492 97.727 l 87.582 97.727 l 86.91 92.289
 l 84.637 92.289 l 85.34 97.727 l 80.699 97.727 l 79.965 92.289 l 77.691
 92.289 l 78.395 97.727 l 75.867 97.727 l 75.867 99.777 l 78.652 99.777 
l 79.645 106.879 l 77.051 106.879 l 77.051 108.992 l 79.902 108.992 l 80.637
 114.336 l 82.91 114.336 l 82.172 108.992 l 86.844 108.992 l 87.582 114.336
 l 89.852 114.336 l 89.117 108.992 l 91.676 108.992 l 91.676 106.879 l 88.828
 106.879 l h
85.598 99.777 m 86.59 106.879 l 81.883 106.879 l 80.957 99.777 l h
85.598 99.777 m f
116.926 114.336 m 119.676 114.336 l 119.676 94.75 l 129.758 94.75 l 129.406
 92.289 l 116.926 92.289 l h
116.926 114.336 m f
137.117 99.777 m 137.18 97.918 137.66 96.523 138.555 95.582 c 139.473 94.645
 140.625 94.176 142.012 94.176 c 142.844 94.176 143.602 94.293 144.285 94.527
 c 144.988 94.785 145.734 95.168 146.523 95.68 c 147.773 93.887 l 146.984
 93.27 146.078 92.789 145.051 92.449 c 144.051 92.105 143.035 91.934 142.012
 91.934 c 139.582 91.934 137.684 92.727 136.316 94.305 c 134.973 95.902 
134.301 98.035 134.301 100.703 c 134.301 102.391 134.598 103.895 135.195
 105.215 c 135.793 106.559 136.648 107.605 137.758 108.352 c 138.867 109.121
 140.156 109.504 141.629 109.504 c 143.762 109.504 145.438 108.758 146.652
 107.262 c 147.891 105.793 148.508 103.777 148.508 101.215 c 148.508 100.727
 148.488 100.246 148.445 99.777 c h
141.66 107.297 m 140.359 107.297 139.305 106.828 138.492 105.887 c 137.684
 104.969 137.223 103.617 137.117 101.824 c 145.883 101.824 l 145.863 103.594
 145.48 104.949 144.734 105.887 c 143.984 106.828 142.961 107.297 141.66
 107.297 c h
141.66 107.297 m f
156.316 99.777 m 156.379 97.918 156.859 96.523 157.758 95.582 c 158.672
 94.645 159.824 94.176 161.211 94.176 c 162.043 94.176 162.801 94.293 163.484
 94.527 c 164.188 94.785 164.934 95.168 165.723 95.68 c 166.973 93.887 l
 166.184 93.27 165.277 92.789 164.254 92.449 c 163.25 92.105 162.238 91.934
 161.211 91.934 c 158.781 91.934 156.883 92.727 155.516 94.305 c 154.172
 95.902 153.5 98.035 153.5 100.703 c 153.5 102.391 153.801 103.895 154.395
 105.215 c 154.992 106.559 155.848 107.605 156.957 108.352 c 158.066 109.121
 159.355 109.504 160.828 109.504 c 162.961 109.504 164.637 108.758 165.852
 107.262 c 167.09 105.793 167.707 103.777 167.707 101.215 c 167.707 100.727
 167.688 100.246 167.645 99.777 c h
160.859 107.297 m 159.559 107.297 158.504 106.828 157.691 105.887 c 156.883
 104.969 156.422 103.617 156.316 101.824 c 165.086 101.824 l 165.063 103.594
 164.68 104.949 163.934 105.887 c 163.188 106.828 162.16 107.297 160.859
 107.297 c h
160.859 107.297 m f
184.766 109.504 m 185.445 109.504 186.238 109.387 187.133 109.152 c 186.75
 103.422 l 184.574 103.422 l 184.574 107.039 l 184.414 107.039 l 181.809
 107.039 179.965 105.184 178.875 101.473 c 178.875 94.367 l 182.301 94.367
 l 182.301 92.289 l 173.531 92.289 l 173.531 94.367 l 176.188 94.367 l 176.188
 107.07 l 173.531 107.07 l 173.531 109.152 l 178.203 109.152 l 178.715 105.152
 l 179.398 106.602 180.211 107.691 181.148 108.414 c 182.109 109.141 183.313
 109.504 184.766 109.504 c h
184.766 109.504 m f
213.723 115.938 m 217.086 115.938 l 216.574 107.617 l 214.203 107.617 l
 h
219.07 115.938 m 222.43 115.938 l 221.949 107.617 l 219.582 107.617 l h
219.07 115.938 m f
240.828 116.254 m 242.43 116.254 243.953 115.957 245.406 115.359 c 244.539
 113.344 l 243.473 113.813 242.27 114.047 240.926 114.047 c 238.578 114.047
 237.406 113.121 237.406 111.262 c 237.406 107.84 l 243.102 107.84 l 242.813
 105.695 l 237.406 105.695 l 237.406 92.289 l 234.684 92.289 l 234.684 105.695
 l 230.684 105.695 l 230.684 107.84 l 234.684 107.84 l 234.684 111.199 l
 234.684 112.715 235.262 113.93 236.414 114.848 c 237.586 115.785 239.059
 116.254 240.828 116.254 c h
240.828 116.254 m f
256.477 117.023 m 257.074 117.023 257.555 116.844 257.918 116.48 c 258.277
 116.137 258.461 115.691 258.461 115.137 c 258.461 114.582 258.277 114.121
 257.918 113.758 c 257.555 113.418 257.074 113.246 256.477 113.246 c 255.902
 113.246 255.43 113.418 255.07 113.758 c 254.727 114.121 254.555 114.582
 254.555 115.137 c 254.555 115.691 254.727 116.137 255.07 116.48 c 255.43
 116.844 255.902 117.023 256.477 117.023 c h
258.621 94.43 m 263.355 94.43 l 263.355 92.289 l 250.75 92.289 l 250.75
 94.43 l 255.934 94.43 l 255.934 107.008 l 250.91 107.008 l 250.91 109.152
 l 258.621 109.152 l h
258.621 94.43 m f
275.867 96.449 m 275.867 94.934 276.797 94.176 278.652 94.176 c 279.527
 94.176 280.465 94.367 281.469 94.75 c 282.172 92.801 l 281.105 92.223 279.773
 91.934 278.172 91.934 c 276.656 91.934 275.441 92.352 274.523 93.184 c 
273.629 94.016 273.18 95.145 273.18 96.574 c 273.18 113.793 l 267.996 113.793
 l 267.996 115.938 l 275.867 115.938 l h
275.867 96.449 m f
290.621 99.777 m 290.684 97.918 291.164 96.523 292.063 95.582 c 292.977
 94.645 294.129 94.176 295.516 94.176 c 296.348 94.176 297.105 94.293 297.789
 94.527 c 298.492 94.785 299.238 95.168 300.027 95.68 c 301.277 93.887 l
 300.488 93.27 299.582 92.789 298.555 92.449 c 297.555 92.105 296.539 91.934
 295.516 91.934 c 293.086 91.934 291.188 92.727 289.82 94.305 c 288.477 
95.902 287.805 98.035 287.805 100.703 c 287.805 102.391 288.102 103.895 
288.699 105.215 c 289.297 106.559 290.152 107.605 291.262 108.352 c 292.371
 109.121 293.66 109.504 295.133 109.504 c 297.266 109.504 298.941 108.758
 300.156 107.262 c 301.395 105.793 302.012 103.777 302.012 101.215 c 302.012
 100.727 301.992 100.246 301.949 99.777 c h
295.164 107.297 m 293.863 107.297 292.809 106.828 291.996 105.887 c 291.188
 104.969 290.727 103.617 290.621 101.824 c 299.387 101.824 l 299.367 103.594
 298.984 104.949 298.238 105.887 c 297.488 106.828 296.465 107.297 295.164
 107.297 c h
295.164 107.297 m f
307.676 109.152 m 309.98 109.152 l 310.203 106.785 l 310.867 107.637 311.699
 108.297 312.699 108.766 c 313.723 109.258 314.75 109.504 315.773 109.504
 c 318.93 109.504 320.508 107.84 320.508 104.512 c 320.508 92.289 l 317.82
 92.289 l 317.82 102.527 l 317.82 103.785 317.746 104.746 317.598 105.406
 c 317.469 106.07 317.203 106.559 316.797 106.879 c 316.391 107.199 315.773
 107.359 314.941 107.359 c 314.023 107.359 313.16 107.082 312.348 106.527
 c 311.539 105.973 310.875 105.313 310.363 104.543 c 310.363 92.289 l 307.676
 92.289 l h
307.676 109.152 m f
338.973 95.969 m 338.973 95.305 339.078 94.816 339.293 94.496 c 339.508
 94.195 339.859 93.973 340.348 93.824 c 339.676 91.902 l 338.035 92.117 
337.012 92.918 336.605 94.305 c 336.008 93.535 335.25 92.949 334.332 92.543
 c 333.438 92.137 332.434 91.934 331.324 91.934 c 329.641 91.934 328.305
 92.406 327.324 93.344 c 326.363 94.281 325.883 95.539 325.883 97.121 c 
325.883 98.848 326.555 100.18 327.902 101.121 c 329.266 102.059 331.219 
102.527 333.758 102.527 c 336.254 102.527 l 336.254 103.902 l 336.254 105.098
 335.91 105.953 335.23 106.465 c 334.547 106.996 333.555 107.262 332.254
 107.262 c 330.973 107.262 329.512 106.977 327.867 106.398 c 327.133 108.449
 l 329.117 109.152 330.961 109.504 332.668 109.504 c 334.715 109.504 336.273
 109.023 337.34 108.063 c 338.43 107.105 338.973 105.77 338.973 104.063 
c h
331.996 93.953 m 332.828 93.953 333.617 94.164 334.363 94.59 c 335.133 
95.02 335.762 95.605 336.254 96.352 c 336.254 100.672 l 333.82 100.672 l
 332.027 100.672 330.738 100.371 329.949 99.777 c 329.16 99.18 328.766 98.305
 328.766 97.152 c 328.766 95.02 329.844 93.953 331.996 93.953 c h
331.996 93.953 m f
357.086 109.504 m 358.043 109.504 358.824 109.164 359.422 108.48 c 360.039
 107.816 360.348 106.602 360.348 104.832 c 360.348 92.289 l 357.883 92.289
 l 357.883 104.383 l 357.883 105.559 357.809 106.348 357.66 106.75 c 357.512
 107.18 357.148 107.391 356.574 107.391 c 355.484 107.391 354.504 106.719
 353.629 105.375 c 353.629 92.289 l 351.133 92.289 l 351.133 104.383 l 351.133
 105.559 351.059 106.348 350.91 106.75 c 350.758 107.18 350.398 107.391 
349.82 107.391 c 348.734 107.391 347.75 106.719 346.875 105.375 c 346.875
 92.289 l 344.414 92.289 l 344.414 109.152 l 346.492 109.152 l 346.684 107.168
 l 347.195 107.914 347.73 108.488 348.285 108.895 c 348.859 109.301 349.543
 109.504 350.332 109.504 c 351.91 109.504 352.926 108.758 353.371 107.262
 c 353.883 107.988 354.43 108.543 355.004 108.926 c 355.582 109.313 356.273
 109.504 357.086 109.504 c h
357.086 109.504 m f
367.324 99.777 m 367.391 97.918 367.867 96.523 368.766 95.582 c 369.684
 94.645 370.836 94.176 372.219 94.176 c 373.051 94.176 373.809 94.293 374.492
 94.527 c 375.195 94.785 375.941 95.168 376.734 95.68 c 377.98 93.887 l 
377.191 93.27 376.285 92.789 375.262 92.449 c 374.258 92.105 373.246 91.934
 372.219 91.934 c 369.789 91.934 367.891 92.727 366.523 94.305 c 365.18 
95.902 364.508 98.035 364.508 100.703 c 364.508 102.391 364.809 103.895 
365.406 105.215 c 366.004 106.559 366.855 107.605 367.965 108.352 c 369.074
 109.121 370.363 109.504 371.836 109.504 c 373.969 109.504 375.645 108.758
 376.859 107.262 c 378.098 105.793 378.715 103.777 378.715 101.215 c 378.715
 100.727 378.695 100.246 378.652 99.777 c h
371.867 107.297 m 370.566 107.297 369.512 106.828 368.699 105.887 c 367.891
 104.969 367.43 103.617 367.324 101.824 c 376.094 101.824 l 376.07 103.594
 375.688 104.949 374.941 105.887 c 374.195 106.828 373.172 107.297 371.867
 107.297 c h
371.867 107.297 m f
386.43 115.938 m 389.789 115.938 l 389.277 107.617 l 386.91 107.617 l h
391.773 115.938 m 395.133 115.938 l 394.652 107.617 l 392.285 107.617 l
 h
391.773 115.938 m f
409.98 97.566 m 410.707 97.566 411.313 97.313 411.805 96.801 c 412.316 
96.309 412.574 95.711 412.574 95.008 c 412.574 94.219 412.371 93.375 411.965
 92.48 c 409.371 86.559 l 406.941 86.559 l 408.445 92.863 l 408.145 93.098
 407.902 93.406 407.707 93.793 c 407.516 94.176 407.422 94.57 407.422 94.977
 c 407.422 95.699 407.664 96.309 408.156 96.801 c 408.648 97.313 409.254
 97.566 409.98 97.566 c h
409.98 97.566 m f
449.629 94.238 m 451.102 94.238 452.563 94.73 454.012 95.711 c 455.293 
93.953 l 454.59 93.332 453.715 92.844 452.668 92.48 c 451.625 92.117 450.609
 91.934 449.629 91.934 c 447.133 91.934 445.18 92.715 443.773 94.273 c 442.387
 95.852 441.691 97.973 441.691 100.641 c 441.691 102.324 442.004 103.84 
442.621 105.184 c 443.262 106.527 444.18 107.582 445.371 108.352 c 446.566
 109.121 447.984 109.504 449.629 109.504 c 451.805 109.504 453.684 108.844
 455.262 107.52 c 453.949 105.758 l 452.477 106.742 451.027 107.23 449.598
 107.23 c 448.082 107.23 446.867 106.668 445.949 105.535 c 445.051 104.426
 444.605 102.793 444.605 100.641 c 444.605 98.484 445.051 96.875 445.949
 95.809 c 446.867 94.762 448.094 94.238 449.629 94.238 c h
449.629 94.238 m f
467.613 109.504 m 469.938 109.504 471.719 108.715 472.957 107.137 c 474.215
 105.578 474.844 103.445 474.844 100.734 c 474.844 98.09 474.203 95.957 
472.926 94.336 c 471.668 92.734 469.883 91.934 467.582 91.934 c 465.254 
91.934 463.465 92.715 462.203 94.273 c 460.945 95.852 460.316 97.996 460.316
 100.703 c 460.316 103.371 460.945 105.504 462.203 107.105 c 463.484 108.703
 465.289 109.504 467.613 109.504 c h
467.613 107.297 m 466.141 107.297 465.043 106.75 464.316 105.664 c 463.59
 104.574 463.23 102.922 463.23 100.703 c 463.23 98.484 463.582 96.832 464.285
 95.742 c 465.012 94.676 466.109 94.145 467.582 94.145 c 469.051 94.145 
470.141 94.676 470.844 95.742 c 471.57 96.832 471.934 98.496 471.934 100.734
 c 471.934 102.953 471.57 104.598 470.844 105.664 c 470.141 106.75 469.063
 107.297 467.613 107.297 c h
467.613 107.297 m f
491.484 109.504 m 492.445 109.504 493.223 109.164 493.82 108.48 c 494.438
 107.816 494.75 106.602 494.75 104.832 c 494.75 92.289 l 492.285 92.289 
l 492.285 104.383 l 492.285 105.559 492.211 106.348 492.063 106.75 c 491.91
 107.18 491.547 107.391 490.973 107.391 c 489.883 107.391 488.902 106.719
 488.027 105.375 c 488.027 92.289 l 485.531 92.289 l 485.531 104.383 l 485.531
 105.559 485.457 106.348 485.309 106.75 c 485.16 107.18 484.797 107.391 
484.223 107.391 c 483.133 107.391 482.152 106.719 481.277 105.375 c 481.277
 92.289 l 478.813 92.289 l 478.813 109.152 l 480.895 109.152 l 481.086 107.168
 l 481.598 107.914 482.129 108.488 482.684 108.895 c 483.262 109.301 483.945
 109.504 484.734 109.504 c 486.313 109.504 487.324 108.758 487.773 107.262
 c 488.285 107.988 488.828 108.543 489.406 108.926 c 489.98 109.313 490.676
 109.504 491.484 109.504 c h
491.484 109.504 m f
507.133 109.504 m 511.207 109.504 513.246 106.582 513.246 100.734 c 513.246
 98.07 512.691 95.934 511.582 94.336 c 510.473 92.734 508.859 91.934 506.75
 91.934 c 504.914 91.934 503.422 92.574 502.27 93.855 c 502.27 85.824 l 
499.582 85.504 l 499.582 109.152 l 501.883 109.152 l 502.109 106.785 l 502.727
 107.66 503.465 108.332 504.316 108.801 c 505.191 109.27 506.129 109.504
 507.133 109.504 c h
506.492 107.328 m 505.641 107.328 504.852 107.07 504.125 106.559 c 503.422
 106.047 502.801 105.406 502.27 104.641 c 502.27 96.289 l 502.715 95.625
 503.27 95.105 503.934 94.719 c 504.617 94.355 505.352 94.176 506.141 94.176
 c 507.547 94.176 508.594 94.707 509.277 95.777 c 509.98 96.863 510.332 
98.516 510.332 100.734 c 510.332 102.953 510.023 104.609 509.406 105.695
 c 508.785 106.785 507.816 107.328 506.492 107.328 c h
506.492 107.328 m f
530.781 95.969 m 530.781 95.305 530.887 94.816 531.102 94.496 c 531.313
 94.195 531.664 93.973 532.156 93.824 c 531.484 91.902 l 529.844 92.117 
528.816 92.918 528.414 94.305 c 527.816 93.535 527.059 92.949 526.141 92.543
 c 525.246 92.137 524.242 91.934 523.133 91.934 c 521.449 91.934 520.113
 92.406 519.133 93.344 c 518.172 94.281 517.691 95.539 517.691 97.121 c 
517.691 98.848 518.363 100.18 519.707 101.121 c 521.074 102.059 523.027 
102.527 525.566 102.527 c 528.063 102.527 l 528.063 103.902 l 528.063 105.098
 527.719 105.953 527.035 106.465 c 526.355 106.996 525.363 107.262 524.063
 107.262 c 522.781 107.262 521.32 106.977 519.676 106.398 c 518.941 108.449
 l 520.926 109.152 522.77 109.504 524.477 109.504 c 526.523 109.504 528.082
 109.023 529.148 108.063 c 530.238 107.105 530.781 105.77 530.781 104.063
 c h
523.805 93.953 m 524.637 93.953 525.426 94.164 526.172 94.59 c 526.941 
95.02 527.57 95.605 528.063 96.352 c 528.063 100.672 l 525.629 100.672 l
 523.836 100.672 522.547 100.371 521.758 99.777 c 520.969 99.18 520.574 
98.305 520.574 97.152 c 520.574 95.02 521.648 93.953 523.805 93.953 c h
523.805 93.953 m f
549.277 109.504 m 549.961 109.504 550.75 109.387 551.645 109.152 c 551.262
 103.422 l 549.086 103.422 l 549.086 107.039 l 548.926 107.039 l 546.32 
107.039 544.477 105.184 543.387 101.473 c 543.387 94.367 l 546.813 94.367
 l 546.813 92.289 l 538.043 92.289 l 538.043 94.367 l 540.699 94.367 l 540.699
 107.07 l 538.043 107.07 l 538.043 109.152 l 542.715 109.152 l 543.23 105.152
 l 543.91 106.602 544.723 107.691 545.66 108.414 c 546.621 109.141 547.824
 109.504 549.277 109.504 c h
549.277 109.504 m f
569.18 95.969 m 569.18 95.305 569.289 94.816 569.5 94.496 c 569.715 94.195
 570.066 93.973 570.559 93.824 c 569.883 91.902 l 568.242 92.117 567.219
 92.918 566.813 94.305 c 566.215 93.535 565.457 92.949 564.539 92.543 c 
563.645 92.137 562.641 91.934 561.531 91.934 c 559.848 91.934 558.516 92.406
 557.531 93.344 c 556.574 94.281 556.094 95.539 556.094 97.121 c 556.094
 98.848 556.766 100.18 558.109 101.121 c 559.473 102.059 561.426 102.527
 563.965 102.527 c 566.461 102.527 l 566.461 103.902 l 566.461 105.098 566.121
 105.953 565.438 106.465 c 564.754 106.996 563.762 107.262 562.461 107.262
 c 561.18 107.262 559.719 106.977 558.078 106.398 c 557.34 108.449 l 559.324
 109.152 561.172 109.504 562.875 109.504 c 564.926 109.504 566.48 109.023
 567.547 108.063 c 568.637 107.105 569.18 105.77 569.18 104.063 c h
562.203 93.953 m 563.035 93.953 563.824 94.164 564.574 94.59 c 565.34 95.02
 565.969 95.605 566.461 96.352 c 566.461 100.672 l 564.027 100.672 l 562.238
 100.672 560.945 100.371 560.156 99.777 c 559.367 99.18 558.973 98.305 558.973
 97.152 c 558.973 95.02 560.051 93.953 562.203 93.953 c h
562.203 93.953 m f
587.676 109.504 m 588.359 109.504 589.148 109.387 590.043 109.152 c 589.66
 103.422 l 587.484 103.422 l 587.484 107.039 l 587.324 107.039 l 584.723
 107.039 582.875 105.184 581.789 101.473 c 581.789 94.367 l 585.211 94.367
 l 585.211 92.289 l 576.445 92.289 l 576.445 94.367 l 579.102 94.367 l 579.102
 107.07 l 576.445 107.07 l 576.445 109.152 l 581.117 109.152 l 581.629 105.152
 l 582.313 106.602 583.121 107.691 584.063 108.414 c 585.02 109.141 586.227
 109.504 587.676 109.504 c h
587.676 109.504 m f
620.254 109.504 m 622.215 109.504 623.785 108.766 624.957 107.297 c 625.18
 109.152 l 627.484 109.152 l 627.484 85.504 l 624.797 85.824 l 624.797 94.398
 l 623.602 92.758 622.012 91.934 620.027 91.934 c 615.891 91.934 613.82 
94.859 613.82 100.703 c 613.82 103.305 614.387 105.418 615.516 107.039 c
 616.648 108.684 618.227 109.504 620.254 109.504 c h
620.926 107.328 m 618.129 107.328 616.734 105.121 616.734 100.703 c 616.734
 98.508 617.051 96.863 617.691 95.777 c 618.332 94.707 619.305 94.176 620.605
 94.176 c 621.48 94.176 622.27 94.41 622.973 94.879 c 623.676 95.371 624.285
 96 624.797 96.766 c 624.797 105.152 l 624.348 105.836 623.785 106.367 623.102
 106.75 c 622.438 107.137 621.715 107.328 620.926 107.328 c h
620.926 107.328 m f
636.574 97.184 m 636.574 96.094 636.797 95.297 637.246 94.785 c 637.715
 94.293 638.438 94.047 639.422 94.047 c 640.316 94.047 641.18 94.305 642.012
 94.816 c 642.844 95.328 643.508 95.969 643.996 96.734 c 643.996 109.152
 l 646.684 109.152 l 646.684 92.289 l 644.379 92.289 l 644.156 94.559 l 
643.496 93.727 642.676 93.078 641.691 92.609 c 640.734 92.16 639.75 91.934
 638.75 91.934 c 637.148 91.934 635.934 92.363 635.102 93.215 c 634.289 
94.07 633.883 95.297 633.883 96.895 c 633.883 109.152 l 636.574 109.152 
l h
636.574 97.184 m f
655.23 99.777 m 655.293 97.918 655.773 96.523 656.668 95.582 c 657.586 
94.645 658.738 94.176 660.125 94.176 c 660.957 94.176 661.715 94.293 662.398
 94.527 c 663.102 94.785 663.848 95.168 664.637 95.68 c 665.883 93.887 l
 665.094 93.27 664.188 92.789 663.164 92.449 c 662.16 92.105 661.148 91.934
 660.125 91.934 c 657.691 91.934 655.793 92.727 654.43 94.305 c 653.086 
95.902 652.414 98.035 652.414 100.703 c 652.414 102.391 652.711 103.895 
653.309 105.215 c 653.906 106.559 654.758 107.605 655.867 108.352 c 656.977
 109.121 658.27 109.504 659.742 109.504 c 661.875 109.504 663.547 108.758
 664.766 107.262 c 666.004 105.793 666.621 103.777 666.621 101.215 c 666.621
 100.727 666.598 100.246 666.559 99.777 c h
659.773 107.297 m 658.473 107.297 657.414 106.828 656.605 105.887 c 655.793
 104.969 655.336 103.617 655.23 101.824 c 663.996 101.824 l 663.977 103.594
 663.59 104.949 662.844 105.887 c 662.098 106.828 661.074 107.297 659.773
 107.297 c h
659.773 107.297 m f
693.531 99.777 m 693.598 97.918 694.078 96.523 694.973 95.582 c 695.891
 94.645 697.043 94.176 698.43 94.176 c 699.262 94.176 700.02 94.293 700.699
 94.527 c 701.406 94.785 702.152 95.168 702.941 95.68 c 704.188 93.887 l
 703.398 93.27 702.492 92.789 701.469 92.449 c 700.465 92.105 699.453 91.934
 698.43 91.934 c 695.996 91.934 694.098 92.727 692.734 94.305 c 691.391 
95.902 690.715 98.035 690.715 100.703 c 690.715 102.391 691.016 103.895 
691.613 105.215 c 692.211 106.559 693.063 107.605 694.172 108.352 c 695.281
 109.121 696.574 109.504 698.043 109.504 c 700.18 109.504 701.852 108.758
 703.07 107.262 c 704.305 105.793 704.926 103.777 704.926 101.215 c 704.926
 100.727 704.902 100.246 704.859 99.777 c h
698.078 107.297 m 696.777 107.297 695.719 106.828 694.91 105.887 c 694.098
 104.969 693.641 103.617 693.531 101.824 c 702.301 101.824 l 702.281 103.594
 701.895 104.949 701.148 105.887 c 700.402 106.828 699.379 107.297 698.078
 107.297 c h
698.078 107.297 m f
717.18 96.449 m 717.18 94.934 718.109 94.176 719.965 94.176 c 720.84 94.176
 721.777 94.367 722.781 94.75 c 723.484 92.801 l 722.418 92.223 721.086 
91.934 719.484 91.934 c 717.969 91.934 716.754 92.352 715.836 93.184 c 714.941
 94.016 714.492 95.145 714.492 96.574 c 714.492 113.793 l 709.309 113.793
 l 709.309 115.938 l 717.18 115.938 l h
717.18 96.449 m f
756.637 94.238 m 758.109 94.238 759.57 94.73 761.02 95.711 c 762.301 93.953
 l 761.598 93.332 760.723 92.844 759.676 92.48 c 758.633 92.117 757.617 
91.934 756.637 91.934 c 754.141 91.934 752.188 92.715 750.781 94.273 c 749.395
 95.852 748.699 97.973 748.699 100.641 c 748.699 102.324 749.012 103.84 
749.629 105.184 c 750.27 106.527 751.188 107.582 752.379 108.352 c 753.574
 109.121 754.992 109.504 756.637 109.504 c 758.813 109.504 760.691 108.844
 762.27 107.52 c 760.957 105.758 l 759.484 106.742 758.035 107.23 756.605
 107.23 c 755.09 107.23 753.875 106.668 752.957 105.535 c 752.063 104.426
 751.613 102.793 751.613 100.641 c 751.613 98.484 752.063 96.875 752.957
 95.809 c 753.875 94.762 755.102 94.238 756.637 94.238 c h
756.637 94.238 m f
774.621 109.504 m 776.945 109.504 778.727 108.715 779.965 107.137 c 781.223
 105.578 781.852 103.445 781.852 100.734 c 781.852 98.09 781.211 95.957 
779.934 94.336 c 778.676 92.734 776.895 91.934 774.59 91.934 c 772.262 91.934
 770.473 92.715 769.211 94.273 c 767.953 95.852 767.324 97.996 767.324 100.703
 c 767.324 103.371 767.953 105.504 769.211 107.105 c 770.492 108.703 772.297
 109.504 774.621 109.504 c h
774.621 107.297 m 773.148 107.297 772.051 106.75 771.324 105.664 c 770.598
 104.574 770.238 102.922 770.238 100.703 c 770.238 98.484 770.59 96.832 
771.293 95.742 c 772.02 94.676 773.117 94.145 774.59 94.145 c 776.063 94.145
 777.148 94.676 777.852 95.742 c 778.578 96.832 778.941 98.496 778.941 100.734
 c 778.941 102.953 778.578 104.598 777.852 105.664 c 777.148 106.75 776.07
 107.297 774.621 107.297 c h
774.621 107.297 m f
787.391 109.152 m 789.691 109.152 l 789.918 106.785 l 790.578 107.637 791.41
 108.297 792.414 108.766 c 793.438 109.258 794.461 109.504 795.484 109.504
 c 798.641 109.504 800.223 107.84 800.223 104.512 c 800.223 92.289 l 797.531
 92.289 l 797.531 102.527 l 797.531 103.785 797.457 104.746 797.309 105.406
 c 797.18 106.07 796.914 106.559 796.508 106.879 c 796.102 107.199 795.484
 107.359 794.652 107.359 c 793.734 107.359 792.871 107.082 792.063 106.527
 c 791.25 105.973 790.59 105.313 790.078 104.543 c 790.078 92.289 l 787.391
 92.289 l h
787.391 109.152 m f
819.996 93.152 m 819.422 92.766 818.719 92.469 817.887 92.254 c 817.074
 92.043 816.262 91.934 815.453 91.934 c 813.684 91.934 812.297 92.395 811.293
 93.313 c 810.289 94.25 809.789 95.477 809.789 96.992 c 809.789 107.039 
l 805.918 107.039 l 805.918 109.152 l 809.789 109.152 l 809.789 112.961 
l 812.477 113.281 l 812.477 109.152 l 818.332 109.152 l 817.98 107.039 l
 812.477 107.039 l 812.477 97.023 l 812.477 96.063 812.734 95.348 813.246
 94.879 c 813.758 94.41 814.578 94.176 815.707 94.176 c 816.859 94.176 817.938
 94.441 818.941 94.977 c h
819.996 93.152 m f
827.934 99.777 m 827.996 97.918 828.477 96.523 829.371 95.582 c 830.289
 94.645 831.441 94.176 832.828 94.176 c 833.66 94.176 834.418 94.293 835.102
 94.527 c 835.805 94.785 836.551 95.168 837.34 95.68 c 838.59 93.887 l 837.801
 93.27 836.895 92.789 835.867 92.449 c 834.867 92.105 833.852 91.934 832.828
 91.934 c 830.398 91.934 828.5 92.727 827.133 94.305 c 825.789 95.902 825.117
 98.035 825.117 100.703 c 825.117 102.391 825.414 103.895 826.012 105.215
 c 826.609 106.559 827.465 107.605 828.574 108.352 c 829.684 109.121 830.973
 109.504 832.445 109.504 c 834.578 109.504 836.254 108.758 837.469 107.262
 c 838.707 105.793 839.324 103.777 839.324 101.215 c 839.324 100.727 839.305
 100.246 839.262 99.777 c h
832.477 107.297 m 831.176 107.297 830.121 106.828 829.309 105.887 c 828.5
 104.969 828.039 103.617 827.934 101.824 c 836.699 101.824 l 836.68 103.594
 836.297 104.949 835.547 105.887 c 834.801 106.828 833.777 107.297 832.477
 107.297 c h
832.477 107.297 m f
844.895 109.152 m 847.195 109.152 l 847.422 106.785 l 848.082 107.637 848.914
 108.297 849.918 108.766 c 850.941 109.258 851.965 109.504 852.988 109.504
 c 856.145 109.504 857.727 107.84 857.727 104.512 c 857.727 92.289 l 855.035
 92.289 l 855.035 102.527 l 855.035 103.785 854.961 104.746 854.813 105.406
 c 854.684 106.07 854.418 106.559 854.012 106.879 c 853.605 107.199 852.988
 107.359 852.156 107.359 c 851.238 107.359 850.375 107.082 849.566 106.527
 c 848.754 105.973 848.094 105.313 847.582 104.543 c 847.582 92.289 l 844.895
 92.289 l h
844.895 109.152 m f
870.492 117.023 m 871.09 117.023 871.57 116.844 871.934 116.48 c 872.297
 116.137 872.477 115.691 872.477 115.137 c 872.477 114.582 872.297 114.121
 871.934 113.758 c 871.57 113.418 871.09 113.246 870.492 113.246 c 869.918
 113.246 869.449 113.418 869.086 113.758 c 868.742 114.121 868.574 114.582
 868.574 115.137 c 868.574 115.691 868.742 116.137 869.086 116.48 c 869.449
 116.844 869.918 117.023 870.492 117.023 c h
872.637 94.43 m 877.371 94.43 l 877.371 92.289 l 864.766 92.289 l 864.766
 94.43 l 869.949 94.43 l 869.949 107.008 l 864.926 107.008 l 864.926 109.152
 l 872.637 109.152 l h
872.637 94.43 m f
896.094 115.938 m 896.094 92.289 l 893.727 92.289 l 893.469 94.496 l 892.852
 93.641 892.137 93.004 891.324 92.574 c 890.516 92.148 889.641 91.934 888.699
 91.934 c 886.566 91.934 884.957 92.715 883.867 94.273 c 882.801 95.828 
882.27 97.973 882.27 100.703 c 882.27 102.391 882.535 103.895 883.07 105.215
 c 883.602 106.559 884.359 107.605 885.34 108.352 c 886.344 109.121 887.516
 109.504 888.859 109.504 c 890.715 109.504 892.23 108.832 893.406 107.488
 c 893.406 116.254 l h
889.566 107.328 m 888.156 107.328 887.07 106.773 886.301 105.664 c 885.555
 104.555 885.18 102.902 885.18 100.703 c 885.18 98.527 885.523 96.875 886.203
 95.742 c 886.91 94.633 887.922 94.078 889.246 94.078 c 890.844 94.078 892.23
 94.977 893.406 96.766 c 893.406 105.152 l 892.934 105.855 892.371 106.391
 891.707 106.75 c 891.047 107.137 890.332 107.328 889.566 107.328 c h
889.566 107.328 m f
908.926 109.504 m 911.25 109.504 913.031 108.715 914.27 107.137 c 915.527
 105.578 916.156 103.445 916.156 100.734 c 916.156 98.09 915.516 95.957 
914.238 94.336 c 912.977 92.734 911.195 91.934 908.895 91.934 c 906.566 
91.934 904.777 92.715 903.516 94.273 c 902.258 95.852 901.629 97.996 901.629
 100.703 c 901.629 103.371 902.258 105.504 903.516 107.105 c 904.797 108.703
 906.598 109.504 908.926 109.504 c h
908.926 107.297 m 907.453 107.297 906.355 106.75 905.629 105.664 c 904.902
 104.574 904.539 102.922 904.539 100.703 c 904.539 98.484 904.895 96.832
 905.598 95.742 c 906.32 94.676 907.422 94.145 908.895 94.145 c 910.363 
94.145 911.453 94.676 912.156 95.742 c 912.883 96.832 913.246 98.496 913.246
 100.734 c 913.246 102.953 912.883 104.598 912.156 105.664 c 911.453 106.75
 910.375 107.297 908.926 107.297 c h
908.926 107.297 m f
953.691 115.938 m 953.691 92.289 l 951.324 92.289 l 951.07 94.496 l 950.449
 93.641 949.734 93.004 948.926 92.574 c 948.113 92.148 947.238 91.934 946.301
 91.934 c 944.168 91.934 942.559 92.715 941.469 94.273 c 940.402 95.828 
939.867 97.973 939.867 100.703 c 939.867 102.391 940.137 103.895 940.668
 105.215 c 941.203 106.559 941.961 107.605 942.941 108.352 c 943.945 109.121
 945.117 109.504 946.461 109.504 c 948.316 109.504 949.832 108.832 951.004
 107.488 c 951.004 116.254 l h
947.164 107.328 m 945.758 107.328 944.668 106.773 943.902 105.664 c 943.152
 104.555 942.781 102.902 942.781 100.703 c 942.781 98.527 943.121 96.875
 943.805 95.742 c 944.508 94.633 945.523 94.078 946.844 94.078 c 948.445
 94.078 949.832 94.977 951.004 96.766 c 951.004 105.152 l 950.535 105.855
 949.969 106.391 949.309 106.75 c 948.648 107.137 947.934 107.328 947.164
 107.328 c h
947.164 107.328 m f
962.238 99.777 m 962.301 97.918 962.781 96.523 963.676 95.582 c 964.594
 94.645 965.746 94.176 967.133 94.176 c 967.965 94.176 968.723 94.293 969.406
 94.527 c 970.109 94.785 970.855 95.168 971.645 95.68 c 972.895 93.887 l
 972.102 93.27 971.195 92.789 970.172 92.449 c 969.172 92.105 968.156 91.934
 967.133 91.934 c 964.699 91.934 962.801 92.727 961.438 94.305 c 960.094
 95.902 959.422 98.035 959.422 100.703 c 959.422 102.391 959.719 103.895
 960.316 105.215 c 960.914 106.559 961.766 107.605 962.875 108.352 c 963.984
 109.121 965.277 109.504 966.75 109.504 c 968.883 109.504 970.559 108.758
 971.773 107.262 c 973.012 105.793 973.629 103.777 973.629 101.215 c 973.629
 100.727 973.609 100.246 973.566 99.777 c h
966.781 107.297 m 965.48 107.297 964.422 106.828 963.613 105.887 c 962.801
 104.969 962.344 103.617 962.238 101.824 c 971.004 101.824 l 970.984 103.594
 970.598 104.949 969.852 105.887 c 969.105 106.828 968.082 107.297 966.781
 107.297 c h
966.781 107.297 m f
985.887 96.449 m 985.887 94.934 986.813 94.176 988.668 94.176 c 989.543
 94.176 990.48 94.367 991.484 94.75 c 992.188 92.801 l 991.121 92.223 989.789
 91.934 988.188 91.934 c 986.676 91.934 985.457 92.352 984.539 93.184 c 
983.645 94.016 983.195 95.145 983.195 96.574 c 983.195 113.793 l 978.012
 113.793 l 978.012 115.938 l 985.887 115.938 l h
985.887 96.449 m f
1027.547 116.254 m 1029.148 116.254 1030.676 115.957 1032.125 115.359 c
 1031.262 113.344 l 1030.195 113.813 1028.988 114.047 1027.645 114.047 c
 1025.297 114.047 1024.125 113.121 1024.125 111.262 c 1024.125 107.84 l 
1029.82 107.84 l 1029.531 105.695 l 1024.125 105.695 l 1024.125 92.289 l
 1021.406 92.289 l 1021.406 105.695 l 1017.406 105.695 l 1017.406 107.84
 l 1021.406 107.84 l 1021.406 111.199 l 1021.406 112.715 1021.98 113.93 
1023.133 114.848 c 1024.305 115.785 1025.777 116.254 1027.547 116.254 c 
h
1027.547 116.254 m f
1043.195 117.023 m 1043.793 117.023 1044.273 116.844 1044.637 116.48 c 
1045 116.137 1045.18 115.691 1045.18 115.137 c 1045.18 114.582 1045 114.121
 1044.637 113.758 c 1044.273 113.418 1043.793 113.246 1043.195 113.246 c
 1042.621 113.246 1042.152 113.418 1041.789 113.758 c 1041.449 114.121 1041.277
 114.582 1041.277 115.137 c 1041.277 115.691 1041.449 116.137 1041.789 116.48
 c 1042.152 116.844 1042.621 117.023 1043.195 117.023 c h
1045.34 94.43 m 1050.078 94.43 l 1050.078 92.289 l 1037.469 92.289 l 1037.469
 94.43 l 1042.652 94.43 l 1042.652 107.008 l 1037.629 107.008 l 1037.629
 109.152 l 1045.34 109.152 l h
1045.34 94.43 m f
1063.645 94.238 m 1065.117 94.238 1066.578 94.73 1068.027 95.711 c 1069.309
 93.953 l 1068.605 93.332 1067.73 92.844 1066.684 92.48 c 1065.641 92.117
 1064.625 91.934 1063.645 91.934 c 1061.148 91.934 1059.195 92.715 1057.789
 94.273 c 1056.402 95.852 1055.707 97.973 1055.707 100.641 c 1055.707 102.324
 1056.02 103.84 1056.637 105.184 c 1057.277 106.527 1058.195 107.582 1059.391
 108.352 c 1060.582 109.121 1062.004 109.504 1063.645 109.504 c 1065.82 
109.504 1067.699 108.844 1069.277 107.52 c 1067.965 105.758 l 1066.492 106.742
 1065.043 107.23 1063.613 107.23 c 1062.098 107.23 1060.883 106.668 1059.965
 105.535 c 1059.07 104.426 1058.621 102.793 1058.621 100.641 c 1058.621 
98.484 1059.07 96.875 1059.965 95.809 c 1060.883 94.762 1062.109 94.238 
1063.645 94.238 c h
1063.645 94.238 m f
1077.887 106.816 m 1078.547 107.668 1079.355 108.332 1080.316 108.801 c
 1081.277 109.27 1082.27 109.504 1083.293 109.504 c 1086.449 109.504 1088.027
 107.84 1088.027 104.512 c 1088.027 92.289 l 1085.34 92.289 l 1085.34 104.48
 l 1085.34 105.48 1085.105 106.207 1084.637 106.656 c 1084.168 107.125 1083.422
 107.359 1082.398 107.359 c 1081.523 107.359 1080.68 107.082 1079.867 106.527
 c 1079.059 105.973 1078.398 105.32 1077.887 104.574 c 1077.887 92.289 l
 1075.195 92.289 l 1075.195 115.902 l 1077.887 116.191 l h
1077.887 106.816 m f
1096.539 99.777 m 1096.605 97.918 1097.086 96.523 1097.98 95.582 c 1098.898
 94.645 1100.051 94.176 1101.438 94.176 c 1102.27 94.176 1103.027 94.293
 1103.707 94.527 c 1104.414 94.785 1105.16 95.168 1105.949 95.68 c 1107.195
 93.887 l 1106.406 93.27 1105.5 92.789 1104.477 92.449 c 1103.473 92.105
 1102.461 91.934 1101.438 91.934 c 1099.004 91.934 1097.105 92.727 1095.742
 94.305 c 1094.398 95.902 1093.727 98.035 1093.727 100.703 c 1093.727 102.391
 1094.023 103.895 1094.621 105.215 c 1095.219 106.559 1096.07 107.605 1097.18
 108.352 c 1098.289 109.121 1099.582 109.504 1101.055 109.504 c 1103.188
 109.504 1104.859 108.758 1106.078 107.262 c 1107.313 105.793 1107.934 103.777
 1107.934 101.215 c 1107.934 100.727 1107.91 100.246 1107.867 99.777 c h
1101.086 107.297 m 1099.785 107.297 1098.727 106.828 1097.918 105.887 c
 1097.105 104.969 1096.648 103.617 1096.539 101.824 c 1105.309 101.824 l
 1105.289 103.594 1104.902 104.949 1104.156 105.887 c 1103.41 106.828 1102.387
 107.297 1101.086 107.297 c h
1101.086 107.297 m f
1124.988 109.504 m 1125.672 109.504 1126.461 109.387 1127.355 109.152 c
 1126.973 103.422 l 1124.797 103.422 l 1124.797 107.039 l 1124.637 107.039
 l 1122.035 107.039 1120.188 105.184 1119.102 101.473 c 1119.102 94.367 
l 1122.523 94.367 l 1122.523 92.289 l 1113.758 92.289 l 1113.758 94.367 
l 1116.414 94.367 l 1116.414 107.07 l 1113.758 107.07 l 1113.758 109.152
 l 1118.43 109.152 l 1118.941 105.152 l 1119.625 106.602 1120.434 107.691
 1121.371 108.414 c 1122.332 109.141 1123.539 109.504 1124.988 109.504 c
 h
1124.988 109.504 m f
1139.23 109.504 m 1141.555 109.504 1143.336 108.715 1144.574 107.137 c 
1145.832 105.578 1146.461 103.445 1146.461 100.734 c 1146.461 98.09 1145.82
 95.957 1144.539 94.336 c 1143.281 92.734 1141.5 91.934 1139.195 91.934 
c 1136.871 91.934 1135.078 92.715 1133.82 94.273 c 1132.563 95.852 1131.934
 97.996 1131.934 100.703 c 1131.934 103.371 1132.563 105.504 1133.82 107.105
 c 1135.102 108.703 1136.902 109.504 1139.23 109.504 c h
1139.23 107.297 m 1137.758 107.297 1136.66 106.75 1135.934 105.664 c 1135.207
 104.574 1134.844 102.922 1134.844 100.703 c 1134.844 98.484 1135.195 96.832
 1135.902 95.742 c 1136.625 94.676 1137.727 94.145 1139.195 94.145 c 1140.668
 94.145 1141.758 94.676 1142.461 95.742 c 1143.188 96.832 1143.551 98.496
 1143.551 100.734 c 1143.551 102.953 1143.188 104.598 1142.461 105.664 c
 1141.758 106.75 1140.68 107.297 1139.23 107.297 c h
1139.23 107.297 m f
1173.246 99.777 m 1173.309 97.918 1173.789 96.523 1174.684 95.582 c 1175.602
 94.645 1176.754 94.176 1178.141 94.176 c 1178.973 94.176 1179.73 94.293
 1180.414 94.527 c 1181.117 94.785 1181.863 95.168 1182.652 95.68 c 1183.902
 93.887 l 1183.113 93.27 1182.203 92.789 1181.18 92.449 c 1180.18 92.105
 1179.164 91.934 1178.141 91.934 c 1175.707 91.934 1173.809 92.727 1172.445
 94.305 c 1171.102 95.902 1170.43 98.035 1170.43 100.703 c 1170.43 102.391
 1170.727 103.895 1171.324 105.215 c 1171.922 106.559 1172.777 107.605 1173.887
 108.352 c 1174.996 109.121 1176.285 109.504 1177.758 109.504 c 1179.891
 109.504 1181.566 108.758 1182.781 107.262 c 1184.02 105.793 1184.637 103.777
 1184.637 101.215 c 1184.637 100.727 1184.617 100.246 1184.574 99.777 c 
h
1177.789 107.297 m 1176.488 107.297 1175.43 106.828 1174.621 105.887 c 
1173.809 104.969 1173.352 103.617 1173.246 101.824 c 1182.012 101.824 l 
1181.992 103.594 1181.609 104.949 1180.859 105.887 c 1180.113 106.828 1179.09
 107.297 1177.789 107.297 c h
1177.789 107.297 m f
1196.063 94.145 m 1197.34 94.145 1198.355 94.391 1199.102 94.879 c 1199.848
 95.371 1200.223 96.02 1200.223 96.832 c 1200.223 97.387 1200.125 97.836
 1199.934 98.176 c 1199.742 98.539 1199.355 98.859 1198.781 99.137 c 1198.203
 99.434 1197.332 99.734 1196.156 100.031 c 1194.195 100.523 1192.742 101.109
 1191.805 101.793 c 1190.867 102.496 1190.398 103.531 1190.398 104.895 c
 1190.398 106.305 1190.984 107.422 1192.156 108.254 c 1193.332 109.086 1194.875
 109.504 1196.797 109.504 c 1199.145 109.504 1201.191 108.887 1202.941 107.648
 c 1201.727 105.793 l 1201.02 106.281 1200.285 106.656 1199.516 106.91 c
 1198.75 107.188 1197.863 107.328 1196.859 107.328 c 1194.43 107.328 1193.211
 106.59 1193.211 105.121 c 1193.211 104.609 1193.34 104.191 1193.598 103.871
 c 1193.875 103.551 1194.313 103.262 1194.91 103.008 c 1195.527 102.773 
1196.445 102.484 1197.66 102.145 c 1199.496 101.652 1200.859 101.023 1201.758
 100.254 c 1202.676 99.508 1203.133 98.41 1203.133 96.961 c 1203.133 95.273
 1202.449 94.016 1201.086 93.184 c 1199.719 92.352 1198.043 91.934 1196.063
 91.934 c 1193.414 91.934 1191.219 92.691 1189.469 94.207 c 1190.973 95.969
 l 1191.656 95.414 1192.434 94.965 1193.309 94.625 c 1194.184 94.305 1195.102
 94.145 1196.063 94.145 c h
1196.063 94.145 m f
1235.102 117.023 m 1235.699 117.023 1236.18 116.844 1236.539 116.48 c 1236.902
 116.137 1237.086 115.691 1237.086 115.137 c 1237.086 114.582 1236.902 114.121
 1236.539 113.758 c 1236.18 113.418 1235.699 113.246 1235.102 113.246 c 
1234.523 113.246 1234.055 113.418 1233.691 113.758 c 1233.352 114.121 1233.18
 114.582 1233.18 115.137 c 1233.18 115.691 1233.352 116.137 1233.691 116.48
 c 1234.055 116.844 1234.523 117.023 1235.102 117.023 c h
1237.246 94.43 m 1241.98 94.43 l 1241.98 92.289 l 1229.371 92.289 l 1229.371
 94.43 l 1234.559 94.43 l 1234.559 107.008 l 1229.531 107.008 l 1229.531
 109.152 l 1237.246 109.152 l h
1237.246 94.43 m f
1262.43 108.383 m 1261.789 108.172 1261.094 108.031 1260.348 107.969 c 
1259.602 107.926 1258.652 107.902 1257.5 107.902 c 1259.465 107.008 1260.445
 105.59 1260.445 103.648 c 1260.445 101.941 1259.879 100.555 1258.75 99.488
 c 1257.617 98.441 1256.07 97.918 1254.109 97.918 c 1253.105 97.918 1252.262
 98.035 1251.582 98.273 c 1251.324 98.078 1251.113 97.836 1250.941 97.535
 c 1250.793 97.238 1250.715 96.938 1250.715 96.641 c 1250.715 95.68 1251.465
 95.199 1252.957 95.199 c 1255.996 95.199 l 1257.105 95.199 1258.109 94.996
 1259.004 94.59 c 1259.922 94.207 1260.637 93.664 1261.148 92.961 c 1261.684
 92.254 1261.949 91.477 1261.949 90.625 c 1261.949 88.98 1261.246 87.723
 1259.836 86.848 c 1258.449 85.953 1256.477 85.504 1253.918 85.504 c 1251.313
 85.504 1249.48 85.91 1248.414 86.719 c 1247.348 87.531 1246.813 88.82 1246.813
 90.59 c 1249.246 90.59 l 1249.246 89.887 1249.371 89.332 1249.629 88.926
 c 1249.906 88.5 1250.375 88.191 1251.035 88 c 1251.719 87.785 1252.68 87.68
 1253.918 87.68 c 1255.73 87.68 1257.063 87.914 1257.918 88.383 c 1258.793
 88.852 1259.23 89.547 1259.23 90.465 c 1259.23 91.23 1258.875 91.828 1258.172
 92.254 c 1257.469 92.66 1256.563 92.863 1255.453 92.863 c 1252.445 92.863
 l 1251.059 92.863 1250.004 93.164 1249.277 93.758 c 1248.551 94.379 1248.188
 95.145 1248.188 96.063 c 1248.188 96.598 1248.348 97.121 1248.668 97.633
 c 1248.988 98.164 1249.449 98.625 1250.043 99.008 c 1249.086 99.5 1248.371
 100.117 1247.902 100.863 c 1247.453 101.633 1247.23 102.559 1247.23 103.648
 c 1247.23 104.777 1247.508 105.781 1248.063 106.656 c 1248.637 107.551 
1249.426 108.246 1250.43 108.734 c 1251.453 109.246 1252.625 109.504 1253.949
 109.504 c 1255.867 109.504 1257.332 109.609 1258.332 109.824 c 1259.336
 110.035 1260.434 110.398 1261.629 110.91 c h
1253.918 107.52 m 1252.617 107.52 1251.633 107.168 1250.973 106.465 c 1250.313
 105.781 1249.98 104.844 1249.98 103.648 c 1249.98 102.453 1250.313 101.492
 1250.973 100.766 c 1251.656 100.063 1252.656 99.711 1253.98 99.711 c 1255.176
 99.711 1256.082 100.055 1256.699 100.734 c 1257.34 101.441 1257.66 102.422
 1257.66 103.68 c 1257.66 106.238 1256.414 107.52 1253.918 107.52 c h
1253.918 107.52 m f
1269.789 97.184 m 1269.789 96.094 1270.012 95.297 1270.461 94.785 c 1270.93
 94.293 1271.656 94.047 1272.637 94.047 c 1273.531 94.047 1274.398 94.305
 1275.23 94.816 c 1276.063 95.328 1276.723 95.969 1277.211 96.734 c 1277.211
 109.152 l 1279.902 109.152 l 1279.902 92.289 l 1277.598 92.289 l 1277.371
 94.559 l 1276.711 93.727 1275.891 93.078 1274.91 92.609 c 1273.949 92.16
 1272.969 91.934 1271.965 91.934 c 1270.363 91.934 1269.148 92.363 1268.316
 93.215 c 1267.508 94.07 1267.102 95.297 1267.102 96.895 c 1267.102 109.152
 l 1269.789 109.152 l h
1269.789 97.184 m f
1298.398 95.969 m 1298.398 95.305 1298.504 94.816 1298.719 94.496 c 1298.93
 94.195 1299.281 93.973 1299.773 93.824 c 1299.102 91.902 l 1297.457 92.117
 1296.434 92.918 1296.027 94.305 c 1295.43 93.535 1294.676 92.949 1293.758
 92.543 c 1292.859 92.137 1291.859 91.934 1290.75 91.934 c 1289.063 91.934
 1287.73 92.406 1286.75 93.344 c 1285.789 94.281 1285.309 95.539 1285.309
 97.121 c 1285.309 98.848 1285.98 100.18 1287.324 101.121 c 1288.691 102.059
 1290.641 102.527 1293.18 102.527 c 1295.676 102.527 l 1295.676 103.902 
l 1295.676 105.098 1295.336 105.953 1294.652 106.465 c 1293.969 106.996 
1292.977 107.262 1291.676 107.262 c 1290.398 107.262 1288.934 106.977 1287.293
 106.398 c 1286.559 108.449 l 1288.539 109.152 1290.387 109.504 1292.094
 109.504 c 1294.141 109.504 1295.699 109.023 1296.766 108.063 c 1297.852
 107.105 1298.398 105.77 1298.398 104.063 c h
1291.422 93.953 m 1292.254 93.953 1293.043 94.164 1293.789 94.59 c 1294.559
 95.02 1295.188 95.605 1295.676 96.352 c 1295.676 100.672 l 1293.246 100.672
 l 1291.453 100.672 1290.164 100.371 1289.371 99.777 c 1288.582 99.18 1288.188
 98.305 1288.188 97.152 c 1288.188 95.02 1289.266 93.953 1291.422 93.953
 c h
1291.422 93.953 m f
1312.094 96.449 m 1312.094 94.934 1313.02 94.176 1314.875 94.176 c 1315.75
 94.176 1316.691 94.367 1317.691 94.75 c 1318.398 92.801 l 1317.332 92.223
 1315.996 91.934 1314.398 91.934 c 1312.883 91.934 1311.668 92.352 1310.75
 93.184 c 1309.852 94.016 1309.406 95.145 1309.406 96.574 c 1309.406 113.793
 l 1304.223 113.793 l 1304.223 115.938 l 1312.094 115.938 l h
1312.094 96.449 m f
1355.902 95.969 m 1355.902 95.305 1356.008 94.816 1356.223 94.496 c 1356.434
 94.195 1356.785 93.973 1357.277 93.824 c 1356.605 91.902 l 1354.961 92.117
 1353.938 92.918 1353.531 94.305 c 1352.938 93.535 1352.18 92.949 1351.262
 92.543 c 1350.363 92.137 1349.363 91.934 1348.254 91.934 c 1346.566 91.934
 1345.234 92.406 1344.254 93.344 c 1343.293 94.281 1342.813 95.539 1342.813
 97.121 c 1342.813 98.848 1343.484 100.18 1344.828 101.121 c 1346.195 102.059
 1348.145 102.527 1350.684 102.527 c 1353.18 102.527 l 1353.18 103.902 l
 1353.18 105.098 1352.84 105.953 1352.156 106.465 c 1351.473 106.996 1350.48
 107.262 1349.18 107.262 c 1347.902 107.262 1346.441 106.977 1344.797 106.398
 c 1344.063 108.449 l 1346.043 109.152 1347.891 109.504 1349.598 109.504
 c 1351.645 109.504 1353.203 109.023 1354.27 108.063 c 1355.355 107.105 
1355.902 105.77 1355.902 104.063 c h
1348.926 93.953 m 1349.758 93.953 1350.547 94.164 1351.293 94.59 c 1352.063
 95.02 1352.691 95.605 1353.18 96.352 c 1353.18 100.672 l 1350.75 100.672
 l 1348.957 100.672 1347.668 100.371 1346.875 99.777 c 1346.086 99.18 1345.691
 98.305 1345.691 97.152 c 1345.691 95.02 1346.77 93.953 1348.926 93.953 
c h
1348.926 93.953 m f
1384.254 115.938 m 1387.613 115.938 l 1387.102 107.617 l 1384.734 107.617
 l h
1389.598 115.938 m 1392.957 115.938 l 1392.477 107.617 l 1390.109 107.617
 l h
1389.598 115.938 m f
1409.055 94.238 m 1410.523 94.238 1411.984 94.73 1413.438 95.711 c 1414.719
 93.953 l 1414.012 93.332 1413.137 92.844 1412.094 92.48 c 1411.047 92.117
 1410.035 91.934 1409.055 91.934 c 1406.559 91.934 1404.605 92.715 1403.195
 94.273 c 1401.809 95.852 1401.117 97.973 1401.117 100.641 c 1401.117 102.324
 1401.426 103.84 1402.047 105.184 c 1402.684 106.527 1403.602 107.582 1404.797
 108.352 c 1405.992 109.121 1407.41 109.504 1409.055 109.504 c 1411.23 109.504
 1413.105 108.844 1414.684 107.52 c 1413.371 105.758 l 1411.902 106.742 
1410.449 107.23 1409.02 107.23 c 1407.508 107.23 1406.289 106.668 1405.371
 105.535 c 1404.477 104.426 1404.027 102.793 1404.027 100.641 c 1404.027
 98.484 1404.477 96.875 1405.371 95.809 c 1406.289 94.762 1407.516 94.238
 1409.055 94.238 c h
1409.055 94.238 m f
1427.035 109.504 m 1429.363 109.504 1431.145 108.715 1432.383 107.137 c
 1433.641 105.578 1434.27 103.445 1434.27 100.734 c 1434.27 98.09 1433.629
 95.957 1432.348 94.336 c 1431.09 92.734 1429.309 91.934 1427.004 91.934
 c 1424.68 91.934 1422.887 92.715 1421.629 94.273 c 1420.371 95.852 1419.742
 97.996 1419.742 100.703 c 1419.742 103.371 1420.371 105.504 1421.629 107.105
 c 1422.91 108.703 1424.711 109.504 1427.035 109.504 c h
1427.035 107.297 m 1425.566 107.297 1424.465 106.75 1423.742 105.664 c 
1423.016 104.574 1422.652 102.922 1422.652 100.703 c 1422.652 98.484 1423.004
 96.832 1423.707 95.742 c 1424.434 94.676 1425.531 94.145 1427.004 94.145
 c 1428.477 94.145 1429.566 94.676 1430.27 95.742 c 1430.996 96.832 1431.355
 98.496 1431.355 100.734 c 1431.355 102.953 1430.996 104.598 1430.27 105.664
 c 1429.566 106.75 1428.488 107.297 1427.035 107.297 c h
1427.035 107.297 m f
1439.805 109.152 m 1442.109 109.152 l 1442.332 106.785 l 1442.996 107.637
 1443.828 108.297 1444.828 108.766 c 1445.852 109.258 1446.875 109.504 1447.902
 109.504 c 1451.059 109.504 1452.637 107.84 1452.637 104.512 c 1452.637 
92.289 l 1449.949 92.289 l 1449.949 102.527 l 1449.949 103.785 1449.875 
104.746 1449.727 105.406 c 1449.598 106.07 1449.332 106.559 1448.926 106.879
 c 1448.52 107.199 1447.902 107.359 1447.07 107.359 c 1446.152 107.359 1445.289
 107.082 1444.477 106.527 c 1443.668 105.973 1443.004 105.313 1442.492 104.543
 c 1442.492 92.289 l 1439.805 92.289 l h
1439.805 109.152 m f
1472.414 93.152 m 1471.836 92.766 1471.133 92.469 1470.301 92.254 c 1469.488
 92.043 1468.68 91.934 1467.867 91.934 c 1466.098 91.934 1464.711 92.395
 1463.707 93.313 c 1462.707 94.25 1462.203 95.477 1462.203 96.992 c 1462.203
 107.039 l 1458.332 107.039 l 1458.332 109.152 l 1462.203 109.152 l 1462.203
 112.961 l 1464.895 113.281 l 1464.895 109.152 l 1470.75 109.152 l 1470.398
 107.039 l 1464.895 107.039 l 1464.895 97.023 l 1464.895 96.063 1465.148
 95.348 1465.66 94.879 c 1466.172 94.41 1466.996 94.176 1468.125 94.176 
c 1469.277 94.176 1470.355 94.441 1471.355 94.977 c h
1472.414 93.152 m f
1480.348 99.777 m 1480.414 97.918 1480.895 96.523 1481.789 95.582 c 1482.707
 94.645 1483.859 94.176 1485.246 94.176 c 1486.078 94.176 1486.836 94.293
 1487.516 94.527 c 1488.223 94.785 1488.969 95.168 1489.758 95.68 c 1491.004
 93.887 l 1490.215 93.27 1489.309 92.789 1488.285 92.449 c 1487.281 92.105
 1486.27 91.934 1485.246 91.934 c 1482.813 91.934 1480.914 92.727 1479.551
 94.305 c 1478.203 95.902 1477.531 98.035 1477.531 100.703 c 1477.531 102.391
 1477.832 103.895 1478.43 105.215 c 1479.027 106.559 1479.879 107.605 1480.988
 108.352 c 1482.098 109.121 1483.391 109.504 1484.859 109.504 c 1486.996
 109.504 1488.668 108.758 1489.887 107.262 c 1491.121 105.793 1491.742 103.777
 1491.742 101.215 c 1491.742 100.727 1491.719 100.246 1491.676 99.777 c 
h
1484.895 107.297 m 1483.59 107.297 1482.535 106.828 1481.727 105.887 c 
1480.914 104.969 1480.457 103.617 1480.348 101.824 c 1489.117 101.824 l 
1489.094 103.594 1488.711 104.949 1487.965 105.887 c 1487.219 106.828 1486.195
 107.297 1484.895 107.297 c h
1484.895 107.297 m f
1497.309 109.152 m 1499.613 109.152 l 1499.836 106.785 l 1500.5 107.637
 1501.332 108.297 1502.332 108.766 c 1503.355 109.258 1504.383 109.504 1505.406
 109.504 c 1508.563 109.504 1510.141 107.84 1510.141 104.512 c 1510.141 
92.289 l 1507.453 92.289 l 1507.453 102.527 l 1507.453 103.785 1507.379 
104.746 1507.23 105.406 c 1507.102 106.07 1506.836 106.559 1506.43 106.879
 c 1506.023 107.199 1505.406 107.359 1504.574 107.359 c 1503.656 107.359
 1502.793 107.082 1501.98 106.527 c 1501.172 105.973 1500.508 105.313 1499.996
 104.543 c 1499.996 92.289 l 1497.309 92.289 l h
1497.309 109.152 m f
1529.918 93.152 m 1529.34 92.766 1528.637 92.469 1527.805 92.254 c 1526.996
 92.043 1526.184 91.934 1525.371 91.934 c 1523.602 91.934 1522.215 92.395
 1521.215 93.313 c 1520.211 94.25 1519.707 95.477 1519.707 96.992 c 1519.707
 107.039 l 1515.836 107.039 l 1515.836 109.152 l 1519.707 109.152 l 1519.707
 112.961 l 1522.398 113.281 l 1522.398 109.152 l 1528.254 109.152 l 1527.902
 107.039 l 1522.398 107.039 l 1522.398 97.023 l 1522.398 96.063 1522.652
 95.348 1523.164 94.879 c 1523.676 94.41 1524.5 94.176 1525.629 94.176 c
 1526.781 94.176 1527.859 94.441 1528.859 94.977 c h
1529.918 93.152 m f
1537.758 115.938 m 1541.117 115.938 l 1540.605 107.617 l 1538.238 107.617
 l h
1543.102 115.938 m 1546.461 115.938 l 1545.98 107.617 l 1543.613 107.617
 l h
1543.102 115.938 m f
1 0.47451 0.776471 rg
41.117 59.773 m 41.18 57.918 41.66 56.523 42.555 55.582 c 43.473 54.645
 44.625 54.176 46.012 54.176 c 46.844 54.176 47.602 54.293 48.285 54.527
 c 48.988 54.785 49.734 55.168 50.523 55.68 c 51.773 53.887 l 50.984 53.27
 50.078 52.789 49.051 52.449 c 48.051 52.105 47.035 51.934 46.012 51.934
 c 43.582 51.934 41.684 52.727 40.316 54.305 c 38.973 55.902 38.301 58.035
 38.301 60.703 c 38.301 62.387 38.598 63.895 39.195 65.215 c 39.793 66.559
 40.648 67.605 41.758 68.352 c 42.867 69.121 44.156 69.504 45.629 69.504
 c 47.762 69.504 49.438 68.758 50.652 67.262 c 51.891 65.793 52.508 63.773
 52.508 61.215 c 52.508 60.727 52.488 60.246 52.445 59.773 c h
45.66 67.297 m 44.359 67.297 43.305 66.824 42.492 65.887 c 41.684 64.969
 41.223 63.617 41.117 61.824 c 49.883 61.824 l 49.863 63.594 49.48 64.949
 48.73 65.887 c 47.984 66.824 46.961 67.297 45.66 67.297 c h
45.66 67.297 m f
58.172 69.152 m 60.477 69.152 l 60.699 66.785 l 61.363 67.637 62.195 68.297
 63.195 68.766 c 64.219 69.258 65.246 69.504 66.27 69.504 c 69.426 69.504
 71.004 67.84 71.004 64.512 c 71.004 52.289 l 68.316 52.289 l 68.316 62.527
 l 68.316 63.785 68.242 64.746 68.094 65.406 c 67.965 66.07 67.699 66.559
 67.293 66.879 c 66.887 67.199 66.27 67.359 65.438 67.359 c 64.52 67.359
 63.656 67.082 62.844 66.527 c 62.035 65.973 61.371 65.313 60.859 64.543
 c 60.859 52.289 l 58.172 52.289 l h
58.172 69.152 m f
90.172 75.934 m 90.172 52.289 l 87.805 52.289 l 87.547 54.496 l 86.93 53.641
 86.215 53.004 85.406 52.574 c 84.594 52.148 83.719 51.934 82.781 51.934
 c 80.648 51.934 79.035 52.715 77.949 54.27 c 76.883 55.828 76.348 57.973
 76.348 60.703 c 76.348 62.387 76.613 63.895 77.148 65.215 c 77.684 66.559
 78.438 67.605 79.422 68.352 c 80.422 69.121 81.598 69.504 82.941 69.504
 c 84.797 69.504 86.313 68.832 87.484 67.488 c 87.484 76.254 l h
83.645 67.328 m 82.238 67.328 81.148 66.773 80.379 65.664 c 79.633 64.555
 79.262 62.902 79.262 60.703 c 79.262 58.527 79.602 56.875 80.285 55.742
 c 80.988 54.633 82 54.078 83.324 54.078 c 84.926 54.078 86.313 54.977 87.484
 56.766 c 87.484 65.152 l 87.016 65.855 86.449 66.387 85.789 66.75 c 85.129
 67.137 84.414 67.328 83.645 67.328 c h
83.645 67.328 m f
Q Q
showpage
%%Trailer
end restore
%%EOF
