%!PS-Adobe-3.0 EPSF-3.0
%%Creator: cairo 1.14.1 (http://cairographics.org)
%%CreationDate: Thu Feb 23 01:47:28 2017
%%Pages: 1
%%DocumentData: Clean7Bit
%%LanguageLevel: 2
%%BoundingBox: 0 -1 208 198
%%EndComments
%%BeginProlog
save
50 dict begin
/q { gsave } bind def
/Q { grestore } bind def
/cm { 6 array astore concat } bind def
/w { setlinewidth } bind def
/J { setlinecap } bind def
/j { setlinejoin } bind def
/M { setmiterlimit } bind def
/d { setdash } bind def
/m { moveto } bind def
/l { lineto } bind def
/c { curveto } bind def
/h { closepath } bind def
/re { exch dup neg 3 1 roll 5 3 roll moveto 0 rlineto
      0 exch rlineto 0 rlineto closepath } bind def
/S { stroke } bind def
/f { fill } bind def
/f* { eofill } bind def
/n { newpath } bind def
/W { clip } bind def
/W* { eoclip } bind def
/BT { } bind def
/ET { } bind def
/pdfmark where { pop globaldict /?pdfmark /exec load put }
    { globaldict begin /?pdfmark /pop load def /pdfmark
    /cleartomark load def end } ifelse
/BDC { mark 3 1 roll /BDC pdfmark } bind def
/EMC { mark /EMC pdfmark } bind def
/cairo_store_point { /cairo_point_y exch def /cairo_point_x exch def } def
/Tj { show currentpoint cairo_store_point } bind def
/TJ {
  {
    dup
    type /stringtype eq
    { show } { -0.001 mul 0 cairo_font_matrix dtransform rmoveto } ifelse
  } forall
  currentpoint cairo_store_point
} bind def
/cairo_selectfont { cairo_font_matrix aload pop pop pop 0 0 6 array astore
    cairo_font exch selectfont cairo_point_x cairo_point_y moveto } bind def
/Tf { pop /cairo_font exch def /cairo_font_matrix where
      { pop cairo_selectfont } if } bind def
/Td { matrix translate cairo_font_matrix matrix concatmatrix dup
      /cairo_font_matrix exch def dup 4 get exch 5 get cairo_store_point
      /cairo_font where { pop cairo_selectfont } if } bind def
/Tm { 2 copy 8 2 roll 6 array astore /cairo_font_matrix exch def
      cairo_store_point /cairo_font where { pop cairo_selectfont } if } bind def
/g { setgray } bind def
/rg { setrgbcolor } bind def
/d1 { setcachedevice } bind def
%%EndProlog
%%BeginSetup
%%EndSetup
%%Page: 1 1
%%BeginPageSetup
%%PageBoundingBox: 0 -1 208 198
%%EndPageSetup
q 0 -1 208 199 rectclip q
0.564706 0.172549 0.603922 rg
72.078 142.981 m 72.801 149.169 71.176 145.641 65.313 143.2 c 62.617 142.098
 59.855 141.54 57.031 141.54 c 51.246 141.54 46.57 143.2 42.98 146.505 c
 39.387 149.813 37.594 154.134 37.594 159.469 c 37.594 161.52 37.707 163.637
 37.941 165.841 c 38.156 168.044 38.508 170.262 38.957 172.466 c 44.074 
197.594 l 51.641 197.594 l 49.473 186.946 46.59 176.891 45.125 165.012 c
 44.199 157.473 48.445 148.747 57.199 148.583 c 62.637 148.477 71.453 151.548
 74.48 165.536 c 78.895 185.938 76.719 175.743 81.121 197.602 c 88.941 197.594
 l 78.617 142.981 l 72.078 142.981 l f*
103.879 197.227 m 103.879 141.384 l 127.766 149.298 l 125.988 158.329 l
 121.547 156.692 113.121 152.333 112.602 153.591 c 112.086 154.852 112.809
 182.618 112.809 197.501 c 103.879 197.227 l f*
138.855 197.231 m 138.855 141.669 l 162.625 149.544 l 160.852 158.528 l
 156.434 156.899 148.051 152.563 147.535 153.817 c 147.023 155.067 147.738
 182.692 147.738 197.501 c 138.855 197.231 l f*
0.239216 0.282353 0.321569 rg
35.023 125.966 130.168 -2.348 re f*
0.407843 0.423529 0.454902 rg
45.656 106.255 m 48.395 106.255 l 48.395 98.102 l 48.395 96.751 48.621 
95.762 49.078 95.134 c 49.527 94.501 50.238 94.188 51.203 94.188 c 52.176
 94.188 52.91 94.524 53.406 95.2 c 53.902 95.876 54.152 96.876 54.152 98.2
 c 54.152 106.255 l 56.734 106.255 l 56.734 98.18 l 56.734 96.145 56.27 
94.614 55.34 93.598 c 54.406 92.575 53.02 92.063 51.164 92.063 c 49.344 
92.063 47.973 92.567 47.047 93.579 c 46.121 94.591 45.656 96.087 45.656 
98.063 c 45.656 106.255 l f
69.465 98.395 m 69.465 92.348 l 66.836 92.348 l 66.836 97.837 l 66.836 
98.778 66.672 99.469 66.352 99.915 c 66.027 100.364 65.523 100.587 64.836
 100.587 c 64.105 100.587 63.523 100.301 63.094 99.731 c 62.66 99.161 62.449
 98.384 62.449 97.399 c 62.449 92.348 l 59.848 92.348 l 59.848 102.505 l
 62.223 102.505 l 62.223 100.665 l 62.609 101.356 63.105 101.88 63.715 102.235
 c 64.324 102.591 65.035 102.77 65.836 102.77 c 67.027 102.77 67.934 102.399
 68.547 101.661 c 69.16 100.919 69.465 99.829 69.465 98.395 c f
72.273 107.055 m 74.875 107.055 l 74.875 104.528 l 72.273 104.528 l h
72.273 102.505 m 74.875 102.505 l 74.875 92.348 l 72.273 92.348 l 72.273
 102.505 l f
76.598 102.505 m 79.398 102.505 l 81.824 94.696 l 84.313 102.505 l 86.914
 102.505 l 83.223 92.348 l 80.219 92.348 l 76.598 102.505 l f
95.094 98.337 m 95.023 99.2 94.781 99.868 94.371 100.348 c 93.957 100.825
 93.422 101.067 92.766 101.067 c 92.094 101.067 91.539 100.825 91.102 100.348
 c 90.664 99.868 90.398 99.2 90.301 98.337 c h
97.453 97.536 m 97.453 96.712 l 90.301 96.712 l 90.371 95.856 90.703 95.184
 91.293 94.692 c 91.883 94.2 92.664 93.954 93.629 93.954 c 94.156 93.954
 94.668 94.016 95.168 94.141 c 95.664 94.262 96.145 94.446 96.609 94.696
 c 96.609 92.692 l 96.117 92.489 95.582 92.337 95.008 92.235 c 94.434 92.134
 93.816 92.083 93.168 92.083 c 91.469 92.083 90.145 92.571 89.188 93.548
 c 88.234 94.52 87.754 95.876 87.754 97.602 c 87.754 99.141 88.219 100.387
 89.148 101.341 c 90.082 102.29 91.289 102.77 92.785 102.77 c 94.258 102.77
 95.406 102.309 96.223 101.391 c 97.043 100.477 97.453 99.192 97.453 97.536
 c f
105.742 102.653 m 105.648 100.301 l 105.508 100.352 105.367 100.384 105.215
 100.407 c 105.066 100.43 104.91 100.442 104.746 100.442 c 103.883 100.442
 103.227 100.157 102.777 99.587 c 102.324 99.016 102.102 98.184 102.102 
97.094 c 102.102 92.348 l 99.5 92.348 l 99.5 102.505 l 101.84 102.505 l 
101.84 100.481 l 102.164 101.235 102.578 101.805 103.078 102.18 c 103.574
 102.559 104.164 102.751 104.84 102.751 c 104.961 102.751 105.094 102.743
 105.234 102.727 c 105.379 102.708 105.547 102.684 105.742 102.653 c f
113.863 102.192 m 113.668 100.262 l 113.219 100.497 112.773 100.673 112.336
 100.79 c 111.898 100.907 111.465 100.969 111.035 100.969 c 110.566 100.969
 110.207 100.887 109.957 100.727 c 109.707 100.567 109.578 100.341 109.578
 100.04 c 109.578 99.591 110.109 99.13 111.172 98.661 c 111.289 98.606 111.379
 98.567 111.434 98.544 c 112.527 98.059 113.277 97.583 113.688 97.118 c 
114.098 96.653 114.305 96.075 114.305 95.391 c 114.305 94.426 113.922 93.661
 113.148 93.094 c 112.379 92.532 111.332 92.251 110 92.251 c 109.438 92.251
 108.895 92.294 108.359 92.384 c 107.828 92.469 107.324 92.598 106.848 92.766
 c 106.996 94.774 l 107.477 94.536 107.973 94.352 108.477 94.231 c 108.984
 94.11 109.484 94.051 109.98 94.051 c 110.492 94.051 110.895 94.137 111.176
 94.313 c 111.461 94.481 111.602 94.723 111.602 95.028 c 111.602 95.532 
110.93 96.118 109.59 96.79 c 109.539 96.821 l 108.535 97.317 107.859 97.774
 107.504 98.2 c 107.152 98.622 106.977 99.137 106.977 99.747 c 106.977 100.637
 107.352 101.368 108.105 101.926 c 108.859 102.489 109.848 102.77 111.074
 102.77 c 111.402 102.77 111.762 102.731 112.16 102.653 c 112.563 102.571
 113.125 102.423 113.863 102.192 c f
116.516 107.055 m 119.117 107.055 l 119.117 104.528 l 116.516 104.528 l
 h
116.516 102.505 m 119.117 102.505 l 119.117 92.348 l 116.516 92.348 l 116.516
 102.505 l f
129.219 107.341 m 131.82 107.341 l 131.82 92.348 l 129.473 92.348 l 129.473
 94.395 l 129.063 93.657 128.551 93.106 127.938 92.739 c 127.324 92.376 
126.613 92.192 125.805 92.192 c 124.559 92.192 123.531 92.696 122.727 93.704
 c 121.922 94.708 121.516 96.012 121.516 97.602 c 121.516 99.149 121.906
 100.399 122.688 101.344 c 123.469 102.294 124.484 102.77 125.746 102.77
 c 126.512 102.77 127.184 102.622 127.758 102.329 c 128.328 102.036 128.816
 101.587 129.219 100.989 c h
126.609 100.801 m 125.902 100.801 125.332 100.497 124.891 99.887 c 124.449
 99.278 124.23 98.473 124.23 97.473 c 124.23 96.462 124.445 95.665 124.883
 95.071 c 125.32 94.481 125.918 94.188 126.676 94.188 c 127.438 94.188 128.051
 94.485 128.512 95.079 c 128.969 95.669 129.199 96.469 129.199 97.473 c 
129.199 98.509 128.969 99.317 128.504 99.911 c 128.043 100.505 127.41 100.801
 126.609 100.801 c f
143.285 98.141 m 143.285 92.348 l 140.977 92.348 l 140.938 93.993 l 140.512
 93.364 140.012 92.891 139.43 92.567 c 138.852 92.243 138.203 92.083 137.492
 92.083 c 136.477 92.083 135.652 92.38 135.023 92.977 c 134.398 93.575 134.086
 94.348 134.086 95.294 c 134.086 96.423 134.535 97.27 135.426 97.837 c 136.32
 98.399 137.656 98.68 139.441 98.68 c 140.781 98.68 l 140.781 98.829 l 140.781
 99.52 140.563 100.055 140.125 100.438 c 139.688 100.817 139.07 101.009 
138.273 101.009 c 137.824 101.009 137.355 100.942 136.867 100.805 c 136.383
 100.669 135.883 100.462 135.371 100.188 c 135.328 102.044 l 135.938 102.294
 136.531 102.473 137.121 102.591 c 137.707 102.708 138.297 102.77 138.891
 102.77 c 140.418 102.77 141.531 102.399 142.234 101.661 c 142.934 100.919
 143.285 99.747 143.285 98.141 c h
139.863 97.204 m 138.797 97.204 138 97.055 137.461 96.759 c 136.922 96.462
 136.652 96.02 136.652 95.43 c 136.652 94.989 136.805 94.63 137.113 94.352
 c 137.418 94.075 137.82 93.934 138.316 93.934 c 139.035 93.934 139.621 
94.188 140.086 94.692 c 140.551 95.2 140.781 95.856 140.781 96.657 c 140.781
 97.204 l 139.863 97.204 l f
153.227 107.341 m 155.828 107.341 l 155.828 92.348 l 153.48 92.348 l 153.48
 94.395 l 153.07 93.657 152.559 93.106 151.945 92.739 c 151.328 92.376 150.621
 92.192 149.809 92.192 c 148.563 92.192 147.539 92.696 146.734 93.704 c 
145.93 94.708 145.523 96.012 145.523 97.602 c 145.523 99.149 145.914 100.399
 146.695 101.344 c 147.477 102.294 148.492 102.77 149.754 102.77 c 150.52
 102.77 151.191 102.622 151.766 102.329 c 152.336 102.036 152.824 101.587
 153.227 100.989 c h
150.613 100.801 m 149.91 100.801 149.34 100.497 148.898 99.887 c 148.457
 99.278 148.238 98.473 148.238 97.473 c 148.238 96.462 148.453 95.665 148.891
 95.071 c 149.328 94.481 149.926 94.188 150.68 94.188 c 151.445 94.188 152.059
 94.485 152.52 95.079 c 152.977 95.669 153.207 96.469 153.207 97.473 c 153.207
 98.509 152.977 99.317 152.512 99.911 c 152.051 100.505 151.418 100.801 
150.613 100.801 c f
45.785 82.966 m 48.387 82.966 l 48.387 67.973 l 46.039 67.973 l 46.039 
70.024 l 45.629 69.286 45.117 68.735 44.504 68.364 c 43.891 68.001 43.18
 67.817 42.367 67.817 c 41.125 67.817 40.098 68.321 39.293 69.333 c 38.488
 70.337 38.082 71.637 38.082 73.231 c 38.082 74.778 38.473 76.024 39.254
 76.973 c 40.035 77.923 41.055 78.395 42.313 78.395 c 43.082 78.395 43.75
 78.251 44.324 77.954 c 44.895 77.661 45.383 77.216 45.785 76.618 c h
43.176 76.43 m 42.469 76.43 41.898 76.126 41.457 75.516 c 41.016 74.907
 40.797 74.102 40.797 73.102 c 40.797 72.091 41.012 71.294 41.449 70.7 c
 41.887 70.11 42.484 69.817 43.242 69.817 c 44.008 69.817 44.617 70.114 
45.078 70.708 c 45.535 71.298 45.766 72.098 45.766 73.102 c 45.766 74.134
 45.535 74.946 45.07 75.54 c 44.609 76.134 43.977 76.43 43.176 76.43 c f
58.047 73.966 m 57.98 74.825 57.734 75.493 57.324 75.973 c 56.914 76.454
 56.379 76.692 55.723 76.692 c 55.051 76.692 54.496 76.454 54.059 75.973
 c 53.621 75.493 53.352 74.825 53.254 73.966 c h
60.406 73.161 m 60.406 72.341 l 53.254 72.341 l 53.324 71.485 53.66 70.813
 54.246 70.321 c 54.84 69.829 55.617 69.583 56.582 69.583 c 57.109 69.583
 57.625 69.645 58.121 69.77 c 58.621 69.891 59.102 70.075 59.566 70.325 
c 59.566 68.321 l 59.07 68.114 58.535 67.966 57.961 67.86 c 57.387 67.762
 56.773 67.712 56.121 67.712 c 54.426 67.712 53.098 68.2 52.145 69.173 c
 51.188 70.149 50.711 71.505 50.711 73.231 c 50.711 74.77 51.176 76.016 
52.102 76.969 c 53.035 77.919 54.246 78.395 55.742 78.395 c 57.215 78.395
 58.359 77.938 59.18 77.02 c 59.996 76.106 60.406 74.821 60.406 73.161 c
 f
68.402 81.88 m 71.145 81.88 l 71.145 70.098 l 76.723 70.098 l 76.723 67.973
 l 68.402 67.973 l 68.402 81.88 l f
86.922 73.77 m 86.922 67.973 l 84.613 67.973 l 84.57 69.622 l 84.148 68.993
 83.648 68.52 83.066 68.196 c 82.484 67.872 81.836 67.712 81.129 67.712 
c 80.109 67.712 79.289 68.009 78.66 68.606 c 78.035 69.204 77.719 69.977
 77.719 70.923 c 77.719 72.051 78.168 72.899 79.059 73.462 c 79.957 74.028
 81.293 74.309 83.074 74.309 c 84.414 74.309 l 84.414 74.458 l 84.414 75.145
 84.199 75.68 83.762 76.067 c 83.324 76.446 82.703 76.637 81.91 76.637 c
 81.457 76.637 80.992 76.571 80.504 76.434 c 80.02 76.298 79.52 76.087 79.004
 75.813 c 78.965 77.673 l 79.57 77.923 80.168 78.102 80.754 78.219 c 81.34
 78.337 81.934 78.395 82.523 78.395 c 84.055 78.395 85.168 78.028 85.867
 77.29 c 86.57 76.548 86.922 75.376 86.922 73.77 c h
83.496 72.833 m 82.43 72.833 81.633 72.684 81.094 72.387 c 80.555 72.091
 80.285 71.645 80.285 71.059 c 80.285 70.618 80.441 70.259 80.746 69.981
 c 81.051 69.704 81.457 69.563 81.949 69.563 c 82.668 69.563 83.258 69.817
 83.719 70.321 c 84.184 70.829 84.414 71.481 84.414 72.286 c 84.414 72.833
 l 83.496 72.833 l f
95.715 81.88 m 98.453 81.88 l 98.453 70.098 l 104.031 70.098 l 104.031 
67.973 l 95.715 67.973 l 95.715 81.88 l f
114.23 73.77 m 114.23 67.973 l 111.922 67.973 l 111.883 69.622 l 111.457
 68.993 110.957 68.52 110.375 68.196 c 109.797 67.872 109.148 67.712 108.438
 67.712 c 107.422 67.712 106.598 68.009 105.969 68.606 c 105.348 69.204 
105.031 69.977 105.031 70.923 c 105.031 72.051 105.48 72.899 106.371 73.462
 c 107.266 74.028 108.602 74.309 110.387 74.309 c 111.727 74.309 l 111.727
 74.458 l 111.727 75.145 111.508 75.68 111.07 76.067 c 110.633 76.446 110.016
 76.637 109.223 76.637 c 108.77 76.637 108.301 76.571 107.813 76.434 c 107.328
 76.298 106.828 76.087 106.316 75.813 c 106.273 77.673 l 106.883 77.923 
107.477 78.102 108.066 78.219 c 108.652 78.337 109.242 78.395 109.836 78.395
 c 111.363 78.395 112.477 78.028 113.18 77.29 c 113.879 76.548 114.23 75.376
 114.23 73.77 c h
110.809 72.833 m 109.742 72.833 108.945 72.684 108.406 72.387 c 107.867
 72.091 107.598 71.645 107.598 71.059 c 107.598 70.618 107.75 70.259 108.059
 69.981 c 108.363 69.704 108.766 69.563 109.262 69.563 c 109.98 69.563 110.566
 69.817 111.031 70.321 c 111.496 70.829 111.727 71.481 111.727 72.286 c 
111.727 72.833 l 110.809 72.833 l f
124.328 76.387 m 124.328 78.134 l 126.758 78.134 l 126.758 69.219 l 126.758
 67.333 126.289 65.926 125.355 64.997 c 124.418 64.075 123 63.61 121.102
 63.61 c 120.496 63.61 119.895 63.665 119.297 63.77 c 118.699 63.88 118.113
 64.036 117.539 64.243 c 117.695 66.348 l 118.238 66.083 118.773 65.876 
119.309 65.739 c 119.844 65.594 120.363 65.528 120.867 65.528 c 121.918 
65.528 122.734 65.813 123.328 66.391 c 123.918 66.969 124.211 67.77 124.211
 68.798 c 124.211 69.903 l 123.754 69.259 123.25 68.782 122.695 68.477 c
 122.141 68.169 121.516 68.016 120.824 68.016 c 119.508 68.016 118.445 68.485
 117.641 69.426 c 116.836 70.364 116.434 71.602 116.434 73.141 c 116.434
 74.704 116.836 75.969 117.645 76.942 c 118.453 77.915 119.508 78.395 120.809
 78.395 c 121.57 78.395 122.242 78.235 122.824 77.903 c 123.402 77.571 123.906
 77.067 124.328 76.387 c h
121.602 76.411 m 120.883 76.411 120.305 76.122 119.863 75.548 c 119.422
 74.973 119.203 74.216 119.203 73.27 c 119.203 72.286 119.422 71.501 119.863
 70.915 c 120.305 70.329 120.891 70.04 121.629 70.04 c 122.344 70.04 122.941
 70.325 123.402 70.907 c 123.871 71.481 124.105 72.227 124.105 73.141 c 
124.105 74.153 123.879 74.95 123.43 75.536 c 122.98 76.118 122.367 76.411
 121.602 76.411 c f
129.441 78.134 m 132.063 78.134 l 132.063 72.739 l 132.063 71.801 132.227
 71.11 132.555 70.665 c 132.879 70.219 133.387 70.001 134.07 70.001 c 134.844
 70.001 135.438 70.305 135.848 70.926 c 136.254 71.544 136.457 72.434 136.457
 73.598 c 136.457 78.134 l 139.082 78.134 l 139.082 67.973 l 136.691 67.973
 l 136.691 69.923 l 136.316 69.231 135.82 68.708 135.211 68.352 c 134.602
 67.997 133.891 67.817 133.09 67.817 c 131.895 67.817 130.988 68.188 130.367
 68.926 c 129.75 69.669 129.441 70.755 129.441 72.18 c 129.441 78.134 l f
151.75 74.024 m 151.75 67.973 l 149.117 67.973 l 149.117 73.466 l 149.117
 74.403 148.957 75.098 148.633 75.544 c 148.309 75.993 147.805 76.216 147.121
 76.216 c 146.391 76.216 145.809 75.93 145.375 75.36 c 144.945 74.79 144.73
 74.012 144.73 73.024 c 144.73 67.973 l 142.129 67.973 l 142.129 78.134 
l 144.508 78.134 l 144.508 76.294 l 144.895 76.985 145.391 77.509 145.996
 77.864 c 146.609 78.219 147.316 78.395 148.121 78.395 c 149.313 78.395 
150.219 78.028 150.832 77.29 c 151.441 76.548 151.75 75.458 151.75 74.024
 c f
163.035 73.77 m 163.035 67.973 l 160.727 67.973 l 160.688 69.622 l 160.262
 68.993 159.762 68.52 159.18 68.196 c 158.598 67.872 157.949 67.712 157.242
 67.712 c 156.223 67.712 155.402 68.009 154.773 68.606 c 154.148 69.204 
153.836 69.977 153.836 70.923 c 153.836 72.051 154.281 72.899 155.176 73.462
 c 156.07 74.028 157.406 74.309 159.191 74.309 c 160.527 74.309 l 160.527
 74.458 l 160.527 75.145 160.313 75.68 159.875 76.067 c 159.438 76.446 158.82
 76.637 158.023 76.637 c 157.574 76.637 157.105 76.571 156.617 76.434 c 
156.133 76.298 155.633 76.087 155.117 75.813 c 155.078 77.673 l 155.688 
77.923 156.281 78.102 156.867 78.219 c 157.457 78.337 158.047 78.395 158.637
 78.395 c 160.168 78.395 161.281 78.028 161.98 77.29 c 162.684 76.548 163.035
 75.376 163.035 73.77 c h
159.609 72.833 m 158.543 72.833 157.746 72.684 157.207 72.387 c 156.672
 72.091 156.398 71.645 156.398 71.059 c 156.398 70.618 156.555 70.259 156.859
 69.981 c 157.164 69.704 157.57 69.563 158.063 69.563 c 158.781 69.563 159.371
 69.817 159.836 70.321 c 160.297 70.829 160.527 71.481 160.527 72.286 c 
160.527 72.833 l 159.609 72.833 l f
0.564706 0.172549 0.603922 rg
40.148 46.563 m 45.836 46.563 l 45.836 45.219 l 41.992 45.219 l 41.992 
42.751 l 45.633 42.751 l 45.633 41.391 l 41.992 41.391 l 41.992 38.657 l
 45.977 38.657 l 45.977 37.251 l 40.148 37.251 l h
40.148 46.563 m f
52.293 43.844 m 52.152 42.548 l 51.859 42.704 51.563 42.821 51.262 42.907
 c 50.969 42.989 50.684 43.032 50.402 43.032 c 50.078 43.032 49.832 42.973
 49.668 42.86 c 49.5 42.755 49.418 42.602 49.418 42.407 c 49.418 42.102 
49.77 41.798 50.48 41.485 c 50.563 41.442 50.625 41.415 50.668 41.407 c 
51.395 41.071 51.895 40.751 52.168 40.438 c 52.449 40.126 52.59 39.739 52.59
 39.282 c 52.59 38.634 52.328 38.126 51.809 37.751 c 51.297 37.376 50.594
 37.188 49.699 37.188 c 49.324 37.188 48.957 37.216 48.605 37.266 c 48.25
 37.329 47.91 37.415 47.59 37.532 c 47.684 38.876 l 48.004 38.719 48.332
 38.598 48.668 38.516 c 49.012 38.43 49.348 38.391 49.684 38.391 c 50.027
 38.391 50.293 38.446 50.48 38.563 c 50.676 38.676 50.777 38.837 50.777 
39.048 c 50.777 39.38 50.328 39.77 49.434 40.219 c 49.387 40.251 l 48.719
 40.583 48.266 40.891 48.027 41.173 c 47.797 41.454 47.684 41.798 47.684
 42.204 c 47.684 42.805 47.934 43.298 48.434 43.673 c 48.934 44.048 49.594
 44.235 50.418 44.235 c 50.637 44.235 50.875 44.208 51.137 44.157 c 51.406
 44.102 51.793 44.001 52.293 43.844 c h
52.293 43.844 m f
59.363 43.876 m 59.223 42.516 l 58.918 42.641 58.66 42.727 58.441 42.782
 c 58.223 42.833 58.027 42.86 57.863 42.86 c 57.207 42.86 56.676 42.657 
56.27 42.251 c 55.871 41.852 55.676 41.329 55.676 40.673 c 55.676 40.016
 55.871 39.477 56.27 39.063 c 56.676 38.645 57.195 38.438 57.832 38.438 
c 58.059 38.438 58.293 38.473 58.535 38.548 c 58.773 38.618 59.043 38.735
 59.348 38.891 c 59.41 37.501 l 58.918 37.333 58.539 37.227 58.27 37.173
 c 57.996 37.11 57.742 37.079 57.504 37.079 c 56.387 37.079 55.496 37.407
 54.832 38.063 c 54.176 38.727 53.848 39.61 53.848 40.704 c 53.848 41.723
 54.184 42.567 54.863 43.235 c 55.551 43.899 56.426 44.235 57.488 44.235
 c 57.871 44.235 58.387 44.145 59.035 43.969 c 59.18 43.926 59.289 43.895
 59.363 43.876 c h
59.363 43.876 m f
60.945 44.048 m 62.695 44.048 l 62.695 40.438 l 62.695 39.813 62.805 39.348
 63.023 39.048 c 63.242 38.755 63.578 38.61 64.039 38.61 c 64.559 38.61 
64.953 38.813 65.227 39.219 c 65.508 39.634 65.648 40.235 65.648 41.016 
c 65.648 44.048 l 67.398 44.048 l 67.398 37.251 l 65.805 37.251 l 65.805
 38.548 l 65.543 38.087 65.211 37.739 64.805 37.501 c 64.398 37.259 63.922
 37.141 63.383 37.141 c 62.578 37.141 61.969 37.391 61.555 37.891 c 61.148
 38.391 60.945 39.114 60.945 40.063 c h
60.945 44.048 m f
75.684 40.719 m 75.684 40.173 l 70.887 40.173 l 70.938 39.598 71.16 39.145
 71.559 38.813 c 71.953 38.489 72.473 38.329 73.121 38.329 c 73.473 38.329
 73.816 38.368 74.152 38.454 c 74.484 38.536 74.809 38.661 75.121 38.829
 c 75.121 37.485 l 74.785 37.348 74.426 37.251 74.043 37.188 c 73.656 37.118
 73.246 37.079 72.809 37.079 c 71.672 37.079 70.781 37.399 70.137 38.048
 c 69.5 38.704 69.184 39.61 69.184 40.766 c 69.184 41.798 69.496 42.63 70.121
 43.266 c 70.746 43.911 71.559 44.235 72.559 44.235 c 73.547 44.235 74.313
 43.926 74.855 43.313 c 75.406 42.696 75.684 41.833 75.684 40.719 c h
74.105 41.266 m 74.051 41.837 73.887 42.286 73.605 42.61 c 73.332 42.93
 72.98 43.094 72.543 43.094 c 72.094 43.094 71.723 42.93 71.434 42.61 c 
71.141 42.286 70.957 41.837 70.887 41.266 c h
74.105 41.266 m f
77.234 47.298 1.734 -10.047 re f
84.539 40.501 m 83.828 40.501 83.293 40.399 82.93 40.204 c 82.574 40.005
 82.398 39.708 82.398 39.313 c 82.398 39.02 82.496 38.782 82.695 38.594 
c 82.902 38.407 83.172 38.313 83.508 38.313 c 83.984 38.313 84.383 38.477
 84.695 38.813 c 85.008 39.157 85.164 39.598 85.164 40.141 c 85.164 40.501
 l h
86.836 41.126 m 86.836 37.251 l 85.289 37.251 l 85.258 38.344 l 84.977 
37.926 84.637 37.61 84.242 37.391 c 83.855 37.184 83.43 37.079 82.961 37.079
 c 82.273 37.079 81.719 37.274 81.305 37.673 c 80.887 38.067 80.68 38.583
 80.68 39.219 c 80.68 39.977 80.977 40.548 81.57 40.923 c 82.172 41.298 
83.07 41.485 84.258 41.485 c 85.164 41.485 l 85.164 41.594 l 85.164 42.051
 85.012 42.407 84.711 42.657 c 84.418 42.915 84.008 43.048 83.477 43.048
 c 83.172 43.048 82.859 43.001 82.539 42.907 c 82.215 42.821 81.883 42.688
 81.539 42.501 c 81.508 43.751 l 81.914 43.915 82.309 44.036 82.695 44.11
 c 83.09 44.192 83.492 44.235 83.898 44.235 c 84.918 44.235 85.664 43.985
 86.133 43.485 c 86.602 42.985 86.836 42.196 86.836 41.126 c h
86.836 41.126 m f
98.578 46.313 m 98.422 44.86 l 98.066 45.016 97.719 45.13 97.375 45.204
 c 97.039 45.286 96.703 45.329 96.359 45.329 c 95.867 45.329 95.484 45.235
 95.203 45.048 c 94.93 44.868 94.797 44.618 94.797 44.298 c 94.797 43.891
 95.297 43.438 96.297 42.938 c 96.391 42.884 96.461 42.848 96.516 42.829
 c 97.441 42.348 98.07 41.895 98.406 41.469 c 98.75 41.051 98.922 40.551
 98.922 39.969 c 98.922 39.102 98.594 38.395 97.938 37.844 c 97.281 37.301
 96.422 37.032 95.359 37.032 c 94.922 37.032 94.188 37.188 93.156 37.501
 c 93.039 37.54 92.957 37.571 92.906 37.594 c 93.078 39.188 l 93.598 38.926
 94.035 38.739 94.391 38.626 c 94.742 38.52 95.066 38.469 95.359 38.469 
c 95.848 38.469 96.25 38.583 96.563 38.813 c 96.875 39.04 97.031 39.333 
97.031 39.688 c 97.031 40.134 96.531 40.63 95.531 41.173 c 95.375 41.266
 l 95.332 41.286 95.27 41.317 95.188 41.36 c 94.445 41.755 93.926 42.114
 93.625 42.438 c 93.406 42.665 93.238 42.923 93.125 43.204 c 93.02 43.493
 92.969 43.801 92.969 44.126 c 92.969 44.915 93.273 45.551 93.891 46.032
 c 94.516 46.52 95.344 46.766 96.375 46.766 c 96.781 46.766 97.363 46.657
 98.125 46.438 c 98.332 46.384 98.484 46.344 98.578 46.313 c h
98.578 46.313 m f
100.684 44.048 m 102.434 44.048 l 102.434 40.438 l 102.434 39.813 102.543
 39.348 102.762 39.048 c 102.98 38.755 103.316 38.61 103.777 38.61 c 104.297
 38.61 104.691 38.813 104.965 39.219 c 105.246 39.634 105.387 40.235 105.387
 41.016 c 105.387 44.048 l 107.137 44.048 l 107.137 37.251 l 105.543 37.251
 l 105.543 38.548 l 105.281 38.087 104.949 37.739 104.543 37.501 c 104.137
 37.259 103.66 37.141 103.121 37.141 c 102.316 37.141 101.707 37.391 101.293
 37.891 c 100.887 38.391 100.684 39.114 100.684 40.063 c h
100.684 44.048 m f
111.141 38.282 m 111.141 34.438 l 109.391 34.438 l 109.391 44.048 l 110.969
 44.048 l 110.969 42.751 l 111.227 43.227 111.566 43.594 111.984 43.844 
c 112.398 44.102 112.879 44.235 113.422 44.235 c 114.285 44.235 114.984 
43.911 115.516 43.266 c 116.047 42.618 116.313 41.766 116.313 40.704 c 116.313
 39.641 116.035 38.77 115.484 38.094 c 114.941 37.426 114.25 37.094 113.406
 37.094 c 112.914 37.094 112.477 37.196 112.094 37.391 c 111.707 37.598 
111.391 37.895 111.141 38.282 c h
112.891 42.891 m 112.348 42.891 111.922 42.692 111.609 42.298 c 111.297
 41.899 111.141 41.36 111.141 40.673 c 111.141 39.993 111.289 39.454 111.594
 39.048 c 111.906 38.649 112.313 38.454 112.813 38.454 c 113.332 38.454 
113.742 38.657 114.047 39.063 c 114.348 39.469 114.5 40.016 114.5 40.704
 c 114.5 41.368 114.352 41.899 114.063 42.298 c 113.77 42.692 113.379 42.891
 112.891 42.891 c h
112.891 42.891 m f
124.145 40.719 m 124.145 40.173 l 119.348 40.173 l 119.398 39.598 119.621
 39.145 120.02 38.813 c 120.414 38.489 120.934 38.329 121.582 38.329 c 121.934
 38.329 122.277 38.368 122.613 38.454 c 122.945 38.536 123.27 38.661 123.582
 38.829 c 123.582 37.485 l 123.246 37.348 122.887 37.251 122.504 37.188 
c 122.117 37.118 121.707 37.079 121.27 37.079 c 120.133 37.079 119.242 37.399
 118.598 38.048 c 117.961 38.704 117.645 39.61 117.645 40.766 c 117.645 
41.798 117.957 42.63 118.582 43.266 c 119.207 43.911 120.02 44.235 121.02
 44.235 c 122.008 44.235 122.773 43.926 123.316 43.313 c 123.867 42.696 
124.145 41.833 124.145 40.719 c h
122.566 41.266 m 122.512 41.837 122.348 42.286 122.066 42.61 c 121.793 
42.93 121.441 43.094 121.004 43.094 c 120.555 43.094 120.184 42.93 119.895
 42.61 c 119.602 42.286 119.418 41.837 119.348 41.266 c h
122.566 41.266 m f
129.898 44.157 m 129.836 42.579 l 129.742 42.61 129.641 42.63 129.539 42.641
 c 129.445 42.661 129.34 42.673 129.227 42.673 c 128.652 42.673 128.215 
42.477 127.914 42.094 c 127.609 41.708 127.461 41.149 127.461 40.423 c 127.461
 37.251 l 125.711 37.251 l 125.711 44.048 l 127.289 44.048 l 127.289 42.704
 l 127.508 43.204 127.781 43.579 128.117 43.829 c 128.449 44.087 128.84 
44.219 129.289 44.219 c 129.371 44.219 129.461 44.212 129.555 44.204 c 129.648
 44.192 129.762 44.176 129.898 44.157 c h
129.898 44.157 m f
131.195 44.048 m 132.93 44.048 l 132.93 37.251 l 131.195 37.251 l h
131.195 47.094 m 132.93 47.094 l 132.93 45.407 l 131.195 45.407 l h
131.195 47.094 m f
138.297 42.969 m 137.766 42.969 137.332 42.755 137 42.329 c 136.676 41.911
 136.516 41.36 136.516 40.673 c 136.516 39.993 136.676 39.442 137 39.016
 c 137.332 38.598 137.766 38.391 138.297 38.391 c 138.836 38.391 139.27 
38.598 139.594 39.016 c 139.914 39.43 140.078 39.985 140.078 40.673 c 140.078
 41.368 139.91 41.926 139.578 42.344 c 139.254 42.759 138.828 42.969 138.297
 42.969 c h
138.297 44.235 m 139.422 44.235 140.305 43.915 140.953 43.282 c 141.598
 42.645 141.922 41.77 141.922 40.657 c 141.922 39.551 141.598 38.676 140.953
 38.032 c 140.305 37.395 139.422 37.079 138.297 37.079 c 137.172 37.079 
136.285 37.395 135.641 38.032 c 135.004 38.665 134.688 39.54 134.688 40.657
 c 134.688 41.77 135.004 42.645 135.641 43.282 c 136.285 43.915 137.172 
44.235 138.297 44.235 c h
138.297 44.235 m f
147.895 44.157 m 147.832 42.579 l 147.738 42.61 147.637 42.63 147.535 42.641
 c 147.441 42.661 147.336 42.673 147.223 42.673 c 146.648 42.673 146.211
 42.477 145.91 42.094 c 145.605 41.708 145.457 41.149 145.457 40.423 c 145.457
 37.251 l 143.707 37.251 l 143.707 44.048 l 145.285 44.048 l 145.285 42.704
 l 145.504 43.204 145.777 43.579 146.113 43.829 c 146.445 44.087 146.836
 44.219 147.285 44.219 c 147.367 44.219 147.457 44.212 147.551 44.204 c 
147.645 44.192 147.758 44.176 147.895 44.157 c h
147.895 44.157 m f
156.414 42.907 m 155.934 42.907 155.547 42.704 155.258 42.298 c 154.965
 41.891 154.82 41.352 154.82 40.688 c 154.82 40.009 154.965 39.473 155.258
 39.079 c 155.547 38.68 155.945 38.485 156.445 38.485 c 156.965 38.485 157.375
 38.68 157.68 39.079 c 157.992 39.473 158.148 40.009 158.148 40.688 c 158.148
 41.376 157.992 41.915 157.68 42.313 c 157.367 42.708 156.945 42.907 156.414
 42.907 c h
158.164 47.298 m 159.898 47.298 l 159.898 37.251 l 158.32 37.251 l 158.32
 38.626 l 158.047 38.126 157.703 37.751 157.289 37.501 c 156.883 37.259 
156.406 37.141 155.867 37.141 c 155.031 37.141 154.344 37.477 153.805 38.157
 c 153.262 38.833 152.992 39.704 152.992 40.766 c 152.992 41.805 153.25 
42.645 153.773 43.282 c 154.305 43.915 154.992 44.235 155.836 44.235 c 156.344
 44.235 156.793 44.134 157.18 43.938 c 157.563 43.739 157.891 43.438 158.164
 43.032 c h
158.164 47.298 m f
168.152 40.719 m 168.152 40.173 l 163.355 40.173 l 163.406 39.598 163.629
 39.145 164.027 38.813 c 164.422 38.489 164.941 38.329 165.59 38.329 c 165.941
 38.329 166.285 38.368 166.621 38.454 c 166.953 38.536 167.277 38.661 167.59
 38.829 c 167.59 37.485 l 167.254 37.348 166.895 37.251 166.512 37.188 c
 166.125 37.118 165.715 37.079 165.277 37.079 c 164.141 37.079 163.25 37.399
 162.605 38.048 c 161.969 38.704 161.652 39.61 161.652 40.766 c 161.652 
41.798 161.965 42.63 162.59 43.266 c 163.215 43.911 164.027 44.235 165.027
 44.235 c 166.016 44.235 166.781 43.926 167.324 43.313 c 167.875 42.696 
168.152 41.833 168.152 40.719 c h
166.574 41.266 m 166.52 41.837 166.355 42.286 166.074 42.61 c 165.801 42.93
 165.449 43.094 165.012 43.094 c 164.563 43.094 164.191 42.93 163.902 42.61
 c 163.609 42.286 163.426 41.837 163.355 41.266 c h
166.574 41.266 m f
28.988 29.794 1.844 -9.313 re f
39.563 24.528 m 39.563 20.481 l 37.797 20.481 l 37.797 24.153 l 37.797 
24.786 37.688 25.251 37.469 25.544 c 37.25 25.844 36.91 25.997 36.453 25.997
 c 35.961 25.997 35.57 25.801 35.281 25.419 c 35 25.044 34.859 24.52 34.859
 23.856 c 34.859 20.481 l 33.109 20.481 l 33.109 27.278 l 34.703 27.278 
l 34.703 26.059 l 34.961 26.516 35.297 26.864 35.703 27.106 c 36.117 27.344
 36.594 27.466 37.125 27.466 c 37.926 27.466 38.531 27.216 38.938 26.716
 c 39.352 26.216 39.563 25.485 39.563 24.528 c h
39.563 24.528 m f
44.707 26.137 m 44.227 26.137 43.836 25.942 43.535 25.559 c 43.242 25.173
 43.098 24.661 43.098 24.028 c 43.098 23.372 43.242 22.844 43.535 22.45 
c 43.836 22.063 44.23 21.872 44.723 21.872 c 45.211 21.872 45.613 22.063
 45.926 22.45 c 46.238 22.833 46.395 23.329 46.395 23.934 c 46.395 24.61
 46.242 25.145 45.941 25.544 c 45.637 25.938 45.227 26.137 44.707 26.137
 c h
46.535 26.122 m 46.535 27.278 l 48.16 27.278 l 48.16 21.309 l 48.16 20.051
 47.848 19.114 47.223 18.497 c 46.598 17.872 45.648 17.559 44.379 17.559
 c 43.973 17.559 43.566 17.598 43.16 17.669 c 42.762 17.743 42.371 17.848
 41.988 17.981 c 42.098 19.387 l 42.461 19.212 42.82 19.075 43.176 18.981
 c 43.527 18.887 43.879 18.841 44.223 18.841 c 44.918 18.841 45.465 19.036
 45.863 19.419 c 46.258 19.805 46.457 20.341 46.457 21.028 c 46.457 21.778
 l 46.152 21.341 45.816 21.016 45.441 20.809 c 45.074 20.61 44.66 20.512
 44.191 20.512 c 43.305 20.512 42.59 20.825 42.051 21.45 c 41.52 22.075 
41.254 22.903 41.254 23.934 c 41.254 24.985 41.523 25.833 42.066 26.481 
c 42.605 27.137 43.309 27.466 44.176 27.466 c 44.684 27.466 45.133 27.348
 45.52 27.122 c 45.914 26.903 46.254 26.567 46.535 26.122 c h
46.535 26.122 m f
56.352 23.95 m 56.352 23.403 l 51.555 23.403 l 51.605 22.829 51.828 22.376
 52.227 22.044 c 52.621 21.719 53.141 21.559 53.789 21.559 c 54.141 21.559
 54.484 21.598 54.82 21.684 c 55.152 21.766 55.477 21.891 55.789 22.059 
c 55.789 20.716 l 55.453 20.579 55.094 20.481 54.711 20.419 c 54.324 20.348
 53.914 20.309 53.477 20.309 c 52.34 20.309 51.449 20.63 50.805 21.278 c
 50.168 21.934 49.852 22.841 49.852 23.997 c 49.852 25.028 50.164 25.86 
50.789 26.497 c 51.414 27.141 52.227 27.466 53.227 27.466 c 54.215 27.466
 54.98 27.157 55.523 26.544 c 56.074 25.926 56.352 25.063 56.352 23.95 c
 h
54.773 24.497 m 54.719 25.067 54.555 25.516 54.273 25.841 c 54 26.161 53.648
 26.325 53.211 26.325 c 52.762 26.325 52.391 26.161 52.102 25.841 c 51.809
 25.516 51.625 25.067 51.555 24.497 c h
54.773 24.497 m f
64.371 24.528 m 64.371 20.481 l 62.605 20.481 l 62.605 24.153 l 62.605 
24.786 62.496 25.251 62.277 25.544 c 62.059 25.844 61.719 25.997 61.262 
25.997 c 60.77 25.997 60.379 25.801 60.09 25.419 c 59.809 25.044 59.668 
24.52 59.668 23.856 c 59.668 20.481 l 57.918 20.481 l 57.918 27.278 l 59.512
 27.278 l 59.512 26.059 l 59.77 26.516 60.105 26.864 60.512 27.106 c 60.926
 27.344 61.402 27.466 61.934 27.466 c 62.734 27.466 63.34 27.216 63.746 
26.716 c 64.16 26.216 64.371 25.485 64.371 24.528 c h
64.371 24.528 m f
66.469 27.278 m 68.203 27.278 l 68.203 20.481 l 66.469 20.481 l h
66.469 30.325 m 68.203 30.325 l 68.203 28.637 l 66.469 28.637 l h
66.469 30.325 m f
76.445 23.95 m 76.445 23.403 l 71.648 23.403 l 71.699 22.829 71.922 22.376
 72.32 22.044 c 72.715 21.719 73.234 21.559 73.883 21.559 c 74.234 21.559
 74.578 21.598 74.914 21.684 c 75.246 21.766 75.57 21.891 75.883 22.059 
c 75.883 20.716 l 75.547 20.579 75.188 20.481 74.805 20.419 c 74.418 20.348
 74.008 20.309 73.57 20.309 c 72.434 20.309 71.543 20.63 70.898 21.278 c
 70.262 21.934 69.945 22.841 69.945 23.997 c 69.945 25.028 70.258 25.86 
70.883 26.497 c 71.508 27.141 72.32 27.466 73.32 27.466 c 74.309 27.466 
75.074 27.157 75.617 26.544 c 76.168 25.926 76.445 25.063 76.445 23.95 c
 h
74.867 24.497 m 74.813 25.067 74.648 25.516 74.367 25.841 c 74.094 26.161
 73.742 26.325 73.305 26.325 c 72.855 26.325 72.484 26.161 72.195 25.841
 c 71.902 25.516 71.719 25.067 71.648 24.497 c h
74.867 24.497 m f
82.199 27.387 m 82.137 25.809 l 82.043 25.841 81.941 25.86 81.84 25.872
 c 81.746 25.891 81.641 25.903 81.527 25.903 c 80.953 25.903 80.516 25.708
 80.215 25.325 c 79.91 24.938 79.762 24.38 79.762 23.653 c 79.762 20.481
 l 78.012 20.481 l 78.012 27.278 l 79.59 27.278 l 79.59 25.934 l 79.809 
26.434 80.082 26.809 80.418 27.059 c 80.75 27.317 81.141 27.45 81.59 27.45
 c 81.672 27.45 81.762 27.442 81.855 27.434 c 81.949 27.423 82.063 27.407
 82.199 27.387 c h
82.199 27.387 m f
83.496 27.278 m 85.23 27.278 l 85.23 20.481 l 83.496 20.481 l h
85.152 30.559 m 86.684 30.559 l 84.668 28.2 l 83.84 28.2 l h
85.152 30.559 m f
90.797 23.731 m 90.086 23.731 89.551 23.63 89.188 23.434 c 88.832 23.235
 88.656 22.938 88.656 22.544 c 88.656 22.251 88.754 22.012 88.953 21.825
 c 89.16 21.637 89.43 21.544 89.766 21.544 c 90.242 21.544 90.641 21.708
 90.953 22.044 c 91.266 22.387 91.422 22.829 91.422 23.372 c 91.422 23.731
 l h
93.094 24.356 m 93.094 20.481 l 91.547 20.481 l 91.516 21.575 l 91.234 
21.157 90.895 20.841 90.5 20.622 c 90.113 20.415 89.688 20.309 89.219 20.309
 c 88.531 20.309 87.977 20.505 87.563 20.903 c 87.145 21.298 86.938 21.813
 86.938 22.45 c 86.938 23.208 87.234 23.778 87.828 24.153 c 88.43 24.528
 89.328 24.716 90.516 24.716 c 91.422 24.716 l 91.422 24.825 l 91.422 25.282
 91.27 25.637 90.969 25.887 c 90.676 26.145 90.266 26.278 89.734 26.278 
c 89.43 26.278 89.117 26.231 88.797 26.137 c 88.473 26.051 88.141 25.919
 87.797 25.731 c 87.766 26.981 l 88.172 27.145 88.566 27.266 88.953 27.341
 c 89.348 27.423 89.75 27.466 90.156 27.466 c 91.176 27.466 91.922 27.216
 92.391 26.716 c 92.859 26.216 93.094 25.426 93.094 24.356 c h
93.094 24.356 m f
98.523 27.278 m 100.414 27.278 l 102.102 22.075 l 103.758 27.278 l 105.523
 27.278 l 102.836 20.169 l 102.469 19.192 102.07 18.512 101.633 18.137 c
 101.203 17.755 100.641 17.559 99.945 17.559 c 99.82 17.559 99.672 17.571
 99.508 17.591 c 99.352 17.602 99.164 17.63 98.945 17.669 c 99.102 19.028
 l 99.195 18.997 99.289 18.977 99.383 18.966 c 99.477 18.946 99.57 18.934
 99.664 18.934 c 99.996 18.934 100.281 19.04 100.523 19.247 c 100.762 19.446
 100.992 19.774 101.211 20.231 c h
98.523 27.278 m f
110.051 29.794 m 116.816 29.794 l 116.816 28.356 l 114.332 28.356 l 114.332
 20.481 l 112.504 20.481 l 112.504 28.356 l 110.051 28.356 l h
110.051 29.794 m f
122.559 23.95 m 122.559 23.403 l 117.762 23.403 l 117.813 22.829 118.035
 22.376 118.434 22.044 c 118.828 21.719 119.348 21.559 119.996 21.559 c 
120.348 21.559 120.691 21.598 121.027 21.684 c 121.359 21.766 121.684 21.891
 121.996 22.059 c 121.996 20.716 l 121.66 20.579 121.301 20.481 120.918 
20.419 c 120.531 20.348 120.121 20.309 119.684 20.309 c 118.547 20.309 117.656
 20.63 117.012 21.278 c 116.375 21.934 116.059 22.841 116.059 23.997 c 116.059
 25.028 116.371 25.86 116.996 26.497 c 117.621 27.141 118.434 27.466 119.434
 27.466 c 120.422 27.466 121.188 27.157 121.73 26.544 c 122.281 25.926 122.559
 25.063 122.559 23.95 c h
120.98 24.497 m 120.926 25.067 120.762 25.516 120.48 25.841 c 120.207 26.161
 119.855 26.325 119.418 26.325 c 118.969 26.325 118.598 26.161 118.309 25.841
 c 118.016 25.516 117.832 25.067 117.762 24.497 c h
120.98 24.497 m f
129.199 27.106 m 129.059 25.747 l 128.754 25.872 128.496 25.958 128.277
 26.012 c 128.059 26.063 127.863 26.091 127.699 26.091 c 127.043 26.091 
126.512 25.887 126.105 25.481 c 125.707 25.083 125.512 24.559 125.512 23.903
 c 125.512 23.247 125.707 22.708 126.105 22.294 c 126.512 21.876 127.031
 21.669 127.668 21.669 c 127.895 21.669 128.129 21.704 128.371 21.778 c 
128.609 21.848 128.879 21.966 129.184 22.122 c 129.246 20.731 l 128.754 
20.563 128.375 20.458 128.105 20.403 c 127.832 20.341 127.578 20.309 127.34
 20.309 c 126.223 20.309 125.332 20.637 124.668 21.294 c 124.012 21.958 
123.684 22.841 123.684 23.934 c 123.684 24.954 124.02 25.798 124.699 26.466
 c 125.387 27.13 126.262 27.466 127.324 27.466 c 127.707 27.466 128.223 
27.376 128.871 27.2 c 129.016 27.157 129.125 27.126 129.199 27.106 c h
129.199 27.106 m f
137.375 24.528 m 137.375 20.481 l 135.609 20.481 l 135.609 24.153 l 135.609
 24.786 135.5 25.251 135.281 25.544 c 135.063 25.844 134.723 25.997 134.266
 25.997 c 133.773 25.997 133.383 25.801 133.094 25.419 c 132.813 25.044 
132.672 24.52 132.672 23.856 c 132.672 20.481 l 130.922 20.481 l 130.922
 27.278 l 132.516 27.278 l 132.516 26.059 l 132.773 26.516 133.109 26.864
 133.516 27.106 c 133.93 27.344 134.406 27.466 134.938 27.466 c 135.738 
27.466 136.344 27.216 136.75 26.716 c 137.164 26.216 137.375 25.485 137.375
 24.528 c h
137.375 24.528 m f
142.645 26.2 m 142.113 26.2 141.68 25.985 141.348 25.559 c 141.023 25.141
 140.863 24.591 140.863 23.903 c 140.863 23.223 141.023 22.673 141.348 22.247
 c 141.68 21.829 142.113 21.622 142.645 21.622 c 143.184 21.622 143.617 
21.829 143.941 22.247 c 144.262 22.661 144.426 23.216 144.426 23.903 c 144.426
 24.598 144.258 25.157 143.926 25.575 c 143.602 25.989 143.176 26.2 142.645
 26.2 c h
142.645 27.466 m 143.77 27.466 144.652 27.145 145.301 26.512 c 145.945 
25.876 146.27 25.001 146.27 23.887 c 146.27 22.782 145.945 21.907 145.301
 21.262 c 144.652 20.626 143.77 20.309 142.645 20.309 c 141.52 20.309 140.633
 20.626 139.988 21.262 c 139.352 21.895 139.035 22.77 139.035 23.887 c 139.035
 25.001 139.352 25.876 139.988 26.512 c 140.633 27.145 141.52 27.466 142.645
 27.466 c h
142.645 27.466 m f
148.039 30.528 1.734 -10.047 re f
155.141 26.2 m 154.609 26.2 154.176 25.985 153.844 25.559 c 153.52 25.141
 153.359 24.591 153.359 23.903 c 153.359 23.223 153.52 22.673 153.844 22.247
 c 154.176 21.829 154.609 21.622 155.141 21.622 c 155.68 21.622 156.113 
21.829 156.438 22.247 c 156.758 22.661 156.922 23.216 156.922 23.903 c 156.922
 24.598 156.754 25.157 156.422 25.575 c 156.098 25.989 155.672 26.2 155.141
 26.2 c h
155.141 27.466 m 156.266 27.466 157.148 27.145 157.797 26.512 c 158.441
 25.876 158.766 25.001 158.766 23.887 c 158.766 22.782 158.441 21.907 157.797
 21.262 c 157.148 20.626 156.266 20.309 155.141 20.309 c 154.016 20.309 
153.129 20.626 152.484 21.262 c 151.848 21.895 151.531 22.77 151.531 23.887
 c 151.531 25.001 151.848 25.876 152.484 26.512 c 153.129 27.145 154.016
 27.466 155.141 27.466 c h
155.141 27.466 m f
163.582 26.137 m 163.102 26.137 162.711 25.942 162.41 25.559 c 162.117 
25.173 161.973 24.661 161.973 24.028 c 161.973 23.372 162.117 22.844 162.41
 22.45 c 162.711 22.063 163.105 21.872 163.598 21.872 c 164.086 21.872 164.488
 22.063 164.801 22.45 c 165.113 22.833 165.27 23.329 165.27 23.934 c 165.27
 24.61 165.117 25.145 164.816 25.544 c 164.512 25.938 164.102 26.137 163.582
 26.137 c h
165.41 26.122 m 165.41 27.278 l 167.035 27.278 l 167.035 21.309 l 167.035
 20.051 166.723 19.114 166.098 18.497 c 165.473 17.872 164.523 17.559 163.254
 17.559 c 162.848 17.559 162.441 17.598 162.035 17.669 c 161.637 17.743 
161.246 17.848 160.863 17.981 c 160.973 19.387 l 161.336 19.212 161.695 
19.075 162.051 18.981 c 162.402 18.887 162.754 18.841 163.098 18.841 c 163.793
 18.841 164.34 19.036 164.738 19.419 c 165.133 19.805 165.332 20.341 165.332
 21.028 c 165.332 21.778 l 165.027 21.341 164.691 21.016 164.316 20.809 
c 163.949 20.61 163.535 20.512 163.066 20.512 c 162.18 20.512 161.465 20.825
 160.926 21.45 c 160.395 22.075 160.129 22.903 160.129 23.934 c 160.129 
24.985 160.398 25.833 160.941 26.481 c 161.48 27.137 162.184 27.466 163.051
 27.466 c 163.559 27.466 164.008 27.348 164.395 27.122 c 164.789 26.903 
165.129 26.567 165.41 26.122 c h
165.41 26.122 m f
169.18 27.278 m 170.914 27.278 l 170.914 20.481 l 169.18 20.481 l h
170.836 30.559 m 172.367 30.559 l 170.352 28.2 l 169.523 28.2 l h
170.836 30.559 m f
176.48 23.731 m 175.77 23.731 175.234 23.63 174.871 23.434 c 174.516 23.235
 174.34 22.938 174.34 22.544 c 174.34 22.251 174.438 22.012 174.637 21.825
 c 174.844 21.637 175.113 21.544 175.449 21.544 c 175.926 21.544 176.324
 21.708 176.637 22.044 c 176.949 22.387 177.105 22.829 177.105 23.372 c 
177.105 23.731 l h
178.777 24.356 m 178.777 20.481 l 177.23 20.481 l 177.199 21.575 l 176.918
 21.157 176.578 20.841 176.184 20.622 c 175.797 20.415 175.371 20.309 174.902
 20.309 c 174.215 20.309 173.66 20.505 173.246 20.903 c 172.828 21.298 172.621
 21.813 172.621 22.45 c 172.621 23.208 172.918 23.778 173.512 24.153 c 174.113
 24.528 175.012 24.716 176.199 24.716 c 177.105 24.716 l 177.105 24.825 
l 177.105 25.282 176.953 25.637 176.652 25.887 c 176.359 26.145 175.949 
26.278 175.418 26.278 c 175.113 26.278 174.801 26.231 174.48 26.137 c 174.156
 26.051 173.824 25.919 173.48 25.731 c 173.449 26.981 l 173.855 27.145 174.25
 27.266 174.637 27.341 c 175.031 27.423 175.434 27.466 175.84 27.466 c 176.859
 27.466 177.605 27.216 178.074 26.716 c 178.543 26.216 178.777 25.426 178.777
 24.356 c h
178.777 24.356 m f
5.055 12.466 m 5.023 11.309 l 4.75 11.466 4.461 11.579 4.148 11.653 c 3.836
 11.735 3.512 11.778 3.18 11.778 c 2.617 11.778 2.18 11.657 1.867 11.419
 c 1.563 11.176 1.414 10.844 1.414 10.419 c 1.414 9.876 1.977 9.278 3.102
 8.622 c 3.309 8.505 3.465 8.419 3.57 8.356 c 4.359 7.887 4.902 7.454 5.195
 7.059 c 5.496 6.661 5.648 6.2 5.648 5.669 c 5.648 4.844 5.34 4.176 4.727
 3.669 c 4.121 3.169 3.32 2.919 2.32 2.919 c 1.914 2.919 1.516 2.962 1.133
 3.044 c 0.758 3.114 0.406 3.223 0.086 3.372 c 0.211 4.512 l 0.531 4.325
 0.875 4.176 1.242 4.075 c 1.617 3.969 1.996 3.919 2.383 3.919 c 2.965 3.919
 3.418 4.048 3.742 4.309 c 4.063 4.579 4.227 4.95 4.227 5.419 c 4.227 5.794
 4.109 6.122 3.883 6.403 c 3.652 6.684 3.094 7.075 2.211 7.575 c 1.305 8.106
 0.703 8.548 0.414 8.903 c 0.133 9.266 -0.008 9.684 -0.008 10.153 c -0.008
 10.923 0.277 11.548 0.852 12.028 c 1.434 12.516 2.184 12.762 3.102 12.762
 c 3.445 12.762 3.773 12.735 4.086 12.684 c 4.406 12.641 4.73 12.567 5.055
 12.466 c h
5.055 12.466 m f
13.078 6.262 m 8.531 6.262 l 8.563 5.469 8.77 4.872 9.156 4.466 c 9.539
 4.059 10.094 3.856 10.813 3.856 c 11.113 3.856 11.414 3.891 11.719 3.966
 c 12.02 4.036 12.332 4.153 12.656 4.309 c 12.688 3.356 l 12.395 3.208 12.07
 3.106 11.719 3.044 c 11.375 2.973 11.004 2.934 10.609 2.934 c 9.453 2.934
 8.582 3.235 8 3.841 c 7.426 4.442 7.141 5.344 7.141 6.544 c 7.141 7.657
 7.422 8.544 7.984 9.2 c 8.547 9.864 9.301 10.2 10.25 10.2 c 11.113 10.2
 11.801 9.903 12.313 9.309 c 12.832 8.723 13.094 7.938 13.094 6.95 c 13.094
 6.739 13.094 6.591 13.094 6.497 c 13.094 6.403 13.086 6.325 13.078 6.262
 c h
11.781 7.075 m 11.781 7.122 l 11.781 7.817 11.648 8.348 11.391 8.716 c 
11.129 9.091 10.75 9.278 10.25 9.278 c 9.727 9.278 9.32 9.094 9.031 8.731
 c 8.75 8.364 8.578 7.813 8.516 7.075 c h
11.781 7.075 m f
19.707 9.95 m 19.676 8.903 l 19.434 9.016 19.207 9.098 18.988 9.153 c 18.777
 9.204 18.555 9.231 18.316 9.231 c 17.543 9.231 16.961 9.016 16.566 8.591
 c 16.168 8.161 15.973 7.532 15.973 6.7 c 15.973 5.794 16.176 5.094 16.582
 4.606 c 16.996 4.126 17.586 3.887 18.348 3.887 c 18.574 3.887 18.805 3.907
 19.035 3.95 c 19.262 4.001 19.508 4.079 19.77 4.184 c 19.816 3.216 l 19.535
 3.122 19.242 3.055 18.941 3.012 c 18.648 2.962 18.352 2.934 18.051 2.934
 c 16.965 2.934 16.113 3.255 15.488 3.903 c 14.863 4.548 14.551 5.442 14.551
 6.591 c 14.551 7.704 14.867 8.583 15.504 9.231 c 16.148 9.876 17.02 10.2
 18.113 10.2 c 18.371 10.2 18.633 10.176 18.895 10.137 c 19.152 10.094 19.426
 10.032 19.707 9.95 c h
19.707 9.95 m f
25.969 9.95 m 25.938 8.903 l 25.695 9.016 25.469 9.098 25.25 9.153 c 25.039
 9.204 24.816 9.231 24.578 9.231 c 23.805 9.231 23.223 9.016 22.828 8.591
 c 22.43 8.161 22.234 7.532 22.234 6.7 c 22.234 5.794 22.438 5.094 22.844
 4.606 c 23.258 4.126 23.848 3.887 24.609 3.887 c 24.836 3.887 25.066 3.907
 25.297 3.95 c 25.523 4.001 25.77 4.079 26.031 4.184 c 26.078 3.216 l 25.797
 3.122 25.504 3.055 25.203 3.012 c 24.91 2.962 24.613 2.934 24.313 2.934
 c 23.227 2.934 22.375 3.255 21.75 3.903 c 21.125 4.548 20.813 5.442 20.813
 6.591 c 20.813 7.704 21.129 8.583 21.766 9.231 c 22.41 9.876 23.281 10.2
 24.375 10.2 c 24.633 10.2 24.895 10.176 25.156 10.137 c 25.414 10.094 25.688
 10.032 25.969 9.95 c h
25.969 9.95 m f
27.527 10.059 m 28.855 10.059 l 28.855 3.059 l 27.527 3.059 l h
27.449 12.903 m 28.918 12.903 l 28.918 11.544 l 27.449 11.544 l h
27.449 12.903 m f
34.047 9.262 m 33.453 9.262 32.992 9.028 32.672 8.559 c 32.359 8.091 32.203
 7.423 32.203 6.559 c 32.203 5.692 32.359 5.028 32.672 4.559 c 32.992 4.098
 33.453 3.872 34.047 3.872 c 34.641 3.872 35.094 4.098 35.406 4.559 c 35.727
 5.028 35.891 5.692 35.891 6.559 c 35.891 7.423 35.727 8.091 35.406 8.559
 c 35.094 9.028 34.641 9.262 34.047 9.262 c h
34.047 10.2 m 35.098 10.2 35.906 9.88 36.469 9.247 c 37.031 8.622 37.313
 7.723 37.313 6.559 c 37.313 5.391 37.023 4.489 36.453 3.856 c 35.891 3.231
 35.086 2.919 34.047 2.919 c 33.004 2.919 32.195 3.231 31.625 3.856 c 31.063
 4.489 30.781 5.391 30.781 6.559 c 30.781 7.723 31.063 8.622 31.625 9.247
 c 32.195 9.88 33.004 10.2 34.047 10.2 c h
34.719 13.325 m 36.156 13.325 l 33.922 10.934 l 33.094 10.934 l h
34.719 13.325 m f
44.949 7.934 m 44.949 3.059 l 43.605 3.059 l 43.605 7.762 l 43.605 8.239
 43.5 8.594 43.293 8.825 c 43.082 9.063 42.766 9.184 42.34 9.184 c 41.816
 9.184 41.402 9.012 41.09 8.669 c 40.785 8.333 40.637 7.872 40.637 7.278
 c 40.637 3.059 l 39.293 3.059 l 39.293 8.309 l 39.293 8.567 39.285 8.841
 39.277 9.122 c 39.266 9.411 39.246 9.723 39.215 10.059 c 40.449 10.059 
l 40.469 9.841 40.488 9.512 40.512 9.075 c 40.512 9.044 l 40.73 9.407 41.027
 9.688 41.402 9.887 c 41.777 10.094 42.199 10.2 42.668 10.2 c 43.395 10.2
 43.957 10.001 44.355 9.606 c 44.75 9.219 44.949 8.661 44.949 7.934 c h
44.949 7.934 m f
55.832 6.981 m 55.832 7.7 55.68 8.255 55.379 8.653 c 55.086 9.048 54.664
 9.247 54.113 9.247 c 53.551 9.247 53.121 9.016 52.832 8.559 c 52.551 8.11
 52.41 7.442 52.41 6.559 c 52.41 5.661 52.551 4.985 52.832 4.528 c 53.121
 4.079 53.551 3.856 54.113 3.856 c 54.664 3.856 55.086 4.051 55.379 4.45
 c 55.68 4.844 55.832 5.411 55.832 6.153 c h
55.832 13.341 m 57.176 13.341 l 57.176 3.059 l 56.004 3.059 l 55.973 3.298
 55.949 3.497 55.941 3.653 c 55.941 3.809 55.941 3.954 55.941 4.091 c 55.668
 3.684 55.363 3.387 55.02 3.2 c 54.684 3.012 54.285 2.919 53.816 2.919 c
 52.898 2.919 52.195 3.223 51.707 3.841 c 51.227 4.466 50.988 5.372 50.988
 6.559 c 50.988 7.778 51.23 8.688 51.723 9.294 c 52.211 9.895 52.945 10.2
 53.926 10.2 c 54.332 10.2 54.691 10.11 55.004 9.934 c 55.324 9.755 55.602
 9.489 55.832 9.137 c h
55.832 13.341 m f
65.063 6.262 m 60.516 6.262 l 60.547 5.469 60.754 4.872 61.141 4.466 c 
61.523 4.059 62.078 3.856 62.797 3.856 c 63.098 3.856 63.398 3.891 63.703
 3.966 c 64.004 4.036 64.316 4.153 64.641 4.309 c 64.672 3.356 l 64.379 
3.208 64.055 3.106 63.703 3.044 c 63.359 2.973 62.988 2.934 62.594 2.934
 c 61.438 2.934 60.566 3.235 59.984 3.841 c 59.41 4.442 59.125 5.344 59.125
 6.544 c 59.125 7.657 59.406 8.544 59.969 9.2 c 60.531 9.864 61.285 10.2
 62.234 10.2 c 63.098 10.2 63.785 9.903 64.297 9.309 c 64.816 8.723 65.078
 7.938 65.078 6.95 c 65.078 6.739 65.078 6.591 65.078 6.497 c 65.078 6.403
 65.07 6.325 65.063 6.262 c h
63.766 7.075 m 63.766 7.122 l 63.766 7.817 63.633 8.348 63.375 8.716 c 
63.113 9.091 62.734 9.278 62.234 9.278 c 61.711 9.278 61.305 9.094 61.016
 8.731 c 60.734 8.364 60.563 7.813 60.5 7.075 c h
63.766 7.075 m f
71.313 12.622 1.391 -9.563 re f
80.945 7.934 m 80.945 3.059 l 79.602 3.059 l 79.602 7.762 l 79.602 8.239
 79.496 8.594 79.289 8.825 c 79.078 9.063 78.762 9.184 78.336 9.184 c 77.813
 9.184 77.398 9.012 77.086 8.669 c 76.781 8.333 76.633 7.872 76.633 7.278
 c 76.633 3.059 l 75.289 3.059 l 75.289 8.309 l 75.289 8.567 75.281 8.841
 75.273 9.122 c 75.262 9.411 75.242 9.723 75.211 10.059 c 76.445 10.059 
l 76.465 9.841 76.484 9.512 76.508 9.075 c 76.508 9.044 l 76.727 9.407 77.023
 9.688 77.398 9.887 c 77.773 10.094 78.195 10.2 78.664 10.2 c 79.391 10.2
 79.953 10.001 80.352 9.606 c 80.746 9.219 80.945 8.661 80.945 7.934 c h
80.945 7.934 m f
87.676 7.044 m 87.676 7.751 87.523 8.298 87.223 8.684 c 86.918 9.067 86.496
 9.262 85.957 9.262 c 85.395 9.262 84.965 9.044 84.676 8.606 c 84.395 8.169
 84.254 7.512 84.254 6.637 c 84.254 5.762 84.395 5.098 84.676 4.653 c 84.965
 4.216 85.395 3.997 85.957 3.997 c 86.496 3.997 86.918 4.188 87.223 4.575
 c 87.523 4.958 87.676 5.512 87.676 6.231 c h
87.785 9.028 m 87.793 9.298 87.805 9.505 87.816 9.653 c 87.824 9.809 87.836
 9.942 87.848 10.059 c 89.098 10.059 l 89.074 9.653 89.055 9.282 89.035 
8.95 c 89.023 8.626 89.02 8.391 89.02 8.247 c 89.02 3.825 l 89.02 2.411 
88.746 1.419 88.207 0.856 c 87.664 0.286 86.754 -0.003 85.473 -0.003 c 85.043
 -0.003 84.637 0.036 84.254 0.106 c 83.867 0.169 83.492 0.262 83.129 0.387
 c 83.238 1.466 l 83.613 1.278 83.977 1.145 84.332 1.059 c 84.695 0.977 
85.074 0.934 85.473 0.934 c 86.262 0.934 86.832 1.145 87.176 1.559 c 87.52
 1.977 87.691 2.665 87.691 3.622 c 87.691 3.673 87.684 3.751 87.676 3.856
 c 87.676 3.958 87.676 4.036 87.676 4.091 c 87.434 3.735 87.152 3.473 86.832
 3.309 c 86.508 3.141 86.121 3.059 85.676 3.059 c 84.746 3.059 84.039 3.36
 83.551 3.966 c 83.07 4.567 82.832 5.454 82.832 6.622 c 82.832 7.778 83.074
 8.661 83.566 9.278 c 84.055 9.891 84.754 10.2 85.66 10.2 c 86.129 10.2 
86.527 10.106 86.863 9.919 c 87.207 9.731 87.512 9.434 87.785 9.028 c h
87.785 9.028 m f
96.906 6.262 m 92.359 6.262 l 92.391 5.469 92.598 4.872 92.984 4.466 c 
93.367 4.059 93.922 3.856 94.641 3.856 c 94.941 3.856 95.242 3.891 95.547
 3.966 c 95.848 4.036 96.16 4.153 96.484 4.309 c 96.516 3.356 l 96.223 3.208
 95.898 3.106 95.547 3.044 c 95.203 2.973 94.832 2.934 94.438 2.934 c 93.281
 2.934 92.41 3.235 91.828 3.841 c 91.254 4.442 90.969 5.344 90.969 6.544
 c 90.969 7.657 91.25 8.544 91.813 9.2 c 92.375 9.864 93.129 10.2 94.078
 10.2 c 94.941 10.2 95.629 9.903 96.141 9.309 c 96.66 8.723 96.922 7.938
 96.922 6.95 c 96.922 6.739 96.922 6.591 96.922 6.497 c 96.922 6.403 96.914
 6.325 96.906 6.262 c h
95.609 7.075 m 95.609 7.122 l 95.609 7.817 95.477 8.348 95.219 8.716 c 
94.957 9.091 94.578 9.278 94.078 9.278 c 93.555 9.278 93.148 9.094 92.859
 8.731 c 92.578 8.364 92.406 7.813 92.344 7.075 c h
95.609 7.075 m f
104.523 7.934 m 104.523 3.059 l 103.18 3.059 l 103.18 7.762 l 103.18 8.239
 103.074 8.594 102.867 8.825 c 102.656 9.063 102.34 9.184 101.914 9.184 
c 101.391 9.184 100.977 9.012 100.664 8.669 c 100.359 8.333 100.211 7.872
 100.211 7.278 c 100.211 3.059 l 98.867 3.059 l 98.867 8.309 l 98.867 8.567
 98.859 8.841 98.852 9.122 c 98.84 9.411 98.82 9.723 98.789 10.059 c 100.023
 10.059 l 100.043 9.841 100.063 9.512 100.086 9.075 c 100.086 9.044 l 100.305
 9.407 100.602 9.688 100.977 9.887 c 101.352 10.094 101.773 10.2 102.242
 10.2 c 102.969 10.2 103.531 10.001 103.93 9.606 c 104.324 9.219 104.523
 8.661 104.523 7.934 c h
104.523 7.934 m f
106.863 10.059 m 108.191 10.059 l 108.191 3.059 l 106.863 3.059 l h
106.785 12.903 m 108.254 12.903 l 108.254 11.544 l 106.785 11.544 l h
106.785 12.903 m f
116.039 6.262 m 111.492 6.262 l 111.523 5.469 111.73 4.872 112.117 4.466
 c 112.5 4.059 113.055 3.856 113.773 3.856 c 114.074 3.856 114.375 3.891
 114.68 3.966 c 114.98 4.036 115.293 4.153 115.617 4.309 c 115.648 3.356
 l 115.355 3.208 115.031 3.106 114.68 3.044 c 114.336 2.973 113.965 2.934
 113.57 2.934 c 112.414 2.934 111.543 3.235 110.961 3.841 c 110.387 4.442
 110.102 5.344 110.102 6.544 c 110.102 7.657 110.383 8.544 110.945 9.2 c
 111.508 9.864 112.262 10.2 113.211 10.2 c 114.074 10.2 114.762 9.903 115.273
 9.309 c 115.793 8.723 116.055 7.938 116.055 6.95 c 116.055 6.739 116.055
 6.591 116.055 6.497 c 116.055 6.403 116.047 6.325 116.039 6.262 c h
114.742 7.075 m 114.742 7.122 l 114.742 7.817 114.609 8.348 114.352 8.716
 c 114.09 9.091 113.711 9.278 113.211 9.278 c 112.688 9.278 112.281 9.094
 111.992 8.731 c 111.711 8.364 111.539 7.813 111.477 7.075 c h
114.742 7.075 m f
121.5 10.184 m 121.484 9.044 l 121.422 9.044 121.363 9.044 121.313 9.044
 c 121.258 9.051 121.207 9.059 121.156 9.059 c 120.57 9.059 120.117 8.887
 119.797 8.544 c 119.484 8.2 119.328 7.704 119.328 7.059 c 119.328 3.059
 l 118 3.059 l 118 8.309 l 118 8.567 117.992 8.841 117.984 9.122 c 117.973
 9.411 117.953 9.723 117.922 10.059 c 119.156 10.059 l 119.176 9.735 119.191
 9.489 119.203 9.325 c 119.211 9.169 119.219 9.016 119.219 8.872 c 119.426
 9.309 119.707 9.637 120.063 9.856 c 120.414 10.075 120.844 10.184 121.344
 10.184 c h
121.5 10.184 m f
122.809 10.059 m 124.137 10.059 l 124.137 3.059 l 122.809 3.059 l h
124.293 13.325 m 125.73 13.325 l 123.496 10.934 l 122.668 10.934 l h
124.293 13.325 m f
130.422 6.544 m 130.328 6.551 130.223 6.559 130.109 6.559 c 130.004 6.559
 129.836 6.559 129.609 6.559 c 128.785 6.559 128.176 6.434 127.781 6.184
 c 127.383 5.942 127.188 5.579 127.188 5.091 c 127.188 4.692 127.305 4.387
 127.547 4.169 c 127.797 3.95 128.141 3.841 128.578 3.841 c 129.211 3.841
 129.676 4.012 129.969 4.356 c 130.27 4.708 130.422 5.262 130.422 6.012 
c h
131.734 7.356 m 131.734 4.387 l 131.734 4.106 131.738 3.86 131.75 3.653
 c 131.77 3.442 131.789 3.247 131.813 3.059 c 130.578 3.059 l 130.453 3.903
 l 130.191 3.567 129.879 3.317 129.516 3.153 c 129.148 2.997 128.723 2.919
 128.234 2.919 c 127.516 2.919 126.938 3.106 126.5 3.481 c 126.07 3.864 
125.859 4.38 125.859 5.028 c 125.859 5.786 126.176 6.364 126.813 6.762 c
 127.445 7.157 128.391 7.356 129.641 7.356 c 129.672 7.356 129.77 7.348 
129.938 7.341 c 130.102 7.329 130.266 7.325 130.422 7.325 c 130.422 7.747
 l 130.422 8.247 130.273 8.626 129.984 8.887 c 129.691 9.145 129.266 9.278
 128.703 9.278 c 128.316 9.278 127.957 9.216 127.625 9.091 c 127.289 8.973
 126.988 8.801 126.719 8.575 c 126.563 9.606 l 126.926 9.794 127.313 9.938
 127.719 10.044 c 128.125 10.145 128.52 10.2 128.906 10.2 c 129.926 10.2
 130.648 9.985 131.078 9.559 c 131.516 9.141 131.734 8.407 131.734 7.356
 c h
131.734 7.356 m f
138.422 12.622 1.391 -9.563 re f
148.055 7.934 m 148.055 3.059 l 146.711 3.059 l 146.711 7.762 l 146.711
 8.239 146.605 8.594 146.398 8.825 c 146.188 9.063 145.871 9.184 145.445
 9.184 c 144.922 9.184 144.508 9.012 144.195 8.669 c 143.891 8.333 143.742
 7.872 143.742 7.278 c 143.742 3.059 l 142.398 3.059 l 142.398 8.309 l 142.398
 8.567 142.391 8.841 142.383 9.122 c 142.371 9.411 142.352 9.723 142.32 
10.059 c 143.555 10.059 l 143.574 9.841 143.594 9.512 143.617 9.075 c 143.617
 9.044 l 143.836 9.407 144.133 9.688 144.508 9.887 c 144.883 10.094 145.305
 10.2 145.773 10.2 c 146.5 10.2 147.063 10.001 147.461 9.606 c 147.855 9.219
 148.055 8.661 148.055 7.934 c h
148.055 7.934 m f
153.691 13.387 m 153.691 12.45 l 153.512 12.481 153.371 12.501 153.27 12.512
 c 153.176 12.52 153.09 12.528 153.02 12.528 c 152.645 12.528 152.379 12.442
 152.223 12.278 c 152.074 12.11 152.004 11.801 152.004 11.356 c 152.004 
10.059 l 153.426 10.059 l 153.426 9.169 l 152.004 9.169 l 152.004 3.059 
l 150.676 3.059 l 150.676 9.169 l 149.332 9.169 l 149.332 10.059 l 150.676
 10.059 l 150.676 11.372 l 150.676 12.13 150.836 12.673 151.16 12.997 c 
151.48 13.317 152.02 13.481 152.77 13.481 c 152.902 13.481 153.043 13.469
 153.191 13.45 c 153.348 13.438 153.512 13.419 153.691 13.387 c h
153.691 13.387 m f
157.609 9.262 m 157.016 9.262 156.555 9.028 156.234 8.559 c 155.922 8.091
 155.766 7.423 155.766 6.559 c 155.766 5.692 155.922 5.028 156.234 4.559
 c 156.555 4.098 157.016 3.872 157.609 3.872 c 158.203 3.872 158.656 4.098
 158.969 4.559 c 159.289 5.028 159.453 5.692 159.453 6.559 c 159.453 7.423
 159.289 8.091 158.969 8.559 c 158.656 9.028 158.203 9.262 157.609 9.262
 c h
157.609 10.2 m 158.66 10.2 159.469 9.88 160.031 9.247 c 160.594 8.622 160.875
 7.723 160.875 6.559 c 160.875 5.391 160.586 4.489 160.016 3.856 c 159.453
 3.231 158.648 2.919 157.609 2.919 c 156.566 2.919 155.758 3.231 155.188
 3.856 c 154.625 4.489 154.344 5.391 154.344 6.559 c 154.344 7.723 154.625
 8.622 155.188 9.247 c 155.758 9.88 156.566 10.2 157.609 10.2 c h
157.609 10.2 m f
166.355 10.184 m 166.34 9.044 l 166.277 9.044 166.219 9.044 166.168 9.044
 c 166.113 9.051 166.063 9.059 166.012 9.059 c 165.426 9.059 164.973 8.887
 164.652 8.544 c 164.34 8.2 164.184 7.704 164.184 7.059 c 164.184 3.059 
l 162.855 3.059 l 162.855 8.309 l 162.855 8.567 162.848 8.841 162.84 9.122
 c 162.828 9.411 162.809 9.723 162.777 10.059 c 164.012 10.059 l 164.031
 9.735 164.047 9.489 164.059 9.325 c 164.066 9.169 164.074 9.016 164.074
 8.872 c 164.281 9.309 164.563 9.637 164.918 9.856 c 165.27 10.075 165.699
 10.184 166.199 10.184 c h
166.355 10.184 m f
172.902 9.075 m 173.172 9.458 173.48 9.739 173.824 9.919 c 174.168 10.106
 174.574 10.2 175.043 10.2 c 175.719 10.2 176.246 10.001 176.621 9.606 c
 176.996 9.219 177.184 8.661 177.184 7.934 c 177.184 3.059 l 175.855 3.059
 l 175.855 7.762 l 175.855 8.239 175.75 8.594 175.543 8.825 c 175.344 9.063
 175.047 9.184 174.652 9.184 c 174.172 9.184 173.793 9.012 173.512 8.669
 c 173.238 8.325 173.105 7.844 173.105 7.231 c 173.105 3.059 l 171.777 3.059
 l 171.777 7.762 l 171.777 8.239 171.676 8.594 171.48 8.825 c 171.281 9.063
 170.98 9.184 170.574 9.184 c 170.094 9.184 169.715 9.012 169.434 8.669 
c 169.16 8.325 169.027 7.844 169.027 7.231 c 169.027 3.059 l 167.699 3.059
 l 167.699 8.309 l 167.699 8.567 167.691 8.841 167.684 9.122 c 167.672 9.411
 167.652 9.723 167.621 10.059 c 168.855 10.059 l 168.875 9.841 168.895 9.512
 168.918 9.075 c 168.918 9.044 l 169.125 9.407 169.406 9.688 169.762 9.887
 c 170.113 10.094 170.504 10.2 170.934 10.2 c 171.402 10.2 171.809 10.098
 172.152 9.903 c 172.504 9.704 172.754 9.426 172.902 9.075 c h
172.902 9.075 m f
183.418 6.544 m 183.324 6.551 183.219 6.559 183.105 6.559 c 183 6.559 182.832
 6.559 182.605 6.559 c 181.781 6.559 181.172 6.434 180.777 6.184 c 180.379
 5.942 180.184 5.579 180.184 5.091 c 180.184 4.692 180.301 4.387 180.543
 4.169 c 180.793 3.95 181.137 3.841 181.574 3.841 c 182.207 3.841 182.672
 4.012 182.965 4.356 c 183.266 4.708 183.418 5.262 183.418 6.012 c h
184.73 7.356 m 184.73 4.387 l 184.73 4.106 184.734 3.86 184.746 3.653 c
 184.766 3.442 184.785 3.247 184.809 3.059 c 183.574 3.059 l 183.449 3.903
 l 183.188 3.567 182.875 3.317 182.512 3.153 c 182.145 2.997 181.719 2.919
 181.23 2.919 c 180.512 2.919 179.934 3.106 179.496 3.481 c 179.066 3.864
 178.855 4.38 178.855 5.028 c 178.855 5.786 179.172 6.364 179.809 6.762 
c 180.441 7.157 181.387 7.356 182.637 7.356 c 182.668 7.356 182.766 7.348
 182.934 7.341 c 183.098 7.329 183.262 7.325 183.418 7.325 c 183.418 7.747
 l 183.418 8.247 183.27 8.626 182.98 8.887 c 182.688 9.145 182.262 9.278
 181.699 9.278 c 181.313 9.278 180.953 9.216 180.621 9.091 c 180.285 8.973
 179.984 8.801 179.715 8.575 c 179.559 9.606 l 179.922 9.794 180.309 9.938
 180.715 10.044 c 181.121 10.145 181.516 10.2 181.902 10.2 c 182.922 10.2
 183.645 9.985 184.074 9.559 c 184.512 9.141 184.73 8.407 184.73 7.356 c
 h
182.996 13.325 m 184.434 13.325 l 182.199 10.934 l 181.371 10.934 l h
182.996 13.325 m f
188.613 11.825 m 188.613 10.059 l 190.254 10.059 l 190.254 9.169 l 188.613
 9.169 l 188.613 5.2 l 188.613 4.7 188.68 4.36 188.816 4.184 c 188.949 4.016
 189.195 3.934 189.551 3.934 c 189.676 3.934 189.801 3.942 189.926 3.966
 c 190.051 3.985 190.168 4.012 190.285 4.044 c 190.285 3.122 l 190.066 3.079
 189.863 3.051 189.676 3.028 c 189.496 2.997 189.32 2.981 189.145 2.981 
c 188.457 2.981 187.973 3.13 187.691 3.434 c 187.418 3.735 187.285 4.372
 187.285 5.341 c 187.285 9.169 l 186.035 9.169 l 186.035 10.059 l 187.285
 10.059 l 187.285 11.481 l h
188.613 11.825 m f
191.848 10.059 m 193.176 10.059 l 193.176 3.059 l 191.848 3.059 l h
191.77 12.903 m 193.238 12.903 l 193.238 11.544 l 191.77 11.544 l h
191.77 12.903 m f
200.258 9.95 m 200.227 8.903 l 199.984 9.016 199.758 9.098 199.539 9.153
 c 199.328 9.204 199.105 9.231 198.867 9.231 c 198.094 9.231 197.512 9.016
 197.117 8.591 c 196.719 8.161 196.523 7.532 196.523 6.7 c 196.523 5.794
 196.727 5.094 197.133 4.606 c 197.547 4.126 198.137 3.887 198.898 3.887
 c 199.125 3.887 199.355 3.907 199.586 3.95 c 199.813 4.001 200.059 4.079
 200.32 4.184 c 200.367 3.216 l 200.086 3.122 199.793 3.055 199.492 3.012
 c 199.199 2.962 198.902 2.934 198.602 2.934 c 197.516 2.934 196.664 3.255
 196.039 3.903 c 195.414 4.548 195.102 5.442 195.102 6.591 c 195.102 7.704
 195.418 8.583 196.055 9.231 c 196.699 9.876 197.57 10.2 198.664 10.2 c 
198.922 10.2 199.184 10.176 199.445 10.137 c 199.703 10.094 199.977 10.032
 200.258 9.95 c h
200.258 9.95 m f
205.723 6.544 m 205.629 6.551 205.523 6.559 205.41 6.559 c 205.305 6.559
 205.137 6.559 204.91 6.559 c 204.086 6.559 203.477 6.434 203.082 6.184 
c 202.684 5.942 202.488 5.579 202.488 5.091 c 202.488 4.692 202.605 4.387
 202.848 4.169 c 203.098 3.95 203.441 3.841 203.879 3.841 c 204.512 3.841
 204.977 4.012 205.27 4.356 c 205.57 4.708 205.723 5.262 205.723 6.012 c
 h
207.035 7.356 m 207.035 4.387 l 207.035 4.106 207.039 3.86 207.051 3.653
 c 207.07 3.442 207.09 3.247 207.113 3.059 c 205.879 3.059 l 205.754 3.903
 l 205.492 3.567 205.18 3.317 204.816 3.153 c 204.449 2.997 204.023 2.919
 203.535 2.919 c 202.816 2.919 202.238 3.106 201.801 3.481 c 201.371 3.864
 201.16 4.38 201.16 5.028 c 201.16 5.786 201.477 6.364 202.113 6.762 c 202.746
 7.157 203.691 7.356 204.941 7.356 c 204.973 7.356 205.07 7.348 205.238 
7.341 c 205.402 7.329 205.566 7.325 205.723 7.325 c 205.723 7.747 l 205.723
 8.247 205.574 8.626 205.285 8.887 c 204.992 9.145 204.566 9.278 204.004
 9.278 c 203.617 9.278 203.258 9.216 202.926 9.091 c 202.59 8.973 202.289
 8.801 202.02 8.575 c 201.863 9.606 l 202.227 9.794 202.613 9.938 203.02
 10.044 c 203.426 10.145 203.82 10.2 204.207 10.2 c 205.227 10.2 205.949
 9.985 206.379 9.559 c 206.816 9.141 207.035 8.407 207.035 7.356 c h
207.035 7.356 m f
Q Q
showpage
%%Trailer
end restore
%%EOF
