%!PS-Adobe-3.0 EPSF-3.0
%%Creator: cairo 1.14.1 (http://cairographics.org)
%%CreationDate: Thu Jun 29 17:42:07 2017
%%Pages: 1
%%DocumentData: Clean7Bit
%%LanguageLevel: 2
%%BoundingBox: 0 -1 940 461
%%EndComments
%%BeginProlog
save
50 dict begin
/q { gsave } bind def
/Q { grestore } bind def
/cm { 6 array astore concat } bind def
/w { setlinewidth } bind def
/J { setlinecap } bind def
/j { setlinejoin } bind def
/M { setmiterlimit } bind def
/d { setdash } bind def
/m { moveto } bind def
/l { lineto } bind def
/c { curveto } bind def
/h { closepath } bind def
/re { exch dup neg 3 1 roll 5 3 roll moveto 0 rlineto
      0 exch rlineto 0 rlineto closepath } bind def
/S { stroke } bind def
/f { fill } bind def
/f* { eofill } bind def
/n { newpath } bind def
/W { clip } bind def
/W* { eoclip } bind def
/BT { } bind def
/ET { } bind def
/pdfmark where { pop globaldict /?pdfmark /exec load put }
    { globaldict begin /?pdfmark /pop load def /pdfmark
    /cleartomark load def end } ifelse
/BDC { mark 3 1 roll /BDC pdfmark } bind def
/EMC { mark /EMC pdfmark } bind def
/cairo_store_point { /cairo_point_y exch def /cairo_point_x exch def } def
/Tj { show currentpoint cairo_store_point } bind def
/TJ {
  {
    dup
    type /stringtype eq
    { show } { -0.001 mul 0 cairo_font_matrix dtransform rmoveto } ifelse
  } forall
  currentpoint cairo_store_point
} bind def
/cairo_selectfont { cairo_font_matrix aload pop pop pop 0 0 6 array astore
    cairo_font exch selectfont cairo_point_x cairo_point_y moveto } bind def
/Tf { pop /cairo_font exch def /cairo_font_matrix where
      { pop cairo_selectfont } if } bind def
/Td { matrix translate cairo_font_matrix matrix concatmatrix dup
      /cairo_font_matrix exch def dup 4 get exch 5 get cairo_store_point
      /cairo_font where { pop cairo_selectfont } if } bind def
/Tm { 2 copy 8 2 roll 6 array astore /cairo_font_matrix exch def
      cairo_store_point /cairo_font where { pop cairo_selectfont } if } bind def
/g { setgray } bind def
/rg { setrgbcolor } bind def
/d1 { setcachedevice } bind def
%%EndProlog
%%BeginSetup
%%EndSetup
%%Page: 1 1
%%BeginPageSetup
%%PageBoundingBox: 0 -1 940 461
%%EndPageSetup
q 0 -1 940 462 rectclip q
0.156863 0.164706 0.211765 rg
2.441 460.799 m 937.141 460.799 l 938.492 460.799 939.582 459.811 939.582
 458.584 c 939.582 2.217 l 939.582 0.991 938.492 -0.002 937.141 -0.002 c
 2.441 -0.002 l 1.09 -0.002 0 0.991 0 2.217 c 0 458.584 l 0 459.811 1.09
 460.799 2.441 460.799 c h
2.441 460.799 m f
0.741176 0.576471 0.976471 rg
40.637 399.948 m 49.211 419.311 l 38.875 419.311 l 38.875 421.549 l 51.934
 421.549 l 51.934 419.467 l 43.133 399.213 l h
40.637 399.948 m f
1 g
61.711 401.963 m 61.711 402.756 61.977 403.416 62.512 403.948 c 63.066 
404.502 63.738 404.78 64.527 404.78 c 65.34 404.78 66.012 404.502 66.543
 403.948 c 67.078 403.416 67.344 402.756 67.344 401.963 c 67.344 401.155
 67.078 400.483 66.543 399.948 c 66.012 399.416 65.34 399.151 64.527 399.151
 c 63.738 399.151 63.066 399.416 62.512 399.948 c 61.977 400.502 61.711 
401.174 61.711 401.963 c h
61.711 401.963 m f
84.996 401.452 m 86.469 401.452 87.93 401.944 89.379 402.924 c 90.66 401.166
 l 89.957 400.545 89.082 400.057 88.035 399.694 c 86.988 399.331 85.977 
399.151 84.996 399.151 c 82.5 399.151 80.547 399.928 79.141 401.487 c 77.754
 403.065 77.059 405.186 77.059 407.854 c 77.059 409.538 77.367 411.053 77.988
 412.397 c 78.629 413.741 79.543 414.795 80.738 415.565 c 81.934 416.334
 83.352 416.717 84.996 416.717 c 87.172 416.717 89.047 416.057 90.629 414.733
 c 89.316 412.975 l 87.844 413.956 86.395 414.444 84.965 414.444 c 83.449
 414.444 82.234 413.881 81.316 412.748 c 80.418 411.639 79.973 410.006 79.973
 407.854 c 79.973 405.698 80.418 404.088 81.316 403.022 c 82.234 401.975
 83.461 401.452 84.996 401.452 c h
84.996 401.452 m f
99.223 404.397 m 99.223 403.311 99.445 402.51 99.895 401.998 c 100.363 
401.506 101.09 401.26 102.07 401.26 c 102.965 401.26 103.832 401.518 104.664
 402.03 c 105.496 402.541 106.156 403.182 106.648 403.948 c 106.648 416.366
 l 109.336 416.366 l 109.336 399.502 l 107.031 399.502 l 106.809 401.772
 l 106.145 400.94 105.324 400.291 104.344 399.823 c 103.383 399.373 102.402
 399.151 101.398 399.151 c 99.797 399.151 98.582 399.577 97.75 400.428 c
 96.941 401.284 96.535 402.51 96.535 404.108 c 96.535 416.366 l 99.223 416.366
 l h
99.223 404.397 m f
123.371 401.452 m 124.844 401.452 126.305 401.944 127.754 402.924 c 129.035
 401.166 l 128.332 400.545 127.457 400.057 126.41 399.694 c 125.363 399.331
 124.352 399.151 123.371 399.151 c 120.875 399.151 118.922 399.928 117.516
 401.487 c 116.129 403.065 115.434 405.186 115.434 407.854 c 115.434 409.538
 115.742 411.053 116.363 412.397 c 117.004 413.741 117.918 414.795 119.113
 415.565 c 120.309 416.334 121.727 416.717 123.371 416.717 c 125.547 416.717
 127.422 416.057 129.004 414.733 c 127.691 412.975 l 126.219 413.956 124.77
 414.444 123.34 414.444 c 121.824 414.444 120.609 413.881 119.691 412.748
 c 118.793 411.639 118.348 410.006 118.348 407.854 c 118.348 405.698 118.793
 404.088 119.691 403.022 c 120.609 401.975 121.836 401.452 123.371 401.452
 c h
123.371 401.452 m f
137.598 414.03 m 138.258 414.881 139.07 415.545 140.031 416.014 c 140.988
 416.483 141.98 416.717 143.004 416.717 c 146.164 416.717 147.742 415.053
 147.742 411.725 c 147.742 399.502 l 145.055 399.502 l 145.055 411.694 l
 145.055 412.698 144.82 413.42 144.352 413.87 c 143.879 414.338 143.133 
414.573 142.109 414.573 c 141.234 414.573 140.391 414.295 139.582 413.741
 c 138.77 413.186 138.109 412.538 137.598 411.788 c 137.598 399.502 l 134.91
 399.502 l 134.91 423.116 l 137.598 423.405 l h
137.598 414.03 m f
166.191 403.182 m 166.191 402.518 166.301 402.03 166.512 401.709 c 166.727
 401.409 167.078 401.186 167.57 401.038 c 166.898 399.116 l 165.254 399.331
 164.23 400.131 163.824 401.518 c 163.227 400.748 162.469 400.163 161.555
 399.756 c 160.656 399.35 159.656 399.151 158.547 399.151 c 156.859 399.151
 155.527 399.62 154.547 400.557 c 153.586 401.495 153.105 402.756 153.105
 404.334 c 153.105 406.061 153.777 407.393 155.121 408.334 c 156.488 409.272
 158.438 409.741 160.977 409.741 c 163.473 409.741 l 163.473 411.116 l 163.473
 412.311 163.133 413.166 162.449 413.678 c 161.766 414.209 160.773 414.479
 159.473 414.479 c 158.191 414.479 156.73 414.19 155.09 413.612 c 154.352
 415.663 l 156.336 416.366 158.184 416.717 159.891 416.717 c 161.938 416.717
 163.496 416.237 164.563 415.276 c 165.648 414.319 166.191 412.983 166.191
 411.276 c h
159.219 401.166 m 160.051 401.166 160.84 401.377 161.586 401.807 c 162.352
 402.233 162.984 402.819 163.473 403.565 c 163.473 407.885 l 161.043 407.885
 l 159.25 407.885 157.957 407.588 157.168 406.991 c 156.379 406.393 155.984
 405.518 155.984 404.366 c 155.984 402.233 157.063 401.166 159.219 401.166
 c h
159.219 401.166 m f
184.676 416.717 m 185.359 416.717 186.148 416.6 187.043 416.366 c 186.66
 410.639 l 184.484 410.639 l 184.484 414.252 l 184.324 414.252 l 181.723
 414.252 179.875 412.397 178.789 408.686 c 178.789 401.581 l 182.211 401.581
 l 182.211 399.502 l 173.445 399.502 l 173.445 401.581 l 176.102 401.581
 l 176.102 414.284 l 173.445 414.284 l 173.445 416.366 l 178.117 416.366
 l 178.629 412.366 l 179.313 413.815 180.121 414.905 181.063 415.627 c 182.02
 416.354 183.227 416.717 184.676 416.717 c h
184.676 416.717 m f
204.566 403.182 m 204.566 402.518 204.676 402.03 204.887 401.709 c 205.102
 401.409 205.453 401.186 205.945 401.038 c 205.273 399.116 l 203.629 399.331
 202.605 400.131 202.199 401.518 c 201.602 400.748 200.844 400.163 199.93
 399.756 c 199.031 399.35 198.031 399.151 196.922 399.151 c 195.234 399.151
 193.902 399.62 192.922 400.557 c 191.961 401.495 191.48 402.756 191.48 
404.334 c 191.48 406.061 192.152 407.393 193.496 408.334 c 194.863 409.272
 196.813 409.741 199.352 409.741 c 201.848 409.741 l 201.848 411.116 l 201.848
 412.311 201.508 413.166 200.824 413.678 c 200.141 414.209 199.148 414.479
 197.848 414.479 c 196.566 414.479 195.105 414.19 193.465 413.612 c 192.727
 415.663 l 194.711 416.366 196.559 416.717 198.266 416.717 c 200.313 416.717
 201.871 416.237 202.938 415.276 c 204.023 414.319 204.566 412.983 204.566
 411.276 c h
197.594 401.166 m 198.426 401.166 199.215 401.377 199.961 401.807 c 200.727
 402.233 201.359 402.819 201.848 403.565 c 201.848 407.885 l 199.418 407.885
 l 197.625 407.885 196.332 407.588 195.543 406.991 c 194.754 406.393 194.359
 405.518 194.359 404.366 c 194.359 402.233 195.438 401.166 197.594 401.166
 c h
197.594 401.166 m f
224.461 423.151 m 224.461 399.502 l 222.09 399.502 l 221.836 401.709 l 
221.219 400.854 220.504 400.217 219.691 399.788 c 218.883 399.362 218.008
 399.151 217.066 399.151 c 214.934 399.151 213.324 399.928 212.234 401.487
 c 211.168 403.041 210.637 405.186 210.637 407.916 c 210.637 409.604 210.902
 411.108 211.438 412.428 c 211.969 413.772 212.727 414.819 213.707 415.565
 c 214.711 416.334 215.883 416.717 217.227 416.717 c 219.082 416.717 220.598
 416.045 221.773 414.702 c 221.773 423.467 l h
217.934 414.541 m 216.523 414.541 215.438 413.987 214.668 412.877 c 213.922
 411.768 213.547 410.116 213.547 407.916 c 213.547 405.741 213.891 404.088
 214.57 402.956 c 215.277 401.846 216.289 401.291 217.613 401.291 c 219.211
 401.291 220.598 402.19 221.773 403.983 c 221.773 412.366 l 221.301 413.069
 220.738 413.604 220.074 413.963 c 219.414 414.35 218.699 414.541 217.934
 414.541 c h
217.934 414.541 m f
242.941 403.182 m 242.941 402.518 243.051 402.03 243.262 401.709 c 243.477
 401.409 243.828 401.186 244.32 401.038 c 243.648 399.116 l 242.004 399.331
 240.98 400.131 240.574 401.518 c 239.977 400.748 239.219 400.163 238.305
 399.756 c 237.406 399.35 236.406 399.151 235.297 399.151 c 233.609 399.151
 232.277 399.62 231.297 400.557 c 230.336 401.495 229.855 402.756 229.855
 404.334 c 229.855 406.061 230.527 407.393 231.871 408.334 c 233.238 409.272
 235.188 409.741 237.727 409.741 c 240.223 409.741 l 240.223 411.116 l 240.223
 412.311 239.883 413.166 239.199 413.678 c 238.516 414.209 237.523 414.479
 236.223 414.479 c 234.941 414.479 233.48 414.19 231.84 413.612 c 231.102
 415.663 l 233.086 416.366 234.934 416.717 236.641 416.717 c 238.688 416.717
 240.246 416.237 241.313 415.276 c 242.398 414.319 242.941 412.983 242.941
 411.276 c h
235.969 401.166 m 236.801 401.166 237.59 401.377 238.336 401.807 c 239.102
 402.233 239.734 402.819 240.223 403.565 c 240.223 407.885 l 237.793 407.885
 l 236 407.885 234.707 407.588 233.918 406.991 c 233.129 406.393 232.734
 405.518 232.734 404.366 c 232.734 402.233 233.813 401.166 235.969 401.166
 c h
235.969 401.166 m f
255.793 401.358 m 257.074 401.358 258.09 401.604 258.836 402.092 c 259.582
 402.584 259.953 403.233 259.953 404.045 c 259.953 404.6 259.859 405.049
 259.668 405.389 c 259.477 405.752 259.09 406.073 258.516 406.35 c 257.938
 406.647 257.063 406.948 255.891 407.245 c 253.93 407.737 252.477 408.323
 251.539 409.006 c 250.602 409.709 250.129 410.745 250.129 412.108 c 250.129
 413.518 250.719 414.639 251.891 415.467 c 253.063 416.299 254.609 416.717
 256.531 416.717 c 258.879 416.717 260.926 416.1 262.676 414.862 c 261.457
 413.006 l 260.754 413.495 260.02 413.87 259.25 414.123 c 258.484 414.401
 257.598 414.541 256.594 414.541 c 254.164 414.541 252.945 413.807 252.945
 412.334 c 252.945 411.823 253.074 411.405 253.332 411.084 c 253.609 410.764
 254.047 410.479 254.645 410.221 c 255.262 409.987 256.18 409.698 257.395
 409.358 c 259.23 408.866 260.594 408.237 261.492 407.467 c 262.406 406.721
 262.867 405.623 262.867 404.174 c 262.867 402.487 262.184 401.229 260.82
 400.397 c 259.453 399.565 257.777 399.151 255.793 399.151 c 253.148 399.151
 250.953 399.905 249.203 401.42 c 250.707 403.182 l 251.391 402.627 252.168
 402.178 253.043 401.838 c 253.918 401.518 254.836 401.358 255.793 401.358
 c h
255.793 401.358 m f
272.773 401.963 m 272.773 402.756 273.039 403.416 273.574 403.948 c 274.129
 404.502 274.801 404.78 275.59 404.78 c 276.402 404.78 277.074 404.502 277.605
 403.948 c 278.141 403.416 278.406 402.756 278.406 401.963 c 278.406 401.155
 278.141 400.483 277.605 399.948 c 277.074 399.416 276.402 399.151 275.59
 399.151 c 274.801 399.151 274.129 399.416 273.574 399.948 c 273.039 400.502
 272.773 401.174 272.773 401.963 c h
272.773 401.963 m f
301.816 400.366 m 301.242 399.983 300.539 399.682 299.707 399.467 c 298.895
 399.256 298.086 399.151 297.273 399.151 c 295.504 399.151 294.117 399.608
 293.113 400.526 c 292.109 401.463 291.609 402.69 291.609 404.206 c 291.609
 414.252 l 287.738 414.252 l 287.738 416.366 l 291.609 416.366 l 291.609
 420.174 l 294.297 420.495 l 294.297 416.366 l 300.152 416.366 l 299.801
 414.252 l 294.297 414.252 l 294.297 404.237 l 294.297 403.276 294.555 402.561
 295.066 402.092 c 295.578 401.623 296.398 401.389 297.531 401.389 c 298.684
 401.389 299.758 401.655 300.762 402.19 c h
301.816 400.366 m f
314.027 416.717 m 316.355 416.717 318.137 415.928 319.375 414.35 c 320.633
 412.791 321.262 410.659 321.262 407.948 c 321.262 405.303 320.621 403.17
 319.34 401.549 c 318.082 399.948 316.301 399.151 313.996 399.151 c 311.672
 399.151 309.879 399.928 308.621 401.487 c 307.363 403.065 306.734 405.209
 306.734 407.916 c 306.734 410.584 307.363 412.717 308.621 414.319 c 309.902
 415.916 311.703 416.717 314.027 416.717 c h
314.027 414.51 m 312.559 414.51 311.457 413.963 310.734 412.877 c 310.008
 411.788 309.645 410.135 309.645 407.916 c 309.645 405.698 309.996 404.045
 310.703 402.956 c 311.426 401.889 312.523 401.358 313.996 401.358 c 315.469
 401.358 316.559 401.889 317.262 402.956 c 317.988 404.045 318.348 405.709
 318.348 407.948 c 318.348 410.166 317.988 411.811 317.262 412.877 c 316.559
 413.963 315.48 414.51 314.027 414.51 c h
314.027 414.51 m f
330.336 401.963 m 330.336 402.756 330.602 403.416 331.137 403.948 c 331.691
 404.502 332.363 404.78 333.152 404.78 c 333.965 404.78 334.637 404.502 
335.168 403.948 c 335.703 403.416 335.969 402.756 335.969 401.963 c 335.969
 401.155 335.703 400.483 335.168 399.948 c 334.637 399.416 333.965 399.151
 333.152 399.151 c 332.363 399.151 331.691 399.416 331.137 399.948 c 330.602
 400.502 330.336 401.174 330.336 401.963 c h
330.336 401.963 m f
357.078 416.717 m 358.035 416.717 358.816 416.377 359.414 415.694 c 360.031
 415.034 360.34 413.815 360.34 412.045 c 360.34 399.502 l 357.875 399.502
 l 357.875 411.596 l 357.875 412.772 357.801 413.561 357.652 413.963 c 357.504
 414.393 357.141 414.604 356.563 414.604 c 355.477 414.604 354.496 413.932
 353.621 412.588 c 353.621 399.502 l 351.125 399.502 l 351.125 411.596 l
 351.125 412.772 351.051 413.561 350.898 413.963 c 350.75 414.393 350.387
 414.604 349.813 414.604 c 348.723 414.604 347.742 413.932 346.867 412.588
 c 346.867 399.502 l 344.402 399.502 l 344.402 416.366 l 346.484 416.366
 l 346.676 414.381 l 347.188 415.127 347.723 415.706 348.277 416.108 c 348.852
 416.514 349.535 416.717 350.324 416.717 c 351.902 416.717 352.918 415.971
 353.363 414.479 c 353.875 415.202 354.422 415.756 354.996 416.143 c 355.57
 416.526 356.266 416.717 357.078 416.717 c h
357.078 416.717 m f
371.75 403.663 m 371.75 402.147 372.68 401.389 374.535 401.389 c 375.41
 401.389 376.348 401.581 377.352 401.963 c 378.055 400.014 l 376.988 399.436
 375.656 399.151 374.055 399.151 c 372.543 399.151 371.324 399.565 370.406
 400.397 c 369.512 401.229 369.063 402.362 369.063 403.788 c 369.063 421.006
 l 363.879 421.006 l 363.879 423.151 l 371.75 423.151 l h
371.75 403.663 m f
0.384314 0.447059 0.643137 rg
49.5 366.991 m 52.094 366.991 l 52.094 364.94 l 49.18 364.94 l 48.508 359.502
 l 46.234 359.502 l 46.941 364.94 l 42.301 364.94 l 41.563 359.502 l 39.293
 359.502 l 39.996 364.94 l 37.469 364.94 l 37.469 366.991 l 40.254 366.991
 l 41.246 374.092 l 38.652 374.092 l 38.652 376.206 l 41.5 376.206 l 42.234
 381.549 l 44.508 381.549 l 43.773 376.206 l 48.445 376.206 l 49.18 381.549
 l 51.453 381.549 l 50.715 376.206 l 53.277 376.206 l 53.277 374.092 l 50.43
 374.092 l h
47.195 366.991 m 48.188 374.092 l 43.484 374.092 l 42.555 366.991 l h
47.195 366.991 m f
110.199 369.452 m 101.527 359.694 l 99.512 361.42 l 101.527 363.627 l 102.082
 364.248 102.742 364.791 103.512 365.26 c 78.199 365.26 l 78.199 367.565
 l 105.145 367.565 l 106.84 369.452 l 105.145 371.342 l 78.199 371.342 l
 78.199 373.647 l 103.512 373.647 l 102.785 374.092 102.125 374.647 101.527
 375.311 c 99.512 377.487 l 101.527 379.213 l h
110.199 369.452 m f
140.316 381.901 m 141.66 381.901 142.836 381.635 143.836 381.1 c 144.863
 380.569 145.641 379.831 146.172 378.893 c 146.707 377.975 146.973 376.932
 146.973 375.756 c 146.973 374.393 146.652 373.069 146.016 371.788 c 145.395
 370.51 144.391 369.1 143.004 367.565 c 141.617 366.049 139.656 364.131 
137.117 361.807 c 147.484 361.807 l 147.164 359.502 l 134.047 359.502 l 
134.047 361.678 l 136.926 364.428 139.059 366.584 140.445 368.143 c 141.855
 369.698 142.824 371.034 143.359 372.143 c 143.891 373.252 144.156 374.424
 144.156 375.663 c 144.156 376.897 143.805 377.87 143.102 378.573 c 142.398
 379.276 141.426 379.627 140.191 379.627 c 139.145 379.627 138.27 379.448
 137.566 379.084 c 136.883 378.745 136.18 378.147 135.453 377.291 c 133.598
 378.733 l 134.473 379.823 135.441 380.62 136.512 381.131 c 137.598 381.647
 138.867 381.901 140.316 381.901 c h
140.316 381.901 m f
160.496 381.901 m 162.844 381.901 164.625 380.92 165.84 378.956 c 167.078
 377.014 167.695 374.209 167.695 370.541 c 167.695 366.85 167.078 364.022
 165.84 362.061 c 164.625 360.12 162.844 359.151 160.496 359.151 c 158.152
 359.151 156.359 360.12 155.121 362.061 c 153.906 364.022 153.297 366.85
 153.297 370.541 c 153.297 374.209 153.906 377.014 155.121 378.956 c 156.359
 380.92 158.152 381.901 160.496 381.901 c h
160.496 379.725 m 157.574 379.725 156.113 376.663 156.113 370.541 c 156.113
 364.397 157.574 361.327 160.496 361.327 c 163.422 361.327 164.883 364.397
 164.883 370.541 c 164.883 376.663 163.422 379.725 160.496 379.725 c h
160.496 372.62 m 161.094 372.62 161.598 372.42 162 372.014 c 162.406 371.608
 162.609 371.116 162.609 370.541 c 162.609 369.944 162.406 369.444 162 369.038
 c 161.598 368.631 161.094 368.428 160.496 368.428 c 159.898 368.428 159.398
 368.631 158.992 369.038 c 158.609 369.444 158.418 369.944 158.418 370.541
 c 158.418 371.116 158.609 371.608 158.992 372.014 c 159.398 372.42 159.898
 372.62 160.496 372.62 c h
160.496 372.62 m f
0.741176 0.576471 0.976471 rg
44.379 341.901 m 45.723 341.901 46.898 341.635 47.898 341.1 c 48.926 340.569
 49.703 339.831 50.234 338.893 c 50.77 337.975 51.035 336.932 51.035 335.756
 c 51.035 334.393 50.715 333.069 50.078 331.788 c 49.457 330.51 48.453 329.1
 47.066 327.565 c 45.68 326.049 43.719 324.131 41.18 321.807 c 51.547 321.807
 l 51.227 319.502 l 38.109 319.502 l 38.109 321.678 l 40.988 324.428 43.121
 326.584 44.508 328.143 c 45.918 329.698 46.887 331.034 47.422 332.143 c
 47.953 333.252 48.219 334.424 48.219 335.663 c 48.219 336.897 47.867 337.87
 47.164 338.573 c 46.461 339.276 45.488 339.627 44.254 339.627 c 43.207 
339.627 42.332 339.448 41.629 339.084 c 40.945 338.745 40.242 338.147 39.516
 337.291 c 37.66 338.733 l 38.535 339.823 39.504 340.62 40.57 341.131 c 
41.66 341.647 42.93 341.901 44.379 341.901 c h
44.379 341.901 m f
1 g
61.711 321.963 m 61.711 322.756 61.977 323.416 62.512 323.948 c 63.066 
324.502 63.738 324.78 64.527 324.78 c 65.34 324.78 66.012 324.502 66.543
 323.948 c 67.078 323.416 67.344 322.756 67.344 321.963 c 67.344 321.155
 67.078 320.483 66.543 319.948 c 66.012 319.416 65.34 319.151 64.527 319.151
 c 63.738 319.151 63.066 319.416 62.512 319.948 c 61.977 320.502 61.711 
321.174 61.711 321.963 c h
61.711 321.963 m f
84.996 321.452 m 86.469 321.452 87.93 321.944 89.379 322.924 c 90.66 321.166
 l 89.957 320.545 89.082 320.057 88.035 319.694 c 86.988 319.331 85.977 
319.151 84.996 319.151 c 82.5 319.151 80.547 319.928 79.141 321.487 c 77.754
 323.065 77.059 325.186 77.059 327.854 c 77.059 329.538 77.367 331.053 77.988
 332.397 c 78.629 333.741 79.543 334.795 80.738 335.565 c 81.934 336.334
 83.352 336.717 84.996 336.717 c 87.172 336.717 89.047 336.057 90.629 334.733
 c 89.316 332.975 l 87.844 333.956 86.395 334.444 84.965 334.444 c 83.449
 334.444 82.234 333.881 81.316 332.748 c 80.418 331.639 79.973 330.006 79.973
 327.854 c 79.973 325.698 80.418 324.088 81.316 323.022 c 82.234 321.975
 83.461 321.452 84.996 321.452 c h
84.996 321.452 m f
99.223 334.03 m 99.883 334.881 100.695 335.545 101.656 336.014 c 102.613
 336.483 103.605 336.717 104.629 336.717 c 107.789 336.717 109.367 335.053
 109.367 331.725 c 109.367 319.502 l 106.68 319.502 l 106.68 331.694 l 106.68
 332.698 106.445 333.42 105.977 333.87 c 105.504 334.338 104.758 334.573
 103.734 334.573 c 102.859 334.573 102.016 334.295 101.207 333.741 c 100.395
 333.186 99.734 332.538 99.223 331.788 c 99.223 319.502 l 96.535 319.502
 l 96.535 343.116 l 99.223 343.405 l h
99.223 334.03 m f
122.152 336.717 m 124.48 336.717 126.262 335.928 127.5 334.35 c 128.758
 332.791 129.387 330.659 129.387 327.948 c 129.387 325.303 128.746 323.17
 127.465 321.549 c 126.207 319.948 124.426 319.151 122.121 319.151 c 119.797
 319.151 118.004 319.928 116.746 321.487 c 115.488 323.065 114.859 325.209
 114.859 327.916 c 114.859 330.584 115.488 332.717 116.746 334.319 c 118.027
 335.916 119.828 336.717 122.152 336.717 c h
122.152 334.51 m 120.684 334.51 119.582 333.963 118.859 332.877 c 118.133
 331.788 117.77 330.135 117.77 327.916 c 117.77 325.698 118.121 324.045 
118.828 322.956 c 119.551 321.889 120.648 321.358 122.121 321.358 c 123.594
 321.358 124.684 321.889 125.387 322.956 c 126.113 324.045 126.473 325.709
 126.473 327.948 c 126.473 330.166 126.113 331.811 125.387 332.877 c 124.684
 333.963 123.605 334.51 122.152 334.51 c h
122.152 334.51 m f
146.301 336.717 m 146.984 336.717 147.773 336.6 148.668 336.366 c 148.285
 330.639 l 146.109 330.639 l 146.109 334.252 l 145.949 334.252 l 143.348
 334.252 141.5 332.397 140.414 328.686 c 140.414 321.581 l 143.836 321.581
 l 143.836 319.502 l 135.07 319.502 l 135.07 321.581 l 137.727 321.581 l
 137.727 334.284 l 135.07 334.284 l 135.07 336.366 l 139.742 336.366 l 140.254
 332.366 l 140.938 333.815 141.746 334.905 142.688 335.627 c 143.645 336.354
 144.852 336.717 146.301 336.717 c h
146.301 336.717 m f
165.488 336.717 m 166.172 336.717 166.961 336.6 167.855 336.366 c 167.473
 330.639 l 165.297 330.639 l 165.297 334.252 l 165.137 334.252 l 162.535
 334.252 160.688 332.397 159.602 328.686 c 159.602 321.581 l 163.023 321.581
 l 163.023 319.502 l 154.258 319.502 l 154.258 321.581 l 156.914 321.581
 l 156.914 334.284 l 154.258 334.284 l 154.258 336.366 l 158.93 336.366 
l 159.441 332.366 l 160.125 333.815 160.934 334.905 161.875 335.627 c 162.832
 336.354 164.039 336.717 165.488 336.717 c h
165.488 336.717 m f
179.684 344.237 m 180.281 344.237 180.762 344.057 181.125 343.694 c 181.488
 343.35 181.668 342.905 181.668 342.35 c 181.668 341.795 181.488 341.334
 181.125 340.975 c 180.762 340.631 180.281 340.459 179.684 340.459 c 179.109
 340.459 178.641 340.631 178.277 340.975 c 177.934 341.334 177.766 341.795
 177.766 342.35 c 177.766 342.905 177.934 343.35 178.277 343.694 c 178.641
 344.057 179.109 344.237 179.684 344.237 c h
181.828 321.647 m 186.566 321.647 l 186.566 319.502 l 173.957 319.502 l
 173.957 321.647 l 179.141 321.647 l 179.141 334.221 l 174.117 334.221 l
 174.117 336.366 l 181.828 336.366 l h
181.828 321.647 m f
205.879 320.366 m 205.305 319.983 204.602 319.682 203.77 319.467 c 202.957
 319.256 202.148 319.151 201.336 319.151 c 199.566 319.151 198.18 319.608
 197.176 320.526 c 196.172 321.463 195.672 322.69 195.672 324.206 c 195.672
 334.252 l 191.801 334.252 l 191.801 336.366 l 195.672 336.366 l 195.672
 340.174 l 198.359 340.495 l 198.359 336.366 l 204.215 336.366 l 203.863
 334.252 l 198.359 334.252 l 198.359 324.237 l 198.359 323.276 198.617 322.561
 199.129 322.092 c 199.641 321.623 200.461 321.389 201.594 321.389 c 202.746
 321.389 203.82 321.655 204.824 322.19 c h
205.879 320.366 m f
218.09 336.717 m 220.418 336.717 222.199 335.928 223.438 334.35 c 224.695
 332.791 225.324 330.659 225.324 327.948 c 225.324 325.303 224.684 323.17
 223.402 321.549 c 222.145 319.948 220.363 319.151 218.059 319.151 c 215.734
 319.151 213.941 319.928 212.684 321.487 c 211.426 323.065 210.797 325.209
 210.797 327.916 c 210.797 330.584 211.426 332.717 212.684 334.319 c 213.965
 335.916 215.766 336.717 218.09 336.717 c h
218.09 334.51 m 216.621 334.51 215.52 333.963 214.797 332.877 c 214.07 
331.788 213.707 330.135 213.707 327.916 c 213.707 325.698 214.059 324.045
 214.766 322.956 c 215.488 321.889 216.586 321.358 218.059 321.358 c 219.531
 321.358 220.621 321.889 221.324 322.956 c 222.051 324.045 222.41 325.709
 222.41 327.948 c 222.41 330.166 222.051 331.811 221.324 332.877 c 220.621
 333.963 219.543 334.51 218.09 334.51 c h
218.09 334.51 m f
234.398 321.963 m 234.398 322.756 234.664 323.416 235.199 323.948 c 235.754
 324.502 236.426 324.78 237.215 324.78 c 238.027 324.78 238.699 324.502 
239.23 323.948 c 239.766 323.416 240.031 322.756 240.031 321.963 c 240.031
 321.155 239.766 320.483 239.23 319.948 c 238.699 319.416 238.027 319.151
 237.215 319.151 c 236.426 319.151 235.754 319.416 235.199 319.948 c 234.664
 320.502 234.398 321.174 234.398 321.963 c h
234.398 321.963 m f
263.441 320.366 m 262.867 319.983 262.164 319.682 261.332 319.467 c 260.52
 319.256 259.711 319.151 258.898 319.151 c 257.129 319.151 255.742 319.608
 254.738 320.526 c 253.734 321.463 253.234 322.69 253.234 324.206 c 253.234
 334.252 l 249.363 334.252 l 249.363 336.366 l 253.234 336.366 l 253.234
 340.174 l 255.922 340.495 l 255.922 336.366 l 261.777 336.366 l 261.426
 334.252 l 255.922 334.252 l 255.922 324.237 l 255.922 323.276 256.18 322.561
 256.691 322.092 c 257.203 321.623 258.023 321.389 259.156 321.389 c 260.309
 321.389 261.383 321.655 262.387 322.19 c h
263.441 320.366 m f
275.652 336.717 m 277.98 336.717 279.762 335.928 281 334.35 c 282.258 332.791
 282.887 330.659 282.887 327.948 c 282.887 325.303 282.246 323.17 280.965
 321.549 c 279.707 319.948 277.926 319.151 275.621 319.151 c 273.297 319.151
 271.504 319.928 270.246 321.487 c 268.988 323.065 268.359 325.209 268.359
 327.916 c 268.359 330.584 268.988 332.717 270.246 334.319 c 271.527 335.916
 273.328 336.717 275.652 336.717 c h
275.652 334.51 m 274.184 334.51 273.082 333.963 272.359 332.877 c 271.633
 331.788 271.27 330.135 271.27 327.916 c 271.27 325.698 271.621 324.045 
272.328 322.956 c 273.051 321.889 274.148 321.358 275.621 321.358 c 277.094
 321.358 278.184 321.889 278.887 322.956 c 279.613 324.045 279.973 325.709
 279.973 327.948 c 279.973 330.166 279.613 331.811 278.887 332.877 c 278.184
 333.963 277.105 334.51 275.652 334.51 c h
275.652 334.51 m f
291.961 321.963 m 291.961 322.756 292.227 323.416 292.762 323.948 c 293.316
 324.502 293.988 324.78 294.777 324.78 c 295.59 324.78 296.262 324.502 296.793
 323.948 c 297.328 323.416 297.594 322.756 297.594 321.963 c 297.594 321.155
 297.328 320.483 296.793 319.948 c 296.262 319.416 295.59 319.151 294.777
 319.151 c 293.988 319.151 293.316 319.416 292.762 319.948 c 292.227 320.502
 291.961 321.174 291.961 321.963 c h
291.961 321.963 m f
318.703 336.717 m 319.66 336.717 320.441 336.377 321.039 335.694 c 321.656
 335.034 321.965 333.815 321.965 332.045 c 321.965 319.502 l 319.5 319.502
 l 319.5 331.596 l 319.5 332.772 319.426 333.561 319.277 333.963 c 319.129
 334.393 318.766 334.604 318.188 334.604 c 317.102 334.604 316.121 333.932
 315.246 332.588 c 315.246 319.502 l 312.75 319.502 l 312.75 331.596 l 312.75
 332.772 312.676 333.561 312.523 333.963 c 312.375 334.393 312.012 334.604
 311.438 334.604 c 310.348 334.604 309.367 333.932 308.492 332.588 c 308.492
 319.502 l 306.027 319.502 l 306.027 336.366 l 308.109 336.366 l 308.301
 334.381 l 308.813 335.127 309.348 335.706 309.902 336.108 c 310.477 336.514
 311.16 336.717 311.949 336.717 c 313.527 336.717 314.543 335.971 314.988
 334.479 c 315.5 335.202 316.047 335.756 316.621 336.143 c 317.195 336.526
 317.891 336.717 318.703 336.717 c h
318.703 336.717 m f
333.375 323.663 m 333.375 322.147 334.305 321.389 336.16 321.389 c 337.035
 321.389 337.973 321.581 338.977 321.963 c 339.68 320.014 l 338.613 319.436
 337.281 319.151 335.68 319.151 c 334.168 319.151 332.949 319.565 332.031
 320.397 c 331.137 321.229 330.688 322.362 330.688 323.788 c 330.688 341.006
 l 325.504 341.006 l 325.504 343.151 l 333.375 343.151 l h
333.375 323.663 m f
0.384314 0.447059 0.643137 rg
49.5 286.991 m 52.094 286.991 l 52.094 284.94 l 49.18 284.94 l 48.508 279.502
 l 46.234 279.502 l 46.941 284.94 l 42.301 284.94 l 41.563 279.502 l 39.293
 279.502 l 39.996 284.94 l 37.469 284.94 l 37.469 286.991 l 40.254 286.991
 l 41.246 294.092 l 38.652 294.092 l 38.652 296.206 l 41.5 296.206 l 42.234
 301.549 l 44.508 301.549 l 43.773 296.206 l 48.445 296.206 l 49.18 301.549
 l 51.453 301.549 l 50.715 296.206 l 53.277 296.206 l 53.277 294.092 l 50.43
 294.092 l h
47.195 286.991 m 48.188 294.092 l 43.484 294.092 l 42.555 286.991 l h
47.195 286.991 m f
110.199 289.452 m 101.527 279.694 l 99.512 281.42 l 101.527 283.627 l 102.082
 284.248 102.742 284.791 103.512 285.26 c 78.199 285.26 l 78.199 287.565
 l 105.145 287.565 l 106.84 289.452 l 105.145 291.342 l 78.199 291.342 l
 78.199 293.647 l 103.512 293.647 l 102.785 294.092 102.125 294.647 101.527
 295.311 c 99.512 297.487 l 101.527 299.213 l h
110.199 289.452 m f
148.254 281.678 m 148.254 279.502 l 135.551 279.502 l 135.551 281.678 l
 140.957 281.678 l 140.957 298.604 l 135.934 295.565 l 134.75 297.452 l 
141.309 301.549 l 143.68 301.549 l 143.68 281.678 l h
148.254 281.678 m f
159.504 301.901 m 160.848 301.901 162.023 301.635 163.023 301.1 c 164.051
 300.569 164.828 299.831 165.359 298.893 c 165.895 297.975 166.16 296.932
 166.16 295.756 c 166.16 294.393 165.84 293.069 165.203 291.788 c 164.582
 290.51 163.578 289.1 162.191 287.565 c 160.805 286.049 158.844 284.131 
156.305 281.807 c 166.672 281.807 l 166.352 279.502 l 153.234 279.502 l 
153.234 281.678 l 156.113 284.428 158.246 286.584 159.633 288.143 c 161.043
 289.698 162.012 291.034 162.547 292.143 c 163.078 293.252 163.344 294.424
 163.344 295.663 c 163.344 296.897 162.992 297.87 162.289 298.573 c 161.586
 299.276 160.613 299.627 159.379 299.627 c 158.332 299.627 157.457 299.448
 156.754 299.084 c 156.07 298.745 155.367 298.147 154.641 297.291 c 152.785
 298.733 l 153.66 299.823 154.629 300.62 155.695 301.131 c 156.785 301.647
 158.055 301.901 159.504 301.901 c h
159.504 301.901 m f
185.285 299.373 m 176.582 299.373 l 176.582 292.428 l 177.199 292.791 177.809
 293.038 178.406 293.166 c 179.023 293.315 179.676 293.389 180.355 293.389
 c 182.191 293.389 183.652 292.78 184.742 291.565 c 185.852 290.35 186.406
 288.655 186.406 286.479 c 186.406 285.026 186.094 283.745 185.477 282.639
 c 184.879 281.53 184.016 280.663 182.887 280.045 c 181.754 279.448 180.441
 279.151 178.949 279.151 c 176.496 279.151 174.363 280.022 172.547 281.772
 c 174.211 283.405 l 175.559 282.041 177.137 281.358 178.949 281.358 c 180.422
 281.358 181.563 281.807 182.371 282.702 c 183.184 283.596 183.59 284.889
 183.59 286.573 c 183.59 288.237 183.227 289.432 182.5 290.159 c 181.777
 290.905 180.805 291.276 179.59 291.276 c 179.012 291.276 178.488 291.225
 178.02 291.116 c 177.551 291.01 176.934 290.819 176.164 290.541 c 173.988
 290.541 l 173.988 301.549 l 185.668 301.549 l h
185.285 299.373 m f
0.741176 0.576471 0.976471 rg
44.379 261.901 m 45.723 261.901 46.91 261.647 47.934 261.131 c 48.957 260.643
 49.746 259.971 50.301 259.116 c 50.855 258.284 51.133 257.37 51.133 256.366
 c 51.133 255.084 50.715 253.963 49.883 253.006 c 49.051 252.065 48.039 
251.479 46.844 251.245 c 48.23 251.139 49.402 250.616 50.363 249.678 c 51.344
 248.737 51.836 247.459 51.836 245.838 c 51.836 244.577 51.516 243.436 50.875
 242.413 c 50.234 241.389 49.328 240.588 48.156 240.014 c 47.004 239.436
 45.68 239.151 44.188 239.151 c 42.887 239.151 41.629 239.393 40.414 239.885
 c 39.219 240.377 38.227 241.1 37.438 242.061 c 39.227 243.534 l 39.824 
242.831 40.551 242.284 41.402 241.901 c 42.277 241.538 43.188 241.358 44.125
 241.358 c 45.66 241.358 46.855 241.752 47.707 242.541 c 48.582 243.35 49.02
 244.452 49.02 245.838 c 49.02 248.631 47.496 250.03 44.445 250.03 c 42.621
 250.03 l 42.941 252.174 l 44.254 252.174 l 45.402 252.174 46.387 252.495
 47.195 253.131 c 48.008 253.795 48.414 254.756 48.414 256.014 c 48.414 
257.186 48.02 258.092 47.227 258.733 c 46.461 259.393 45.469 259.725 44.254
 259.725 c 43.336 259.725 42.512 259.565 41.789 259.245 c 41.086 258.924
 40.348 258.413 39.582 257.709 c 38.109 259.342 l 39.898 261.049 41.992 
261.901 44.379 261.901 c h
44.379 261.901 m f
1 g
61.711 241.963 m 61.711 242.756 61.977 243.416 62.512 243.948 c 63.066 
244.502 63.738 244.78 64.527 244.78 c 65.34 244.78 66.012 244.502 66.543
 243.948 c 67.078 243.416 67.344 242.756 67.344 241.963 c 67.344 241.155
 67.078 240.483 66.543 239.948 c 66.012 239.416 65.34 239.151 64.527 239.151
 c 63.738 239.151 63.066 239.416 62.512 239.948 c 61.977 240.502 61.711 
241.174 61.711 241.963 c h
61.711 241.963 m f
85.285 239.502 m 82.18 239.502 l 76.066 256.366 l 78.945 256.366 l 83.813
 241.932 l 88.609 256.366 l 91.426 256.366 l h
85.285 239.502 m f
108.629 243.182 m 108.629 242.518 108.738 242.03 108.949 241.709 c 109.164
 241.409 109.516 241.186 110.008 241.038 c 109.336 239.116 l 107.691 239.331
 106.668 240.131 106.262 241.518 c 105.664 240.748 104.906 240.163 103.992
 239.756 c 103.094 239.35 102.094 239.151 100.984 239.151 c 99.297 239.151
 97.965 239.62 96.984 240.557 c 96.023 241.495 95.543 242.756 95.543 244.334
 c 95.543 246.061 96.215 247.393 97.559 248.334 c 98.926 249.272 100.875
 249.741 103.414 249.741 c 105.91 249.741 l 105.91 251.116 l 105.91 252.311
 105.57 253.166 104.887 253.678 c 104.203 254.209 103.211 254.479 101.91
 254.479 c 100.629 254.479 99.168 254.19 97.527 253.612 c 96.789 255.663
 l 98.773 256.366 100.621 256.717 102.328 256.717 c 104.375 256.717 105.934
 256.237 107 255.276 c 108.086 254.319 108.629 252.983 108.629 251.276 c
 h
101.656 241.166 m 102.488 241.166 103.277 241.377 104.023 241.807 c 104.789
 242.233 105.422 242.819 105.91 243.565 c 105.91 247.885 l 103.48 247.885
 l 101.688 247.885 100.395 247.588 99.605 246.991 c 98.816 246.393 98.422
 245.518 98.422 244.366 c 98.422 242.233 99.5 241.166 101.656 241.166 c 
h
101.656 241.166 m f
121.48 241.358 m 122.762 241.358 123.777 241.604 124.523 242.092 c 125.27
 242.584 125.641 243.233 125.641 244.045 c 125.641 244.6 125.547 245.049
 125.355 245.389 c 125.164 245.752 124.777 246.073 124.203 246.35 c 123.625
 246.647 122.75 246.948 121.578 247.245 c 119.617 247.737 118.164 248.323
 117.227 249.006 c 116.289 249.709 115.816 250.745 115.816 252.108 c 115.816
 253.518 116.406 254.639 117.578 255.467 c 118.75 256.299 120.297 256.717
 122.219 256.717 c 124.566 256.717 126.613 256.1 128.363 254.862 c 127.145
 253.006 l 126.441 253.495 125.707 253.87 124.938 254.123 c 124.172 254.401
 123.285 254.541 122.281 254.541 c 119.852 254.541 118.633 253.807 118.633
 252.334 c 118.633 251.823 118.762 251.405 119.02 251.084 c 119.297 250.764
 119.734 250.479 120.332 250.221 c 120.949 249.987 121.867 249.698 123.082
 249.358 c 124.918 248.866 126.281 248.237 127.18 247.467 c 128.094 246.721
 128.555 245.623 128.555 244.174 c 128.555 242.487 127.871 241.229 126.508
 240.397 c 125.141 239.565 123.465 239.151 121.48 239.151 c 118.836 239.151
 116.641 239.905 114.891 241.42 c 116.395 243.182 l 117.078 242.627 117.855
 242.178 118.73 241.838 c 119.605 241.518 120.523 241.358 121.48 241.358
 c h
121.48 241.358 m f
141.34 256.717 m 143.668 256.717 145.449 255.928 146.688 254.35 c 147.945
 252.791 148.574 250.659 148.574 247.948 c 148.574 245.303 147.934 243.17
 146.652 241.549 c 145.395 239.948 143.613 239.151 141.309 239.151 c 138.984
 239.151 137.191 239.928 135.934 241.487 c 134.676 243.065 134.047 245.209
 134.047 247.916 c 134.047 250.584 134.676 252.717 135.934 254.319 c 137.215
 255.916 139.016 256.717 141.34 256.717 c h
141.34 254.51 m 139.871 254.51 138.77 253.963 138.047 252.877 c 137.32 
251.788 136.957 250.135 136.957 247.916 c 136.957 245.698 137.309 244.045
 138.016 242.956 c 138.738 241.889 139.836 241.358 141.309 241.358 c 142.781
 241.358 143.871 241.889 144.574 242.956 c 145.301 244.045 145.66 245.709
 145.66 247.948 c 145.66 250.166 145.301 251.811 144.574 252.877 c 143.871
 253.963 142.793 254.51 141.34 254.51 c h
141.34 254.51 m f
159.855 241.358 m 161.137 241.358 162.152 241.604 162.898 242.092 c 163.645
 242.584 164.016 243.233 164.016 244.045 c 164.016 244.6 163.922 245.049
 163.73 245.389 c 163.539 245.752 163.152 246.073 162.578 246.35 c 162 246.647
 161.125 246.948 159.953 247.245 c 157.992 247.737 156.539 248.323 155.602
 249.006 c 154.664 249.709 154.191 250.745 154.191 252.108 c 154.191 253.518
 154.781 254.639 155.953 255.467 c 157.125 256.299 158.672 256.717 160.594
 256.717 c 162.941 256.717 164.988 256.1 166.738 254.862 c 165.52 253.006
 l 164.816 253.495 164.082 253.87 163.313 254.123 c 162.547 254.401 161.66
 254.541 160.656 254.541 c 158.227 254.541 157.008 253.807 157.008 252.334
 c 157.008 251.823 157.137 251.405 157.395 251.084 c 157.672 250.764 158.109
 250.479 158.707 250.221 c 159.324 249.987 160.242 249.698 161.457 249.358
 c 163.293 248.866 164.656 248.237 165.555 247.467 c 166.469 246.721 166.93
 245.623 166.93 244.174 c 166.93 242.487 166.246 241.229 164.883 240.397
 c 163.516 239.565 161.84 239.151 159.855 239.151 c 157.211 239.151 155.016
 239.905 153.266 241.42 c 154.77 243.182 l 155.453 242.627 156.23 242.178
 157.105 241.838 c 157.98 241.518 158.898 241.358 159.855 241.358 c h
159.855 241.358 m f
176.836 241.963 m 176.836 242.756 177.102 243.416 177.637 243.948 c 178.191
 244.502 178.863 244.78 179.652 244.78 c 180.465 244.78 181.137 244.502 
181.668 243.948 c 182.203 243.416 182.469 242.756 182.469 241.963 c 182.469
 241.155 182.203 240.483 181.668 239.948 c 181.137 239.416 180.465 239.151
 179.652 239.151 c 178.863 239.151 178.191 239.416 177.637 239.948 c 177.102
 240.502 176.836 241.174 176.836 241.963 c h
176.836 241.963 m f
205.879 240.366 m 205.305 239.983 204.602 239.682 203.77 239.467 c 202.957
 239.256 202.148 239.151 201.336 239.151 c 199.566 239.151 198.18 239.608
 197.176 240.526 c 196.172 241.463 195.672 242.69 195.672 244.206 c 195.672
 254.252 l 191.801 254.252 l 191.801 256.366 l 195.672 256.366 l 195.672
 260.174 l 198.359 260.495 l 198.359 256.366 l 204.215 256.366 l 203.863
 254.252 l 198.359 254.252 l 198.359 244.237 l 198.359 243.276 198.617 242.561
 199.129 242.092 c 199.641 241.623 200.461 241.389 201.594 241.389 c 202.746
 241.389 203.82 241.655 204.824 242.19 c h
205.879 240.366 m f
218.09 256.717 m 220.418 256.717 222.199 255.928 223.438 254.35 c 224.695
 252.791 225.324 250.659 225.324 247.948 c 225.324 245.303 224.684 243.17
 223.402 241.549 c 222.145 239.948 220.363 239.151 218.059 239.151 c 215.734
 239.151 213.941 239.928 212.684 241.487 c 211.426 243.065 210.797 245.209
 210.797 247.916 c 210.797 250.584 211.426 252.717 212.684 254.319 c 213.965
 255.916 215.766 256.717 218.09 256.717 c h
218.09 254.51 m 216.621 254.51 215.52 253.963 214.797 252.877 c 214.07 
251.788 213.707 250.135 213.707 247.916 c 213.707 245.698 214.059 244.045
 214.766 242.956 c 215.488 241.889 216.586 241.358 218.059 241.358 c 219.531
 241.358 220.621 241.889 221.324 242.956 c 222.051 244.045 222.41 245.709
 222.41 247.948 c 222.41 250.166 222.051 251.811 221.324 252.877 c 220.621
 253.963 219.543 254.51 218.09 254.51 c h
218.09 254.51 m f
234.398 241.963 m 234.398 242.756 234.664 243.416 235.199 243.948 c 235.754
 244.502 236.426 244.78 237.215 244.78 c 238.027 244.78 238.699 244.502 
239.23 243.948 c 239.766 243.416 240.031 242.756 240.031 241.963 c 240.031
 241.155 239.766 240.483 239.23 239.948 c 238.699 239.416 238.027 239.151
 237.215 239.151 c 236.426 239.151 235.754 239.416 235.199 239.948 c 234.664
 240.502 234.398 241.174 234.398 241.963 c h
234.398 241.963 m f
261.141 256.717 m 262.098 256.717 262.879 256.377 263.477 255.694 c 264.094
 255.034 264.402 253.815 264.402 252.045 c 264.402 239.502 l 261.938 239.502
 l 261.938 251.596 l 261.938 252.772 261.863 253.561 261.715 253.963 c 261.566
 254.393 261.203 254.604 260.625 254.604 c 259.539 254.604 258.559 253.932
 257.684 252.588 c 257.684 239.502 l 255.188 239.502 l 255.188 251.596 l
 255.188 252.772 255.113 253.561 254.961 253.963 c 254.813 254.393 254.449
 254.604 253.875 254.604 c 252.785 254.604 251.805 253.932 250.93 252.588
 c 250.93 239.502 l 248.465 239.502 l 248.465 256.366 l 250.547 256.366 
l 250.738 254.381 l 251.25 255.127 251.785 255.706 252.34 256.108 c 252.914
 256.514 253.598 256.717 254.387 256.717 c 255.965 256.717 256.98 255.971
 257.426 254.479 c 257.938 255.202 258.484 255.756 259.059 256.143 c 259.637
 256.526 260.328 256.717 261.141 256.717 c h
261.141 256.717 m f
275.813 243.663 m 275.813 242.147 276.742 241.389 278.598 241.389 c 279.473
 241.389 280.41 241.581 281.414 241.963 c 282.117 240.014 l 281.051 239.436
 279.719 239.151 278.117 239.151 c 276.605 239.151 275.387 239.565 274.469
 240.397 c 273.574 241.229 273.125 242.362 273.125 243.788 c 273.125 261.006
 l 267.941 261.006 l 267.941 263.151 l 275.813 263.151 l h
275.813 243.663 m f
0.384314 0.447059 0.643137 rg
49.5 206.991 m 52.094 206.991 l 52.094 204.94 l 49.18 204.94 l 48.508 199.502
 l 46.234 199.502 l 46.941 204.94 l 42.301 204.94 l 41.563 199.502 l 39.293
 199.502 l 39.996 204.94 l 37.469 204.94 l 37.469 206.991 l 40.254 206.991
 l 41.246 214.092 l 38.652 214.092 l 38.652 216.206 l 41.5 216.206 l 42.234
 221.549 l 44.508 221.549 l 43.773 216.206 l 48.445 216.206 l 49.18 221.549
 l 51.453 221.549 l 50.715 216.206 l 53.277 216.206 l 53.277 214.092 l 50.43
 214.092 l h
47.195 206.991 m 48.188 214.092 l 43.484 214.092 l 42.555 206.991 l h
47.195 206.991 m f
110.199 209.452 m 101.527 199.694 l 99.512 201.42 l 101.527 203.627 l 102.082
 204.248 102.742 204.791 103.512 205.26 c 78.199 205.26 l 78.199 207.565
 l 105.145 207.565 l 106.84 209.452 l 105.145 211.342 l 78.199 211.342 l
 78.199 213.647 l 103.512 213.647 l 102.785 214.092 102.125 214.647 101.527
 215.311 c 99.512 217.487 l 101.527 219.213 l h
110.199 209.452 m f
142.27 213.838 m 143.422 213.838 144.469 213.581 145.406 213.069 c 146.367
 212.557 147.125 211.78 147.68 210.733 c 148.234 209.709 148.512 208.44 
148.512 206.924 c 148.512 205.346 148.199 203.959 147.582 202.764 c 146.965
 201.592 146.133 200.698 145.086 200.077 c 144.039 199.459 142.867 199.151
 141.566 199.151 c 139.004 199.151 137.141 200.077 135.965 201.932 c 134.813
 203.788 134.238 206.444 134.238 209.901 c 134.238 212.334 134.559 214.444
 135.199 216.237 c 135.859 218.049 136.797 219.448 138.016 220.428 c 139.25
 221.409 140.723 221.901 142.43 221.901 c 144.031 221.901 145.492 221.463
 146.813 220.588 c 145.758 218.795 l 144.711 219.416 143.594 219.725 142.398
 219.725 c 140.734 219.725 139.422 218.924 138.461 217.327 c 137.5 215.745
 137 213.604 136.957 210.893 c 137.641 211.916 138.418 212.663 139.293 213.131
 c 140.168 213.604 141.16 213.838 142.27 213.838 c h
141.566 201.327 m 142.93 201.327 143.965 201.807 144.668 202.764 c 145.395
 203.745 145.758 205.1 145.758 206.831 c 145.758 210.049 144.457 211.663
 141.855 211.663 c 140.828 211.663 139.902 211.385 139.07 210.831 c 138.258
 210.276 137.566 209.518 136.988 208.557 c 137.031 206.041 137.418 204.206
 138.141 203.053 c 138.867 201.901 140.008 201.327 141.566 201.327 c h
141.566 201.327 m f
160.496 221.901 m 162.844 221.901 164.625 220.92 165.84 218.956 c 167.078
 217.014 167.695 214.209 167.695 210.541 c 167.695 206.85 167.078 204.022
 165.84 202.061 c 164.625 200.12 162.844 199.151 160.496 199.151 c 158.152
 199.151 156.359 200.12 155.121 202.061 c 153.906 204.022 153.297 206.85
 153.297 210.541 c 153.297 214.209 153.906 217.014 155.121 218.956 c 156.359
 220.92 158.152 221.901 160.496 221.901 c h
160.496 219.725 m 157.574 219.725 156.113 216.663 156.113 210.541 c 156.113
 204.397 157.574 201.327 160.496 201.327 c 163.422 201.327 164.883 204.397
 164.883 210.541 c 164.883 216.663 163.422 219.725 160.496 219.725 c h
160.496 212.62 m 161.094 212.62 161.598 212.42 162 212.014 c 162.406 211.608
 162.609 211.116 162.609 210.541 c 162.609 209.944 162.406 209.444 162 209.038
 c 161.598 208.631 161.094 208.428 160.496 208.428 c 159.898 208.428 159.398
 208.631 158.992 209.038 c 158.609 209.444 158.418 209.944 158.418 210.541
 c 158.418 211.116 158.609 211.608 158.992 212.014 c 159.398 212.42 159.898
 212.62 160.496 212.62 c h
160.496 212.62 m f
179.684 221.901 m 182.031 221.901 183.813 220.92 185.027 218.956 c 186.266
 217.014 186.887 214.209 186.887 210.541 c 186.887 206.85 186.266 204.022
 185.027 202.061 c 183.813 200.12 182.031 199.151 179.684 199.151 c 177.34
 199.151 175.547 200.12 174.309 202.061 c 173.094 204.022 172.484 206.85
 172.484 210.541 c 172.484 214.209 173.094 217.014 174.309 218.956 c 175.547
 220.92 177.34 221.901 179.684 221.901 c h
179.684 219.725 m 176.762 219.725 175.301 216.663 175.301 210.541 c 175.301
 204.397 176.762 201.327 179.684 201.327 c 182.609 201.327 184.07 204.397
 184.07 210.541 c 184.07 216.663 182.609 219.725 179.684 219.725 c h
179.684 212.62 m 180.281 212.62 180.785 212.42 181.188 212.014 c 181.594
 211.608 181.797 211.116 181.797 210.541 c 181.797 209.944 181.594 209.444
 181.188 209.038 c 180.785 208.631 180.281 208.428 179.684 208.428 c 179.086
 208.428 178.586 208.631 178.18 209.038 c 177.797 209.444 177.605 209.944
 177.605 210.541 c 177.605 211.116 177.797 211.608 178.18 212.014 c 178.586
 212.42 179.086 212.62 179.684 212.62 c h
179.684 212.62 m f
0.741176 0.576471 0.976471 rg
52.668 164.846 m 49.82 164.846 l 49.82 159.502 l 47.227 159.502 l 47.227
 164.846 l 38.078 164.846 l 38.078 166.831 l 44.539 181.901 l 46.781 180.94
 l 40.926 167.022 l 47.262 167.022 l 47.484 173.26 l 49.82 173.26 l 49.82
 167.022 l 52.668 167.022 l h
52.668 164.846 m f
1 g
61.711 161.963 m 61.711 162.756 61.977 163.416 62.512 163.948 c 63.066 
164.502 63.738 164.78 64.527 164.78 c 65.34 164.78 66.012 164.502 66.543
 163.948 c 67.078 163.416 67.344 162.756 67.344 161.963 c 67.344 161.155
 67.078 160.483 66.543 159.948 c 66.012 159.416 65.34 159.151 64.527 159.151
 c 63.738 159.151 63.066 159.416 62.512 159.948 c 61.977 160.502 61.711 
161.174 61.711 161.963 c h
61.711 161.963 m f
88.738 176.717 m 89.422 176.717 90.211 176.6 91.105 176.366 c 90.723 170.639
 l 88.547 170.639 l 88.547 174.252 l 88.387 174.252 l 85.785 174.252 83.938
 172.397 82.852 168.686 c 82.852 161.581 l 86.273 161.581 l 86.273 159.502
 l 77.508 159.502 l 77.508 161.581 l 80.164 161.581 l 80.164 174.284 l 77.508
 174.284 l 77.508 176.366 l 82.18 176.366 l 82.691 172.366 l 83.375 173.815
 84.184 174.905 85.125 175.627 c 86.082 176.354 87.289 176.717 88.738 176.717
 c h
88.738 176.717 m f
102.965 176.717 m 105.293 176.717 107.074 175.928 108.313 174.35 c 109.57
 172.791 110.199 170.659 110.199 167.948 c 110.199 165.303 109.559 163.17
 108.277 161.549 c 107.02 159.948 105.238 159.151 102.934 159.151 c 100.609
 159.151 98.816 159.928 97.559 161.487 c 96.301 163.065 95.672 165.209 95.672
 167.916 c 95.672 170.584 96.301 172.717 97.559 174.319 c 98.84 175.916 
100.641 176.717 102.965 176.717 c h
102.965 174.51 m 101.496 174.51 100.395 173.963 99.672 172.877 c 98.945
 171.788 98.582 170.135 98.582 167.916 c 98.582 165.698 98.934 164.045 99.641
 162.956 c 100.363 161.889 101.461 161.358 102.934 161.358 c 104.406 161.358
 105.496 161.889 106.199 162.956 c 106.926 164.045 107.285 165.709 107.285
 167.948 c 107.285 170.166 106.926 171.811 106.199 172.877 c 105.496 173.963
 104.418 174.51 102.965 174.51 c h
102.965 174.51 m f
128.523 183.151 m 128.523 159.502 l 126.152 159.502 l 125.898 161.709 l
 125.281 160.854 124.566 160.217 123.754 159.788 c 122.945 159.362 122.07
 159.151 121.129 159.151 c 118.996 159.151 117.387 159.928 116.297 161.487
 c 115.23 163.041 114.699 165.186 114.699 167.916 c 114.699 169.604 114.965
 171.108 115.5 172.428 c 116.031 173.772 116.789 174.819 117.77 175.565 
c 118.773 176.334 119.945 176.717 121.289 176.717 c 123.145 176.717 124.66
 176.045 125.836 174.702 c 125.836 183.467 l h
121.996 174.541 m 120.586 174.541 119.5 173.987 118.73 172.877 c 117.984
 171.768 117.609 170.116 117.609 167.916 c 117.609 165.741 117.953 164.088
 118.633 162.956 c 119.34 161.846 120.352 161.291 121.676 161.291 c 123.273
 161.291 124.66 162.19 125.836 163.983 c 125.836 172.366 l 125.363 173.069
 124.801 173.604 124.137 173.963 c 123.477 174.35 122.762 174.541 121.996
 174.541 c h
121.996 174.541 m f
147.004 163.182 m 147.004 162.518 147.113 162.03 147.324 161.709 c 147.539
 161.409 147.891 161.186 148.383 161.038 c 147.711 159.116 l 146.066 159.331
 145.043 160.131 144.637 161.518 c 144.039 160.748 143.281 160.163 142.367
 159.756 c 141.469 159.35 140.469 159.151 139.359 159.151 c 137.672 159.151
 136.34 159.62 135.359 160.557 c 134.398 161.495 133.918 162.756 133.918
 164.334 c 133.918 166.061 134.59 167.393 135.934 168.334 c 137.301 169.272
 139.25 169.741 141.789 169.741 c 144.285 169.741 l 144.285 171.116 l 144.285
 172.311 143.945 173.166 143.262 173.678 c 142.578 174.209 141.586 174.479
 140.285 174.479 c 139.004 174.479 137.543 174.19 135.902 173.612 c 135.164
 175.663 l 137.148 176.366 138.996 176.717 140.703 176.717 c 142.75 176.717
 144.309 176.237 145.375 175.276 c 146.461 174.319 147.004 172.983 147.004
 171.276 c h
140.031 161.166 m 140.863 161.166 141.652 161.377 142.398 161.807 c 143.164
 162.233 143.797 162.819 144.285 163.565 c 144.285 167.885 l 141.855 167.885
 l 140.063 167.885 138.77 167.588 137.98 166.991 c 137.191 166.393 136.797
 165.518 136.797 164.366 c 136.797 162.233 137.875 161.166 140.031 161.166
 c h
140.031 161.166 m f
162.641 184.237 m 163.219 184.237 163.688 184.057 164.051 183.694 c 164.41
 183.35 164.594 182.905 164.594 182.35 c 164.594 181.795 164.41 181.334 
164.051 180.975 c 163.688 180.631 163.219 180.459 162.641 180.459 c 162.066
 180.459 161.598 180.631 161.234 180.975 c 160.871 181.334 160.688 181.795
 160.688 182.35 c 160.688 182.905 160.871 183.35 161.234 183.694 c 161.598
 184.057 162.066 184.237 162.641 184.237 c h
165.137 162.19 m 165.137 159.479 164.23 157.377 162.418 155.885 c 160.625
 154.37 157.957 153.315 154.418 152.717 c 153.969 154.795 l 156.68 155.245
 158.77 156.034 160.242 157.166 c 161.715 158.276 162.449 159.897 162.449
 162.03 c 162.449 174.221 l 155.441 174.221 l 155.441 176.366 l 165.137 
176.366 l h
165.137 162.19 m f
185.379 163.182 m 185.379 162.518 185.488 162.03 185.699 161.709 c 185.914
 161.409 186.266 161.186 186.758 161.038 c 186.086 159.116 l 184.441 159.331
 183.418 160.131 183.012 161.518 c 182.414 160.748 181.656 160.163 180.742
 159.756 c 179.844 159.35 178.844 159.151 177.734 159.151 c 176.047 159.151
 174.715 159.62 173.734 160.557 c 172.773 161.495 172.293 162.756 172.293
 164.334 c 172.293 166.061 172.965 167.393 174.309 168.334 c 175.676 169.272
 177.625 169.741 180.164 169.741 c 182.66 169.741 l 182.66 171.116 l 182.66
 172.311 182.32 173.166 181.637 173.678 c 180.953 174.209 179.961 174.479
 178.66 174.479 c 177.379 174.479 175.918 174.19 174.277 173.612 c 173.539
 175.663 l 175.523 176.366 177.371 176.717 179.078 176.717 c 181.125 176.717
 182.684 176.237 183.75 175.276 c 184.836 174.319 185.379 172.983 185.379
 171.276 c h
178.406 161.166 m 179.238 161.166 180.027 161.377 180.773 161.807 c 181.539
 162.233 182.172 162.819 182.66 163.565 c 182.66 167.885 l 180.23 167.885
 l 178.438 167.885 177.145 167.588 176.355 166.991 c 175.566 166.393 175.172
 165.518 175.172 164.366 c 175.172 162.233 176.25 161.166 178.406 161.166
 c h
178.406 161.166 m f
198.23 161.358 m 199.512 161.358 200.527 161.604 201.273 162.092 c 202.02
 162.584 202.391 163.233 202.391 164.045 c 202.391 164.6 202.297 165.049
 202.105 165.389 c 201.914 165.752 201.527 166.073 200.953 166.35 c 200.375
 166.647 199.5 166.948 198.328 167.245 c 196.367 167.737 194.914 168.323
 193.977 169.006 c 193.039 169.709 192.566 170.745 192.566 172.108 c 192.566
 173.518 193.156 174.639 194.328 175.467 c 195.5 176.299 197.047 176.717
 198.969 176.717 c 201.316 176.717 203.363 176.1 205.113 174.862 c 203.895
 173.006 l 203.191 173.495 202.457 173.87 201.688 174.123 c 200.922 174.401
 200.035 174.541 199.031 174.541 c 196.602 174.541 195.383 173.807 195.383
 172.334 c 195.383 171.823 195.512 171.405 195.77 171.084 c 196.047 170.764
 196.484 170.479 197.082 170.221 c 197.699 169.987 198.617 169.698 199.832
 169.358 c 201.668 168.866 203.031 168.237 203.93 167.467 c 204.844 166.721
 205.305 165.623 205.305 164.174 c 205.305 162.487 204.621 161.229 203.258
 160.397 c 201.891 159.565 200.215 159.151 198.23 159.151 c 195.586 159.151
 193.391 159.905 191.641 161.42 c 193.145 163.182 l 193.828 162.627 194.605
 162.178 195.48 161.838 c 196.355 161.518 197.273 161.358 198.23 161.358
 c h
198.23 161.358 m f
215.211 161.963 m 215.211 162.756 215.477 163.416 216.012 163.948 c 216.566
 164.502 217.238 164.78 218.027 164.78 c 218.84 164.78 219.512 164.502 220.043
 163.948 c 220.578 163.416 220.844 162.756 220.844 161.963 c 220.844 161.155
 220.578 160.483 220.043 159.948 c 219.512 159.416 218.84 159.151 218.027
 159.151 c 217.238 159.151 216.566 159.416 216.012 159.948 c 215.477 160.502
 215.211 161.174 215.211 161.963 c h
215.211 161.963 m f
244.254 160.366 m 243.68 159.983 242.977 159.682 242.145 159.467 c 241.332
 159.256 240.523 159.151 239.711 159.151 c 237.941 159.151 236.555 159.608
 235.551 160.526 c 234.547 161.463 234.047 162.69 234.047 164.206 c 234.047
 174.252 l 230.176 174.252 l 230.176 176.366 l 234.047 176.366 l 234.047
 180.174 l 236.734 180.495 l 236.734 176.366 l 242.59 176.366 l 242.238 
174.252 l 236.734 174.252 l 236.734 164.237 l 236.734 163.276 236.992 162.561
 237.504 162.092 c 238.016 161.623 238.836 161.389 239.969 161.389 c 241.121
 161.389 242.195 161.655 243.199 162.19 c h
244.254 160.366 m f
256.465 176.717 m 258.793 176.717 260.574 175.928 261.813 174.35 c 263.07
 172.791 263.699 170.659 263.699 167.948 c 263.699 165.303 263.059 163.17
 261.777 161.549 c 260.52 159.948 258.738 159.151 256.434 159.151 c 254.109
 159.151 252.316 159.928 251.059 161.487 c 249.801 163.065 249.172 165.209
 249.172 167.916 c 249.172 170.584 249.801 172.717 251.059 174.319 c 252.34
 175.916 254.141 176.717 256.465 176.717 c h
256.465 174.51 m 254.996 174.51 253.895 173.963 253.172 172.877 c 252.445
 171.788 252.082 170.135 252.082 167.916 c 252.082 165.698 252.434 164.045
 253.141 162.956 c 253.863 161.889 254.961 161.358 256.434 161.358 c 257.906
 161.358 258.996 161.889 259.699 162.956 c 260.426 164.045 260.785 165.709
 260.785 167.948 c 260.785 170.166 260.426 171.811 259.699 172.877 c 258.996
 173.963 257.918 174.51 256.465 174.51 c h
256.465 174.51 m f
272.773 161.963 m 272.773 162.756 273.039 163.416 273.574 163.948 c 274.129
 164.502 274.801 164.78 275.59 164.78 c 276.402 164.78 277.074 164.502 277.605
 163.948 c 278.141 163.416 278.406 162.756 278.406 161.963 c 278.406 161.155
 278.141 160.483 277.605 159.948 c 277.074 159.416 276.402 159.151 275.59
 159.151 c 274.801 159.151 274.129 159.416 273.574 159.948 c 273.039 160.502
 272.773 161.174 272.773 161.963 c h
272.773 161.963 m f
302.938 175.596 m 302.297 175.385 301.605 175.245 300.859 175.182 c 300.109
 175.139 299.16 175.116 298.012 175.116 c 299.973 174.221 300.953 172.803
 300.953 170.862 c 300.953 169.155 300.387 167.768 299.258 166.702 c 298.129
 165.655 296.582 165.131 294.617 165.131 c 293.613 165.131 292.773 165.252
 292.09 165.487 c 291.832 165.291 291.621 165.049 291.449 164.748 c 291.301
 164.452 291.227 164.151 291.227 163.854 c 291.227 162.893 291.973 162.413
 293.465 162.413 c 296.504 162.413 l 297.613 162.413 298.617 162.209 299.516
 161.807 c 300.43 161.42 301.145 160.877 301.656 160.174 c 302.191 159.467
 302.457 158.69 302.457 157.838 c 302.457 156.194 301.754 154.936 300.348
 154.061 c 298.961 153.166 296.984 152.717 294.426 152.717 c 291.824 152.717
 289.988 153.123 288.922 153.932 c 287.855 154.745 287.32 156.034 287.32
 157.807 c 289.754 157.807 l 289.754 157.1 289.883 156.545 290.137 156.143
 c 290.414 155.713 290.883 155.405 291.547 155.213 c 292.227 154.998 293.188
 154.893 294.426 154.893 c 296.238 154.893 297.574 155.127 298.426 155.596
 c 299.301 156.065 299.738 156.76 299.738 157.678 c 299.738 158.444 299.387
 159.041 298.684 159.467 c 297.977 159.873 297.07 160.077 295.961 160.077
 c 292.953 160.077 l 291.566 160.077 290.512 160.377 289.785 160.975 c 289.059
 161.592 288.699 162.362 288.699 163.276 c 288.699 163.811 288.859 164.334
 289.18 164.846 c 289.496 165.377 289.957 165.838 290.555 166.221 c 289.594
 166.713 288.879 167.331 288.41 168.077 c 287.961 168.846 287.738 169.772
 287.738 170.862 c 287.738 171.991 288.016 172.995 288.57 173.87 c 289.145
 174.764 289.934 175.459 290.938 175.948 c 291.961 176.459 293.137 176.717
 294.457 176.717 c 296.379 176.717 297.84 176.823 298.84 177.038 c 299.844
 177.252 300.941 177.612 302.137 178.123 c h
294.426 174.733 m 293.125 174.733 292.145 174.381 291.48 173.678 c 290.82
 172.995 290.488 172.057 290.488 170.862 c 290.488 169.666 290.82 168.706
 291.48 167.983 c 292.164 167.276 293.168 166.924 294.488 166.924 c 295.684
 166.924 296.59 167.268 297.211 167.948 c 297.852 168.655 298.168 169.635
 298.168 170.893 c 298.168 173.452 296.922 174.733 294.426 174.733 c h
294.426 174.733 m f
0.384314 0.447059 0.643137 rg
49.5 126.991 m 52.094 126.991 l 52.094 124.94 l 49.18 124.94 l 48.508 119.502
 l 46.234 119.502 l 46.941 124.94 l 42.301 124.94 l 41.563 119.502 l 39.293
 119.502 l 39.996 124.94 l 37.469 124.94 l 37.469 126.991 l 40.254 126.991
 l 41.246 134.092 l 38.652 134.092 l 38.652 136.206 l 41.5 136.206 l 42.234
 141.549 l 44.508 141.549 l 43.773 136.206 l 48.445 136.206 l 49.18 141.549
 l 51.453 141.549 l 50.715 136.206 l 53.277 136.206 l 53.277 134.092 l 50.43
 134.092 l h
47.195 126.991 m 48.188 134.092 l 43.484 134.092 l 42.555 126.991 l h
47.195 126.991 m f
110.199 129.452 m 101.527 119.694 l 99.512 121.42 l 101.527 123.627 l 102.082
 124.248 102.742 124.791 103.512 125.26 c 78.199 125.26 l 78.199 127.565
 l 105.145 127.565 l 106.84 129.452 l 105.145 131.342 l 78.199 131.342 l
 78.199 133.647 l 103.512 133.647 l 102.785 134.092 102.125 134.647 101.527
 135.311 c 99.512 137.487 l 101.527 139.213 l h
110.199 129.452 m f
147.902 136.299 m 147.902 135.256 147.582 134.338 146.941 133.549 c 146.301
 132.76 145.352 132.014 144.094 131.311 c 145.586 130.69 146.75 129.881 
147.582 128.877 c 148.414 127.873 148.828 126.721 148.828 125.42 c 148.828
 124.225 148.52 123.151 147.902 122.19 c 147.281 121.229 146.398 120.483
 145.246 119.948 c 144.094 119.416 142.762 119.151 141.246 119.151 c 139.711
 119.151 138.375 119.416 137.246 119.948 c 136.113 120.502 135.25 121.252
 134.652 122.19 c 134.078 123.127 133.789 124.182 133.789 125.358 c 133.789
 127.811 135.273 129.729 138.238 131.116 c 137.023 131.694 136.125 132.366
 135.551 133.131 c 134.996 133.924 134.719 134.924 134.719 136.143 c 134.719
 137.401 135.047 138.467 135.711 139.342 c 136.371 140.217 137.203 140.854
 138.207 141.26 c 139.23 141.686 140.266 141.901 141.309 141.901 c 142.441
 141.901 143.508 141.698 144.512 141.291 c 145.512 140.889 146.324 140.26
 146.941 139.405 c 147.582 138.573 147.902 137.538 147.902 136.299 c h
137.34 136.108 m 137.34 135.299 137.523 134.647 137.887 134.159 c 138.27
 133.686 138.77 133.303 139.391 133.006 c 140.008 132.729 140.945 132.385
 142.207 131.983 c 143.293 132.62 144.074 133.241 144.543 133.838 c 145.031
 134.456 145.277 135.233 145.277 136.174 c 145.277 137.284 144.926 138.159
 144.223 138.795 c 143.539 139.459 142.57 139.788 141.309 139.788 c 140.051
 139.788 139.07 139.467 138.367 138.831 c 137.684 138.19 137.34 137.284 
137.34 136.108 c h
145.98 125.358 m 145.98 126.295 145.746 127.053 145.277 127.627 c 144.809
 128.225 144.191 128.698 143.422 129.038 c 142.676 129.377 141.555 129.815
 140.063 130.35 c 137.777 129.284 136.637 127.62 136.637 125.358 c 136.637
 124.1 137.031 123.108 137.82 122.381 c 138.609 121.678 139.754 121.327 
141.246 121.327 c 142.738 121.327 143.902 121.698 144.734 122.444 c 145.566
 123.19 145.98 124.163 145.98 125.358 c h
145.98 125.358 m f
160.496 141.901 m 162.844 141.901 164.625 140.92 165.84 138.956 c 167.078
 137.014 167.695 134.209 167.695 130.541 c 167.695 126.85 167.078 124.022
 165.84 122.061 c 164.625 120.12 162.844 119.151 160.496 119.151 c 158.152
 119.151 156.359 120.12 155.121 122.061 c 153.906 124.022 153.297 126.85
 153.297 130.541 c 153.297 134.209 153.906 137.014 155.121 138.956 c 156.359
 140.92 158.152 141.901 160.496 141.901 c h
160.496 139.725 m 157.574 139.725 156.113 136.663 156.113 130.541 c 156.113
 124.397 157.574 121.327 160.496 121.327 c 163.422 121.327 164.883 124.397
 164.883 130.541 c 164.883 136.663 163.422 139.725 160.496 139.725 c h
160.496 132.62 m 161.094 132.62 161.598 132.42 162 132.014 c 162.406 131.608
 162.609 131.116 162.609 130.541 c 162.609 129.944 162.406 129.444 162 129.038
 c 161.598 128.631 161.094 128.428 160.496 128.428 c 159.898 128.428 159.398
 128.631 158.992 129.038 c 158.609 129.444 158.418 129.944 158.418 130.541
 c 158.418 131.116 158.609 131.608 158.992 132.014 c 159.398 132.42 159.898
 132.62 160.496 132.62 c h
160.496 132.62 m f
0.741176 0.576471 0.976471 rg
52.316 81.678 m 52.316 79.502 l 39.613 79.502 l 39.613 81.678 l 45.02 81.678
 l 45.02 98.604 l 39.996 95.565 l 38.813 97.452 l 45.371 101.549 l 47.742
 101.549 l 47.742 81.678 l h
52.316 81.678 m f
1 g
61.711 81.963 m 61.711 82.756 61.977 83.416 62.512 83.948 c 63.066 84.502
 63.738 84.78 64.527 84.78 c 65.34 84.78 66.012 84.502 66.543 83.948 c 67.078
 83.416 67.344 82.756 67.344 81.963 c 67.344 81.155 67.078 80.483 66.543
 79.948 c 66.012 79.416 65.34 79.151 64.527 79.151 c 63.738 79.151 63.066
 79.416 62.512 79.948 c 61.977 80.502 61.711 81.174 61.711 81.963 c h
61.711 81.963 m f
80.227 79.502 m 77.539 79.502 l 77.539 103.151 l 80.227 103.467 l h
83.906 88.748 m 92.355 79.502 l 88.805 79.502 l 80.516 88.717 l 88.004 
96.366 l 91.461 96.366 l h
83.906 88.748 m f
102.934 104.237 m 103.531 104.237 104.012 104.057 104.375 103.694 c 104.738
 103.35 104.918 102.905 104.918 102.35 c 104.918 101.795 104.738 101.334
 104.375 100.975 c 104.012 100.631 103.531 100.459 102.934 100.459 c 102.359
 100.459 101.891 100.631 101.527 100.975 c 101.184 101.334 101.016 101.795
 101.016 102.35 c 101.016 102.905 101.184 103.35 101.527 103.694 c 101.891
 104.057 102.359 104.237 102.934 104.237 c h
105.078 81.647 m 109.816 81.647 l 109.816 79.502 l 97.207 79.502 l 97.207
 81.647 l 102.391 81.647 l 102.391 94.221 l 97.367 94.221 l 97.367 96.366
 l 105.078 96.366 l h
105.078 81.647 m f
122.313 83.663 m 122.313 82.147 123.242 81.389 125.098 81.389 c 125.973
 81.389 126.91 81.581 127.914 81.963 c 128.617 80.014 l 127.551 79.436 126.219
 79.151 124.617 79.151 c 123.105 79.151 121.887 79.565 120.969 80.397 c 
120.074 81.229 119.625 82.362 119.625 83.788 c 119.625 101.006 l 114.441
 101.006 l 114.441 103.151 l 122.313 103.151 l h
122.313 83.663 m f
141.34 96.717 m 143.668 96.717 145.449 95.928 146.688 94.35 c 147.945 92.791
 148.574 90.659 148.574 87.948 c 148.574 85.303 147.934 83.17 146.652 81.549
 c 145.395 79.948 143.613 79.151 141.309 79.151 c 138.984 79.151 137.191
 79.928 135.934 81.487 c 134.676 83.065 134.047 85.209 134.047 87.916 c 
134.047 90.584 134.676 92.717 135.934 94.319 c 137.215 95.916 139.016 96.717
 141.34 96.717 c h
141.34 94.51 m 139.871 94.51 138.77 93.963 138.047 92.877 c 137.32 91.788
 136.957 90.135 136.957 87.916 c 136.957 85.698 137.309 84.045 138.016 82.956
 c 138.738 81.889 139.836 81.358 141.309 81.358 c 142.781 81.358 143.871
 81.889 144.574 82.956 c 145.301 84.045 145.66 85.709 145.66 87.948 c 145.66
 90.166 145.301 91.811 144.574 92.877 c 143.871 93.963 142.793 94.51 141.34
 94.51 c h
141.34 94.51 m f
168.625 95.596 m 167.984 95.385 167.293 95.245 166.547 95.182 c 165.797
 95.139 164.848 95.116 163.695 95.116 c 165.66 94.221 166.641 92.803 166.641
 90.862 c 166.641 89.155 166.074 87.768 164.945 86.702 c 163.816 85.655 
162.27 85.131 160.305 85.131 c 159.301 85.131 158.461 85.252 157.777 85.487
 c 157.52 85.291 157.309 85.049 157.137 84.748 c 156.988 84.452 156.914 
84.151 156.914 83.854 c 156.914 82.893 157.66 82.413 159.152 82.413 c 162.191
 82.413 l 163.301 82.413 164.305 82.209 165.203 81.807 c 166.117 81.42 166.832
 80.877 167.344 80.174 c 167.879 79.467 168.145 78.69 168.145 77.838 c 168.145
 76.194 167.441 74.936 166.035 74.061 c 164.648 73.166 162.672 72.717 160.113
 72.717 c 157.512 72.717 155.676 73.123 154.609 73.932 c 153.543 74.745 
153.008 76.034 153.008 77.807 c 155.441 77.807 l 155.441 77.1 155.57 76.545
 155.824 76.143 c 156.102 75.713 156.57 75.405 157.234 75.213 c 157.914 
74.998 158.875 74.893 160.113 74.893 c 161.926 74.893 163.262 75.127 164.113
 75.596 c 164.988 76.065 165.426 76.76 165.426 77.678 c 165.426 78.444 165.074
 79.041 164.371 79.467 c 163.664 79.873 162.758 80.077 161.648 80.077 c 
158.641 80.077 l 157.254 80.077 156.199 80.377 155.473 80.975 c 154.746 
81.592 154.387 82.362 154.387 83.276 c 154.387 83.811 154.547 84.334 154.867
 84.846 c 155.184 85.377 155.645 85.838 156.242 86.221 c 155.281 86.713 
154.566 87.331 154.098 88.077 c 153.648 88.846 153.426 89.772 153.426 90.862
 c 153.426 91.991 153.703 92.995 154.258 93.87 c 154.832 94.764 155.621 
95.459 156.625 95.948 c 157.648 96.459 158.824 96.717 160.145 96.717 c 162.066
 96.717 163.527 96.823 164.527 97.038 c 165.531 97.252 166.629 97.612 167.824
 98.123 c h
160.113 94.733 m 158.813 94.733 157.832 94.381 157.168 93.678 c 156.508
 92.995 156.176 92.057 156.176 90.862 c 156.176 89.666 156.508 88.706 157.168
 87.983 c 157.852 87.276 158.855 86.924 160.176 86.924 c 161.371 86.924 
162.277 87.268 162.898 87.948 c 163.539 88.655 163.855 89.635 163.855 90.893
 c 163.855 93.452 162.609 94.733 160.113 94.733 c h
160.113 94.733 m f
184.676 96.717 m 185.359 96.717 186.148 96.6 187.043 96.366 c 186.66 90.639
 l 184.484 90.639 l 184.484 94.252 l 184.324 94.252 l 181.723 94.252 179.875
 92.397 178.789 88.686 c 178.789 81.581 l 182.211 81.581 l 182.211 79.502
 l 173.445 79.502 l 173.445 81.581 l 176.102 81.581 l 176.102 94.284 l 173.445
 94.284 l 173.445 96.366 l 178.117 96.366 l 178.629 92.366 l 179.313 93.815
 180.121 94.905 181.063 95.627 c 182.02 96.354 183.227 96.717 184.676 96.717
 c h
184.676 96.717 m f
204.566 83.182 m 204.566 82.518 204.676 82.03 204.887 81.709 c 205.102 
81.409 205.453 81.186 205.945 81.038 c 205.273 79.116 l 203.629 79.331 202.605
 80.131 202.199 81.518 c 201.602 80.748 200.844 80.163 199.93 79.756 c 199.031
 79.35 198.031 79.151 196.922 79.151 c 195.234 79.151 193.902 79.62 192.922
 80.557 c 191.961 81.495 191.48 82.756 191.48 84.334 c 191.48 86.061 192.152
 87.393 193.496 88.334 c 194.863 89.272 196.813 89.741 199.352 89.741 c 
201.848 89.741 l 201.848 91.116 l 201.848 92.311 201.508 93.166 200.824 
93.678 c 200.141 94.209 199.148 94.479 197.848 94.479 c 196.566 94.479 195.105
 94.19 193.465 93.612 c 192.727 95.663 l 194.711 96.366 196.559 96.717 198.266
 96.717 c 200.313 96.717 201.871 96.237 202.938 95.276 c 204.023 94.319 
204.566 92.983 204.566 91.276 c h
197.594 81.166 m 198.426 81.166 199.215 81.377 199.961 81.807 c 200.727
 82.233 201.359 82.819 201.848 83.565 c 201.848 87.885 l 199.418 87.885 
l 197.625 87.885 196.332 87.588 195.543 86.991 c 194.754 86.393 194.359 
85.518 194.359 84.366 c 194.359 82.233 195.438 81.166 197.594 81.166 c h
197.594 81.166 m f
222.766 96.717 m 223.723 96.717 224.504 96.377 225.102 95.694 c 225.719
 95.034 226.027 93.815 226.027 92.045 c 226.027 79.502 l 223.563 79.502 
l 223.563 91.596 l 223.563 92.772 223.488 93.561 223.34 93.963 c 223.191
 94.393 222.828 94.604 222.25 94.604 c 221.164 94.604 220.184 93.932 219.309
 92.588 c 219.309 79.502 l 216.813 79.502 l 216.813 91.596 l 216.813 92.772
 216.738 93.561 216.586 93.963 c 216.438 94.393 216.074 94.604 215.5 94.604
 c 214.41 94.604 213.43 93.932 212.555 92.588 c 212.555 79.502 l 210.09 
79.502 l 210.09 96.366 l 212.172 96.366 l 212.363 94.381 l 212.875 95.127
 213.41 95.706 213.965 96.108 c 214.539 96.514 215.223 96.717 216.012 96.717
 c 217.59 96.717 218.605 95.971 219.051 94.479 c 219.563 95.202 220.109 
95.756 220.684 96.143 c 221.262 96.526 221.953 96.717 222.766 96.717 c h
222.766 96.717 m f
237.277 96.717 m 239.605 96.717 241.387 95.928 242.625 94.35 c 243.883 
92.791 244.512 90.659 244.512 87.948 c 244.512 85.303 243.871 83.17 242.59
 81.549 c 241.332 79.948 239.551 79.151 237.246 79.151 c 234.922 79.151 
233.129 79.928 231.871 81.487 c 230.613 83.065 229.984 85.209 229.984 87.916
 c 229.984 90.584 230.613 92.717 231.871 94.319 c 233.152 95.916 234.953
 96.717 237.277 96.717 c h
237.277 94.51 m 235.809 94.51 234.707 93.963 233.984 92.877 c 233.258 91.788
 232.895 90.135 232.895 87.916 c 232.895 85.698 233.246 84.045 233.953 82.956
 c 234.676 81.889 235.773 81.358 237.246 81.358 c 238.719 81.358 239.809
 81.889 240.512 82.956 c 241.238 84.045 241.598 85.709 241.598 87.948 c 
241.598 90.166 241.238 91.811 240.512 92.877 c 239.809 93.963 238.73 94.51
 237.277 94.51 c h
237.277 94.51 m f
0.384314 0.447059 0.643137 rg
49.5 46.991 m 52.094 46.991 l 52.094 44.94 l 49.18 44.94 l 48.508 39.502
 l 46.234 39.502 l 46.941 44.94 l 42.301 44.94 l 41.563 39.502 l 39.293 
39.502 l 39.996 44.94 l 37.469 44.94 l 37.469 46.991 l 40.254 46.991 l 41.246
 54.092 l 38.652 54.092 l 38.652 56.206 l 41.5 56.206 l 42.234 61.549 l 
44.508 61.549 l 43.773 56.206 l 48.445 56.206 l 49.18 61.549 l 51.453 61.549
 l 50.715 56.206 l 53.277 56.206 l 53.277 54.092 l 50.43 54.092 l h
47.195 46.991 m 48.188 54.092 l 43.484 54.092 l 42.555 46.991 l h
47.195 46.991 m f
110.199 49.452 m 101.527 39.694 l 99.512 41.42 l 101.527 43.627 l 102.082
 44.248 102.742 44.791 103.512 45.26 c 78.199 45.26 l 78.199 47.565 l 105.145
 47.565 l 106.84 49.452 l 105.145 51.342 l 78.199 51.342 l 78.199 53.647
 l 103.512 53.647 l 102.785 54.092 102.125 54.647 101.527 55.311 c 99.512
 57.487 l 101.527 59.213 l h
110.199 49.452 m f
145.438 46.991 m 148.031 46.991 l 148.031 44.94 l 145.117 44.94 l 144.445
 39.502 l 142.172 39.502 l 142.879 44.94 l 138.238 44.94 l 137.5 39.502 
l 135.23 39.502 l 135.934 44.94 l 133.406 44.94 l 133.406 46.991 l 136.191
 46.991 l 137.184 54.092 l 134.59 54.092 l 134.59 56.206 l 137.438 56.206
 l 138.172 61.549 l 140.445 61.549 l 139.711 56.206 l 144.383 56.206 l 145.117
 61.549 l 147.391 61.549 l 146.652 56.206 l 149.215 56.206 l 149.215 54.092
 l 146.367 54.092 l h
143.133 46.991 m 144.125 54.092 l 139.422 54.092 l 138.492 46.991 l h
143.133 46.991 m f
167.313 56.459 m 156.016 49.518 l 167.313 42.51 l 165.875 40.557 l 153.715
 48.143 l 153.715 50.924 l 166 58.51 l h
167.313 56.459 m f
187.781 50.639 m 187.781 46.456 186.82 43.553 184.902 41.932 c 182.98 40.311
 180.613 39.502 177.797 39.502 c 172.742 39.502 l 172.742 61.549 l 177.445
 61.549 l 180.539 61.549 183.035 60.772 184.934 59.213 c 186.832 57.655 
187.781 54.795 187.781 50.639 c h
184.805 50.639 m 184.805 53.026 184.473 54.85 183.813 56.108 c 183.172 
57.389 182.371 58.233 181.414 58.639 c 180.453 59.065 179.355 59.276 178.117
 59.276 c 175.523 59.276 l 175.523 41.741 l 178.148 41.741 l 180.047 41.741
 181.625 42.393 182.887 43.694 c 184.164 45.014 184.805 47.331 184.805 50.639
 c h
184.805 50.639 m f
198.871 64.237 m 199.469 64.237 199.949 64.057 200.313 63.694 c 200.676
 63.35 200.855 62.905 200.855 62.35 c 200.855 61.795 200.676 61.334 200.313
 60.975 c 199.949 60.631 199.469 60.459 198.871 60.459 c 198.297 60.459 
197.828 60.631 197.465 60.975 c 197.121 61.334 196.953 61.795 196.953 62.35
 c 196.953 62.905 197.121 63.35 197.465 63.694 c 197.828 64.057 198.297 
64.237 198.871 64.237 c h
201.016 41.647 m 205.754 41.647 l 205.754 39.502 l 193.145 39.502 l 193.145
 41.647 l 198.328 41.647 l 198.328 54.221 l 193.305 54.221 l 193.305 56.366
 l 201.016 56.366 l h
201.016 41.647 m f
213.805 46.991 m 213.867 45.131 214.348 43.737 215.242 42.795 c 216.16 
41.858 217.313 41.389 218.699 41.389 c 219.531 41.389 220.289 41.506 220.973
 41.741 c 221.676 41.998 222.422 42.381 223.211 42.893 c 224.461 41.1 l 
223.672 40.483 222.766 40.002 221.738 39.663 c 220.738 39.319 219.723 39.151
 218.699 39.151 c 216.27 39.151 214.367 39.94 213.004 41.518 c 211.66 43.116
 210.988 45.252 210.988 47.916 c 210.988 49.604 211.285 51.108 211.883 52.428
 c 212.48 53.772 213.336 54.819 214.445 55.565 c 215.555 56.334 216.844 
56.717 218.316 56.717 c 220.449 56.717 222.125 55.971 223.34 54.479 c 224.578
 53.006 225.195 50.991 225.195 48.428 c 225.195 47.94 225.176 47.459 225.133
 46.991 c h
218.348 54.51 m 217.047 54.51 215.992 54.041 215.18 53.1 c 214.367 52.182
 213.91 50.831 213.805 49.038 c 222.57 49.038 l 222.551 50.807 222.168 52.163
 221.418 53.1 c 220.672 54.041 219.648 54.51 218.348 54.51 c h
218.348 54.51 m f
244.254 40.366 m 243.68 39.983 242.977 39.682 242.145 39.467 c 241.332 
39.256 240.523 39.151 239.711 39.151 c 237.941 39.151 236.555 39.608 235.551
 40.526 c 234.547 41.463 234.047 42.69 234.047 44.206 c 234.047 54.252 l
 230.176 54.252 l 230.176 56.366 l 234.047 56.366 l 234.047 60.174 l 236.734
 60.495 l 236.734 56.366 l 242.59 56.366 l 242.238 54.252 l 236.734 54.252
 l 236.734 44.237 l 236.734 43.276 236.992 42.561 237.504 42.092 c 238.016
 41.623 238.836 41.389 239.969 41.389 c 241.121 41.389 242.195 41.655 243.199
 42.19 c h
244.254 40.366 m f
262.129 43.182 m 262.129 42.518 262.238 42.03 262.449 41.709 c 262.664 
41.409 263.016 41.186 263.508 41.038 c 262.836 39.116 l 261.191 39.331 260.168
 40.131 259.762 41.518 c 259.164 40.748 258.406 40.163 257.492 39.756 c 
256.594 39.35 255.594 39.151 254.484 39.151 c 252.797 39.151 251.465 39.62
 250.484 40.557 c 249.523 41.495 249.043 42.756 249.043 44.334 c 249.043
 46.061 249.715 47.393 251.059 48.334 c 252.426 49.272 254.375 49.741 256.914
 49.741 c 259.41 49.741 l 259.41 51.116 l 259.41 52.311 259.07 53.166 258.387
 53.678 c 257.703 54.209 256.711 54.479 255.41 54.479 c 254.129 54.479 252.668
 54.19 251.027 53.612 c 250.289 55.663 l 252.273 56.366 254.121 56.717 255.828
 56.717 c 257.875 56.717 259.434 56.237 260.5 55.276 c 261.586 54.319 262.129
 52.983 262.129 51.276 c h
255.156 41.166 m 255.988 41.166 256.777 41.377 257.523 41.807 c 258.289
 42.233 258.922 42.819 259.41 43.565 c 259.41 47.885 l 256.98 47.885 l 255.188
 47.885 253.895 47.588 253.105 46.991 c 252.316 46.393 251.922 45.518 251.922
 44.366 c 251.922 42.233 253 41.166 255.156 41.166 c h
255.156 41.166 m f
280.613 56.717 m 281.297 56.717 282.086 56.6 282.98 56.366 c 282.598 50.639
 l 280.422 50.639 l 280.422 54.252 l 280.262 54.252 l 277.66 54.252 275.813
 52.397 274.727 48.686 c 274.727 41.581 l 278.148 41.581 l 278.148 39.502
 l 269.383 39.502 l 269.383 41.581 l 272.039 41.581 l 272.039 54.284 l 269.383
 54.284 l 269.383 56.366 l 274.055 56.366 l 274.566 52.366 l 275.25 53.815
 276.059 54.905 277 55.627 c 277.957 56.354 279.164 56.717 280.613 56.717
 c h
280.613 56.717 m f
296.539 39.405 m 295.875 37.463 294.969 35.916 293.816 34.764 c 292.664
 33.612 291.055 32.932 288.984 32.717 c 288.602 34.862 l 289.734 35.053 
290.629 35.35 291.289 35.756 c 291.973 36.143 292.504 36.631 292.891 37.229
 c 293.273 37.807 293.625 38.561 293.945 39.502 c 293.051 39.502 l 287.195
 56.366 l 290.043 56.366 l 294.875 41.549 l 299.641 56.366 l 302.426 56.366
 l h
296.539 39.405 m f
322.094 50.639 m 322.094 46.456 321.133 43.553 319.215 41.932 c 317.293
 40.311 314.926 39.502 312.109 39.502 c 307.055 39.502 l 307.055 61.549 
l 311.758 61.549 l 314.852 61.549 317.348 60.772 319.246 59.213 c 321.145
 57.655 322.094 54.795 322.094 50.639 c h
319.117 50.639 m 319.117 53.026 318.785 54.85 318.125 56.108 c 317.484 
57.389 316.684 58.233 315.727 58.639 c 314.766 59.065 313.668 59.276 312.43
 59.276 c 309.836 59.276 l 309.836 41.741 l 312.461 41.741 l 314.359 41.741
 315.938 42.393 317.195 43.694 c 318.477 45.014 319.117 47.331 319.117 50.639
 c h
319.117 50.639 m f
332.543 41.358 m 333.824 41.358 334.84 41.604 335.586 42.092 c 336.332 
42.584 336.703 43.233 336.703 44.045 c 336.703 44.6 336.609 45.049 336.418
 45.389 c 336.227 45.752 335.84 46.073 335.266 46.35 c 334.688 46.647 333.813
 46.948 332.641 47.245 c 330.68 47.737 329.227 48.323 328.289 49.006 c 327.352
 49.709 326.879 50.745 326.879 52.108 c 326.879 53.518 327.469 54.639 328.641
 55.467 c 329.813 56.299 331.359 56.717 333.281 56.717 c 335.629 56.717 
337.676 56.1 339.426 54.862 c 338.207 53.006 l 337.504 53.495 336.77 53.87
 336 54.123 c 335.234 54.401 334.348 54.541 333.344 54.541 c 330.914 54.541
 329.695 53.807 329.695 52.334 c 329.695 51.823 329.824 51.405 330.082 51.084
 c 330.359 50.764 330.797 50.479 331.395 50.221 c 332.012 49.987 332.93 
49.698 334.145 49.358 c 335.98 48.866 337.344 48.237 338.242 47.467 c 339.156
 46.721 339.617 45.623 339.617 44.174 c 339.617 42.487 338.934 41.229 337.57
 40.397 c 336.203 39.565 334.527 39.151 332.543 39.151 c 329.898 39.151 
327.703 39.905 325.953 41.42 c 327.457 43.182 l 328.141 42.627 328.918 42.178
 329.793 41.838 c 330.668 41.518 331.586 41.358 332.543 41.358 c h
332.543 41.358 m f
352.563 43.663 m 352.563 42.147 353.492 41.389 355.348 41.389 c 356.223
 41.389 357.16 41.581 358.164 41.963 c 358.867 40.014 l 357.801 39.436 356.469
 39.151 354.867 39.151 c 353.355 39.151 352.137 39.565 351.219 40.397 c 
350.324 41.229 349.875 42.362 349.875 43.788 c 349.875 61.006 l 344.691 
61.006 l 344.691 63.151 l 352.563 63.151 l h
352.563 43.663 m f
384.957 53.291 m 384.957 53.998 385.199 54.596 385.691 55.084 c 386.184
 55.596 386.789 55.854 387.516 55.854 c 388.262 55.854 388.879 55.596 389.371
 55.084 c 389.863 54.596 390.105 53.998 390.105 53.291 c 390.105 52.569 
389.863 51.948 389.371 51.436 c 388.879 50.924 388.262 50.67 387.516 50.67
 c 386.789 50.67 386.184 50.924 385.691 51.436 c 385.199 51.948 384.957 
52.569 384.957 53.291 c h
384.957 41.741 m 384.957 42.444 385.199 43.053 385.691 43.565 c 386.184
 44.077 386.789 44.334 387.516 44.334 c 388.262 44.334 388.879 44.077 389.371
 43.565 c 389.863 43.073 390.105 42.467 390.105 41.741 c 390.105 40.995 
389.863 40.377 389.371 39.885 c 388.879 39.393 388.262 39.151 387.516 39.151
 c 386.789 39.151 386.184 39.393 385.691 39.885 c 385.199 40.377 384.957
 40.995 384.957 41.741 c h
372.156 53.291 m 372.156 53.998 372.402 54.596 372.891 55.084 c 373.383
 55.596 373.988 55.854 374.715 55.854 c 375.461 55.854 376.082 55.596 376.57
 55.084 c 377.063 54.596 377.309 53.998 377.309 53.291 c 377.309 52.569 
377.063 51.948 376.57 51.436 c 376.082 50.924 375.461 50.67 374.715 50.67
 c 373.988 50.67 373.383 50.924 372.891 51.436 c 372.402 51.948 372.156 
52.569 372.156 53.291 c h
372.156 41.741 m 372.156 42.444 372.402 43.053 372.891 43.565 c 373.383
 44.077 373.988 44.334 374.715 44.334 c 375.461 44.334 376.082 44.077 376.57
 43.565 c 377.063 43.073 377.309 42.467 377.309 41.741 c 377.309 40.995 
377.063 40.377 376.57 39.885 c 376.082 39.393 375.461 39.151 374.715 39.151
 c 373.988 39.151 373.383 39.393 372.891 39.885 c 372.402 40.377 372.156
 40.995 372.156 41.741 c h
372.156 41.741 m f
418.574 39.502 m 415.887 39.502 l 415.215 51.022 l 415.086 53.049 415.023
 55.706 415.023 58.991 c 411.313 43.467 l 408.527 43.467 l 404.559 58.991
 l 404.602 58.221 404.621 57.198 404.621 55.916 c 404.621 53.956 404.582
 52.323 404.496 51.022 c 403.918 39.502 l 401.293 39.502 l 402.543 61.549
 l 406.414 61.549 l 410 46.444 l 413.422 61.549 l 417.328 61.549 l h
418.574 39.502 m f
434.816 43.182 m 434.816 42.518 434.926 42.03 435.137 41.709 c 435.352 
41.409 435.703 41.186 436.195 41.038 c 435.523 39.116 l 433.879 39.331 432.855
 40.131 432.449 41.518 c 431.852 40.748 431.094 40.163 430.18 39.756 c 429.281
 39.35 428.281 39.151 427.172 39.151 c 425.484 39.151 424.152 39.62 423.172
 40.557 c 422.211 41.495 421.73 42.756 421.73 44.334 c 421.73 46.061 422.402
 47.393 423.746 48.334 c 425.113 49.272 427.063 49.741 429.602 49.741 c 
432.098 49.741 l 432.098 51.116 l 432.098 52.311 431.758 53.166 431.074 
53.678 c 430.391 54.209 429.398 54.479 428.098 54.479 c 426.816 54.479 425.355
 54.19 423.715 53.612 c 422.977 55.663 l 424.961 56.366 426.809 56.717 428.516
 56.717 c 430.563 56.717 432.121 56.237 433.188 55.276 c 434.273 54.319 
434.816 52.983 434.816 51.276 c h
427.844 41.166 m 428.676 41.166 429.465 41.377 430.211 41.807 c 430.977
 42.233 431.609 42.819 432.098 43.565 c 432.098 47.885 l 429.668 47.885 
l 427.875 47.885 426.582 47.588 425.793 46.991 c 425.004 46.393 424.609 
45.518 424.609 44.366 c 424.609 42.233 425.688 41.166 427.844 41.166 c h
427.844 41.166 m f
447.668 41.358 m 448.949 41.358 449.965 41.604 450.711 42.092 c 451.457
 42.584 451.828 43.233 451.828 44.045 c 451.828 44.6 451.734 45.049 451.543
 45.389 c 451.352 45.752 450.965 46.073 450.391 46.35 c 449.813 46.647 448.938
 46.948 447.766 47.245 c 445.805 47.737 444.352 48.323 443.414 49.006 c 
442.477 49.709 442.004 50.745 442.004 52.108 c 442.004 53.518 442.594 54.639
 443.766 55.467 c 444.938 56.299 446.484 56.717 448.406 56.717 c 450.754
 56.717 452.801 56.1 454.551 54.862 c 453.332 53.006 l 452.629 53.495 451.895
 53.87 451.125 54.123 c 450.359 54.401 449.473 54.541 448.469 54.541 c 446.039
 54.541 444.82 53.807 444.82 52.334 c 444.82 51.823 444.949 51.405 445.207
 51.084 c 445.484 50.764 445.922 50.479 446.52 50.221 c 447.137 49.987 448.055
 49.698 449.27 49.358 c 451.105 48.866 452.469 48.237 453.367 47.467 c 454.281
 46.721 454.742 45.623 454.742 44.174 c 454.742 42.487 454.059 41.229 452.695
 40.397 c 451.328 39.565 449.652 39.151 447.668 39.151 c 445.023 39.151 
442.828 39.905 441.078 41.42 c 442.582 43.182 l 443.266 42.627 444.043 42.178
 444.918 41.838 c 445.793 41.518 446.711 41.358 447.668 41.358 c h
447.668 41.358 m f
473.191 43.182 m 473.191 42.518 473.301 42.03 473.512 41.709 c 473.727 
41.409 474.078 41.186 474.57 41.038 c 473.898 39.116 l 472.254 39.331 471.23
 40.131 470.824 41.518 c 470.227 40.748 469.469 40.163 468.555 39.756 c 
467.656 39.35 466.656 39.151 465.547 39.151 c 463.859 39.151 462.527 39.62
 461.547 40.557 c 460.586 41.495 460.105 42.756 460.105 44.334 c 460.105
 46.061 460.777 47.393 462.121 48.334 c 463.488 49.272 465.438 49.741 467.977
 49.741 c 470.473 49.741 l 470.473 51.116 l 470.473 52.311 470.133 53.166
 469.449 53.678 c 468.766 54.209 467.773 54.479 466.473 54.479 c 465.191
 54.479 463.73 54.19 462.09 53.612 c 461.352 55.663 l 463.336 56.366 465.184
 56.717 466.891 56.717 c 468.938 56.717 470.496 56.237 471.563 55.276 c 
472.648 54.319 473.191 52.983 473.191 51.276 c h
466.219 41.166 m 467.051 41.166 467.84 41.377 468.586 41.807 c 469.352 
42.233 469.984 42.819 470.473 43.565 c 470.473 47.885 l 468.043 47.885 l
 466.25 47.885 464.957 47.588 464.168 46.991 c 463.379 46.393 462.984 45.518
 462.984 44.366 c 462.984 42.233 464.063 41.166 466.219 41.166 c h
466.219 41.166 m f
484.094 53.291 m 484.094 53.998 484.34 54.596 484.828 55.084 c 485.32 55.596
 485.926 55.854 486.652 55.854 c 487.398 55.854 488.02 55.596 488.508 55.084
 c 489 54.596 489.246 53.998 489.246 53.291 c 489.246 52.569 489 51.948 
488.508 51.436 c 488.02 50.924 487.398 50.67 486.652 50.67 c 485.926 50.67
 485.32 50.924 484.828 51.436 c 484.34 51.948 484.094 52.569 484.094 53.291
 c h
484.094 41.741 m 484.094 42.444 484.34 43.053 484.828 43.565 c 485.32 44.077
 485.926 44.334 486.652 44.334 c 487.398 44.334 488.02 44.077 488.508 43.565
 c 489 43.073 489.246 42.467 489.246 41.741 c 489.246 40.995 489 40.377 
488.508 39.885 c 488.02 39.393 487.398 39.151 486.652 39.151 c 485.926 39.151
 485.32 39.393 484.828 39.885 c 484.34 40.377 484.094 40.995 484.094 41.741
 c h
484.094 41.741 m f
505.871 61.901 m 508.219 61.901 510 60.92 511.215 58.956 c 512.453 57.014
 513.07 54.209 513.07 50.541 c 513.07 46.85 512.453 44.022 511.215 42.061
 c 510 40.12 508.219 39.151 505.871 39.151 c 503.527 39.151 501.734 40.12
 500.496 42.061 c 499.281 44.022 498.672 46.85 498.672 50.541 c 498.672 
54.209 499.281 57.014 500.496 58.956 c 501.734 60.92 503.527 61.901 505.871
 61.901 c h
505.871 59.725 m 502.949 59.725 501.488 56.663 501.488 50.541 c 501.488
 44.397 502.949 41.327 505.871 41.327 c 508.797 41.327 510.258 44.397 510.258
 50.541 c 510.258 56.663 508.797 59.725 505.871 59.725 c h
505.871 52.62 m 506.469 52.62 506.973 52.42 507.375 52.014 c 507.781 51.608
 507.984 51.116 507.984 50.541 c 507.984 49.944 507.781 49.444 507.375 49.038
 c 506.973 48.631 506.469 48.428 505.871 48.428 c 505.273 48.428 504.773
 48.631 504.367 49.038 c 503.984 49.444 503.793 49.944 503.793 50.541 c 
503.793 51.116 503.984 51.608 504.367 52.014 c 504.773 52.42 505.273 52.62
 505.871 52.62 c h
505.871 52.62 m f
531.492 54.639 m 526.789 49.901 l 531.492 45.1 l 529.797 43.405 l 525.059
 48.174 l 520.262 43.405 l 518.563 45.1 l 523.332 49.901 l 518.563 54.639
 l 520.262 56.334 l 525.059 51.596 l 529.797 56.334 l h
531.492 54.639 m f
544.246 61.901 m 546.594 61.901 548.375 60.92 549.59 58.956 c 550.828 57.014
 551.445 54.209 551.445 50.541 c 551.445 46.85 550.828 44.022 549.59 42.061
 c 548.375 40.12 546.594 39.151 544.246 39.151 c 541.902 39.151 540.109 
40.12 538.871 42.061 c 537.656 44.022 537.047 46.85 537.047 50.541 c 537.047
 54.209 537.656 57.014 538.871 58.956 c 540.109 60.92 541.902 61.901 544.246
 61.901 c h
544.246 59.725 m 541.324 59.725 539.863 56.663 539.863 50.541 c 539.863
 44.397 541.324 41.327 544.246 41.327 c 547.172 41.327 548.633 44.397 548.633
 50.541 c 548.633 56.663 547.172 59.725 544.246 59.725 c h
544.246 52.62 m 544.844 52.62 545.348 52.42 545.75 52.014 c 546.156 51.608
 546.359 51.116 546.359 50.541 c 546.359 49.944 546.156 49.444 545.75 49.038
 c 545.348 48.631 544.844 48.428 544.246 48.428 c 543.648 48.428 543.148
 48.631 542.742 49.038 c 542.359 49.444 542.168 49.944 542.168 50.541 c 
542.168 51.116 542.359 51.608 542.742 52.014 c 543.148 52.42 543.648 52.62
 544.246 52.62 c h
544.246 52.62 m f
563.434 61.901 m 565.781 61.901 567.563 60.92 568.777 58.956 c 570.016 
57.014 570.637 54.209 570.637 50.541 c 570.637 46.85 570.016 44.022 568.777
 42.061 c 567.563 40.12 565.781 39.151 563.434 39.151 c 561.09 39.151 559.297
 40.12 558.059 42.061 c 556.844 44.022 556.234 46.85 556.234 50.541 c 556.234
 54.209 556.844 57.014 558.059 58.956 c 559.297 60.92 561.09 61.901 563.434
 61.901 c h
563.434 59.725 m 560.512 59.725 559.051 56.663 559.051 50.541 c 559.051
 44.397 560.512 41.327 563.434 41.327 c 566.359 41.327 567.82 44.397 567.82
 50.541 c 567.82 56.663 566.359 59.725 563.434 59.725 c h
563.434 52.62 m 564.031 52.62 564.535 52.42 564.938 52.014 c 565.344 51.608
 565.547 51.116 565.547 50.541 c 565.547 49.944 565.344 49.444 564.938 49.038
 c 564.535 48.631 564.031 48.428 563.434 48.428 c 562.836 48.428 562.336
 48.631 561.93 49.038 c 561.547 49.444 561.355 49.944 561.355 50.541 c 561.355
 51.116 561.547 51.608 561.93 52.014 c 562.336 52.42 562.836 52.62 563.434
 52.62 c h
563.434 52.62 m f
582.621 61.901 m 584.969 61.901 586.75 60.92 587.965 58.956 c 589.203 57.014
 589.82 54.209 589.82 50.541 c 589.82 46.85 589.203 44.022 587.965 42.061
 c 586.75 40.12 584.969 39.151 582.621 39.151 c 580.277 39.151 578.484 40.12
 577.246 42.061 c 576.031 44.022 575.422 46.85 575.422 50.541 c 575.422 
54.209 576.031 57.014 577.246 58.956 c 578.484 60.92 580.277 61.901 582.621
 61.901 c h
582.621 59.725 m 579.699 59.725 578.238 56.663 578.238 50.541 c 578.238
 44.397 579.699 41.327 582.621 41.327 c 585.547 41.327 587.008 44.397 587.008
 50.541 c 587.008 56.663 585.547 59.725 582.621 59.725 c h
582.621 52.62 m 583.219 52.62 583.723 52.42 584.125 52.014 c 584.531 51.608
 584.734 51.116 584.734 50.541 c 584.734 49.944 584.531 49.444 584.125 49.038
 c 583.723 48.631 583.219 48.428 582.621 48.428 c 582.023 48.428 581.523
 48.631 581.117 49.038 c 580.734 49.444 580.543 49.944 580.543 50.541 c 
580.543 51.116 580.734 51.608 581.117 52.014 c 581.523 52.42 582.023 52.62
 582.621 52.62 c h
582.621 52.62 m f
601.809 61.901 m 604.156 61.901 605.938 60.92 607.152 58.956 c 608.391 
57.014 609.012 54.209 609.012 50.541 c 609.012 46.85 608.391 44.022 607.152
 42.061 c 605.938 40.12 604.156 39.151 601.809 39.151 c 599.465 39.151 597.672
 40.12 596.434 42.061 c 595.219 44.022 594.609 46.85 594.609 50.541 c 594.609
 54.209 595.219 57.014 596.434 58.956 c 597.672 60.92 599.465 61.901 601.809
 61.901 c h
601.809 59.725 m 598.887 59.725 597.426 56.663 597.426 50.541 c 597.426
 44.397 598.887 41.327 601.809 41.327 c 604.734 41.327 606.195 44.397 606.195
 50.541 c 606.195 56.663 604.734 59.725 601.809 59.725 c h
601.809 52.62 m 602.406 52.62 602.91 52.42 603.313 52.014 c 603.719 51.608
 603.922 51.116 603.922 50.541 c 603.922 49.944 603.719 49.444 603.313 49.038
 c 602.91 48.631 602.406 48.428 601.809 48.428 c 601.211 48.428 600.711 
48.631 600.305 49.038 c 599.922 49.444 599.73 49.944 599.73 50.541 c 599.73
 51.116 599.922 51.608 600.305 52.014 c 600.711 52.42 601.211 52.62 601.809
 52.62 c h
601.809 52.62 m f
620.996 61.901 m 623.344 61.901 625.125 60.92 626.34 58.956 c 627.578 57.014
 628.195 54.209 628.195 50.541 c 628.195 46.85 627.578 44.022 626.34 42.061
 c 625.125 40.12 623.344 39.151 620.996 39.151 c 618.652 39.151 616.859 
40.12 615.621 42.061 c 614.406 44.022 613.797 46.85 613.797 50.541 c 613.797
 54.209 614.406 57.014 615.621 58.956 c 616.859 60.92 618.652 61.901 620.996
 61.901 c h
620.996 59.725 m 618.074 59.725 616.613 56.663 616.613 50.541 c 616.613
 44.397 618.074 41.327 620.996 41.327 c 623.922 41.327 625.383 44.397 625.383
 50.541 c 625.383 56.663 623.922 59.725 620.996 59.725 c h
620.996 52.62 m 621.594 52.62 622.098 52.42 622.5 52.014 c 622.906 51.608
 623.109 51.116 623.109 50.541 c 623.109 49.944 622.906 49.444 622.5 49.038
 c 622.098 48.631 621.594 48.428 620.996 48.428 c 620.398 48.428 619.898
 48.631 619.492 49.038 c 619.109 49.444 618.918 49.944 618.918 50.541 c 
618.918 51.116 619.109 51.608 619.492 52.014 c 619.898 52.42 620.398 52.62
 620.996 52.62 c h
620.996 52.62 m f
640.184 61.901 m 642.531 61.901 644.313 60.92 645.527 58.956 c 646.766 
57.014 647.387 54.209 647.387 50.541 c 647.387 46.85 646.766 44.022 645.527
 42.061 c 644.313 40.12 642.531 39.151 640.184 39.151 c 637.84 39.151 636.047
 40.12 634.809 42.061 c 633.594 44.022 632.984 46.85 632.984 50.541 c 632.984
 54.209 633.594 57.014 634.809 58.956 c 636.047 60.92 637.84 61.901 640.184
 61.901 c h
640.184 59.725 m 637.262 59.725 635.801 56.663 635.801 50.541 c 635.801
 44.397 637.262 41.327 640.184 41.327 c 643.109 41.327 644.57 44.397 644.57
 50.541 c 644.57 56.663 643.109 59.725 640.184 59.725 c h
640.184 52.62 m 640.781 52.62 641.285 52.42 641.688 52.014 c 642.094 51.608
 642.297 51.116 642.297 50.541 c 642.297 49.944 642.094 49.444 641.688 49.038
 c 641.285 48.631 640.781 48.428 640.184 48.428 c 639.586 48.428 639.086
 48.631 638.68 49.038 c 638.297 49.444 638.105 49.944 638.105 50.541 c 638.105
 51.116 638.297 51.608 638.68 52.014 c 639.086 52.42 639.586 52.62 640.184
 52.62 c h
640.184 52.62 m f
659.371 61.901 m 661.719 61.901 663.5 60.92 664.715 58.956 c 665.953 57.014
 666.57 54.209 666.57 50.541 c 666.57 46.85 665.953 44.022 664.715 42.061
 c 663.5 40.12 661.719 39.151 659.371 39.151 c 657.027 39.151 655.234 40.12
 653.996 42.061 c 652.781 44.022 652.172 46.85 652.172 50.541 c 652.172 
54.209 652.781 57.014 653.996 58.956 c 655.234 60.92 657.027 61.901 659.371
 61.901 c h
659.371 59.725 m 656.449 59.725 654.988 56.663 654.988 50.541 c 654.988
 44.397 656.449 41.327 659.371 41.327 c 662.297 41.327 663.758 44.397 663.758
 50.541 c 663.758 56.663 662.297 59.725 659.371 59.725 c h
659.371 52.62 m 659.969 52.62 660.473 52.42 660.875 52.014 c 661.281 51.608
 661.484 51.116 661.484 50.541 c 661.484 49.944 661.281 49.444 660.875 49.038
 c 660.473 48.631 659.969 48.428 659.371 48.428 c 658.773 48.428 658.273
 48.631 657.867 49.038 c 657.484 49.444 657.293 49.944 657.293 50.541 c 
657.293 51.116 657.484 51.608 657.867 52.014 c 658.273 52.42 658.773 52.62
 659.371 52.62 c h
659.371 52.62 m f
685.855 44.846 m 683.008 44.846 l 683.008 39.502 l 680.414 39.502 l 680.414
 44.846 l 671.266 44.846 l 671.266 46.831 l 677.727 61.901 l 679.969 60.94
 l 674.113 47.022 l 680.449 47.022 l 680.672 53.26 l 683.008 53.26 l 683.008
 47.022 l 685.855 47.022 l h
685.855 44.846 m f
701.301 63.467 m 702.898 63.467 704.426 63.17 705.875 62.573 c 705.012 
60.557 l 703.945 61.026 702.738 61.26 701.395 61.26 c 699.047 61.26 697.875
 60.334 697.875 58.479 c 697.875 55.053 l 703.57 55.053 l 703.285 52.909
 l 697.875 52.909 l 697.875 39.502 l 695.156 39.502 l 695.156 52.909 l 691.156
 52.909 l 691.156 55.053 l 695.156 55.053 l 695.156 58.413 l 695.156 59.928
 695.73 61.143 696.883 62.061 c 698.055 62.998 699.527 63.467 701.301 63.467
 c h
701.301 63.467 m f
712.68 46.991 m 712.742 45.131 713.223 43.737 714.117 42.795 c 715.035 
41.858 716.188 41.389 717.574 41.389 c 718.406 41.389 719.164 41.506 719.848
 41.741 c 720.551 41.998 721.297 42.381 722.086 42.893 c 723.336 41.1 l 
722.547 40.483 721.641 40.002 720.613 39.663 c 719.613 39.319 718.598 39.151
 717.574 39.151 c 715.145 39.151 713.242 39.94 711.879 41.518 c 710.535 
43.116 709.863 45.252 709.863 47.916 c 709.863 49.604 710.16 51.108 710.758
 52.428 c 711.355 53.772 712.211 54.819 713.32 55.565 c 714.43 56.334 715.719
 56.717 717.191 56.717 c 719.324 56.717 721 55.971 722.215 54.479 c 723.453
 53.006 724.07 50.991 724.07 48.428 c 724.07 47.94 724.051 47.459 724.008
 46.991 c h
717.223 54.51 m 715.922 54.51 714.867 54.041 714.055 53.1 c 713.242 52.182
 712.785 50.831 712.68 49.038 c 721.445 49.038 l 721.426 50.807 721.043 
52.163 720.293 53.1 c 719.547 54.041 718.523 54.51 717.223 54.51 c h
717.223 54.51 m f
737.082 53.838 m 738.234 53.838 739.281 53.581 740.219 53.069 c 741.18 
52.557 741.938 51.78 742.492 50.733 c 743.047 49.709 743.32 48.44 743.32
 46.924 c 743.32 45.346 743.012 43.959 742.395 42.764 c 741.777 41.592 740.945
 40.698 739.898 40.077 c 738.852 39.459 737.68 39.151 736.379 39.151 c 733.816
 39.151 731.953 40.077 730.777 41.932 c 729.625 43.788 729.051 46.444 729.051
 49.901 c 729.051 52.334 729.371 54.444 730.012 56.237 c 730.672 58.049 
731.609 59.448 732.828 60.428 c 734.063 61.409 735.535 61.901 737.242 61.901
 c 738.844 61.901 740.305 61.463 741.625 60.588 c 740.57 58.795 l 739.523
 59.416 738.406 59.725 737.211 59.725 c 735.547 59.725 734.234 58.924 733.273
 57.327 c 732.313 55.745 731.813 53.604 731.77 50.893 c 732.453 51.916 733.23
 52.663 734.105 53.131 c 734.98 53.604 735.973 53.838 737.082 53.838 c h
736.379 41.327 m 737.742 41.327 738.777 41.807 739.48 42.764 c 740.207 
43.745 740.57 45.1 740.57 46.831 c 740.57 50.049 739.27 51.663 736.668 51.663
 c 735.641 51.663 734.715 51.385 733.883 50.831 c 733.07 50.276 732.379 
49.518 731.801 48.557 c 731.844 46.041 732.23 44.206 732.953 43.053 c 733.68
 41.901 734.82 41.327 736.379 41.327 c h
736.379 41.327 m f
760.91 59.373 m 752.207 59.373 l 752.207 52.428 l 752.824 52.791 753.434
 53.038 754.031 53.166 c 754.648 53.315 755.301 53.389 755.98 53.389 c 757.816
 53.389 759.277 52.78 760.367 51.565 c 761.477 50.35 762.031 48.655 762.031
 46.479 c 762.031 45.026 761.719 43.745 761.102 42.639 c 760.504 41.53 759.641
 40.663 758.512 40.045 c 757.379 39.448 756.066 39.151 754.574 39.151 c 
752.121 39.151 749.988 40.022 748.172 41.772 c 749.836 43.405 l 751.184 
42.041 752.762 41.358 754.574 41.358 c 756.047 41.358 757.188 41.807 757.996
 42.702 c 758.809 43.596 759.215 44.889 759.215 46.573 c 759.215 48.237 
758.852 49.432 758.125 50.159 c 757.402 50.905 756.43 51.276 755.215 51.276
 c 754.637 51.276 754.113 51.225 753.645 51.116 c 753.176 51.01 752.559 
50.819 751.789 50.541 c 749.613 50.541 l 749.613 61.549 l 761.293 61.549
 l h
760.91 59.373 m f
775.457 53.838 m 776.609 53.838 777.656 53.581 778.594 53.069 c 779.555
 52.557 780.313 51.78 780.867 50.733 c 781.422 49.709 781.695 48.44 781.695
 46.924 c 781.695 45.346 781.387 43.959 780.77 42.764 c 780.152 41.592 779.32
 40.698 778.273 40.077 c 777.227 39.459 776.055 39.151 774.754 39.151 c 
772.191 39.151 770.328 40.077 769.152 41.932 c 768 43.788 767.426 46.444
 767.426 49.901 c 767.426 52.334 767.746 54.444 768.387 56.237 c 769.047
 58.049 769.984 59.448 771.203 60.428 c 772.438 61.409 773.91 61.901 775.617
 61.901 c 777.219 61.901 778.68 61.463 780 60.588 c 778.945 58.795 l 777.898
 59.416 776.781 59.725 775.586 59.725 c 773.922 59.725 772.609 58.924 771.648
 57.327 c 770.688 55.745 770.188 53.604 770.145 50.893 c 770.828 51.916 
771.605 52.663 772.48 53.131 c 773.355 53.604 774.348 53.838 775.457 53.838
 c h
774.754 41.327 m 776.117 41.327 777.152 41.807 777.855 42.764 c 778.582
 43.745 778.945 45.1 778.945 46.831 c 778.945 50.049 777.645 51.663 775.043
 51.663 c 774.016 51.663 773.09 51.385 772.258 50.831 c 771.445 50.276 770.754
 49.518 770.176 48.557 c 770.219 46.041 770.605 44.206 771.328 43.053 c 
772.055 41.901 773.195 41.327 774.754 41.327 c h
774.754 41.327 m f
793.684 61.901 m 796.031 61.901 797.813 60.92 799.027 58.956 c 800.266 
57.014 800.887 54.209 800.887 50.541 c 800.887 46.85 800.266 44.022 799.027
 42.061 c 797.813 40.12 796.031 39.151 793.684 39.151 c 791.34 39.151 789.547
 40.12 788.309 42.061 c 787.094 44.022 786.484 46.85 786.484 50.541 c 786.484
 54.209 787.094 57.014 788.309 58.956 c 789.547 60.92 791.34 61.901 793.684
 61.901 c h
793.684 59.725 m 790.762 59.725 789.301 56.663 789.301 50.541 c 789.301
 44.397 790.762 41.327 793.684 41.327 c 796.609 41.327 798.07 44.397 798.07
 50.541 c 798.07 56.663 796.609 59.725 793.684 59.725 c h
793.684 52.62 m 794.281 52.62 794.785 52.42 795.188 52.014 c 795.594 51.608
 795.797 51.116 795.797 50.541 c 795.797 49.944 795.594 49.444 795.188 49.038
 c 794.785 48.631 794.281 48.428 793.684 48.428 c 793.086 48.428 792.586
 48.631 792.18 49.038 c 791.797 49.444 791.605 49.944 791.605 50.541 c 791.605
 51.116 791.797 51.608 792.18 52.014 c 792.586 52.42 793.086 52.62 793.684
 52.62 c h
793.684 52.62 m f
848.418 41.963 m 848.418 42.756 848.695 43.416 849.25 43.948 c 849.785 
44.502 850.445 44.78 851.234 44.78 c 852.047 44.78 852.719 44.502 853.25
 43.948 c 853.785 43.416 854.051 42.756 854.051 41.963 c 854.051 41.155 
853.785 40.483 853.25 39.948 c 852.719 39.416 852.047 39.151 851.234 39.151
 c 850.445 39.151 849.785 39.416 849.25 39.948 c 848.695 40.502 848.418 
41.174 848.418 41.963 c h
861.219 41.963 m 861.219 42.756 861.484 43.416 862.02 43.948 c 862.574 
44.502 863.246 44.78 864.035 44.78 c 864.844 44.78 865.516 44.502 866.051
 43.948 c 866.586 43.416 866.852 42.756 866.852 41.963 c 866.852 41.155 
866.586 40.483 866.051 39.948 c 865.516 39.416 864.844 39.151 864.035 39.151
 c 863.246 39.151 862.574 39.416 862.02 39.948 c 861.484 40.502 861.219 
41.174 861.219 41.963 c h
835.617 41.963 m 835.617 42.756 835.895 43.416 836.449 43.948 c 836.984
 44.502 837.645 44.78 838.434 44.78 c 839.246 44.78 839.918 44.502 840.449
 43.948 c 840.984 43.416 841.25 42.756 841.25 41.963 c 841.25 41.155 840.984
 40.483 840.449 39.948 c 839.918 39.416 839.246 39.151 838.434 39.151 c 
837.645 39.151 836.984 39.416 836.449 39.948 c 835.895 40.502 835.617 41.174
 835.617 41.963 c h
835.617 41.963 m f
896.438 50.893 m 896.438 48.143 l 884.277 40.557 l 882.84 42.541 l 894.133
 49.518 l 882.84 56.459 l 884.148 58.51 l h
896.438 50.893 m f
Q Q
showpage
%%Trailer
end restore
%%EOF
