<?xml version="1.0" encoding="UTF-8" standalone="no"?>
<!-- Created with Inkscape (http://www.inkscape.org/) -->

<svg
   xmlns:osb="http://www.openswatchbook.org/uri/2009/osb"
   xmlns:dc="http://purl.org/dc/elements/1.1/"
   xmlns:cc="http://creativecommons.org/ns#"
   xmlns:rdf="http://www.w3.org/1999/02/22-rdf-syntax-ns#"
   xmlns:svg="http://www.w3.org/2000/svg"
   xmlns="http://www.w3.org/2000/svg"
   xmlns:sodipodi="http://sodipodi.sourceforge.net/DTD/sodipodi-0.dtd"
   xmlns:inkscape="http://www.inkscape.org/namespaces/inkscape"
   id="svg4136"
   version="1.1"
   inkscape:version="0.91 r13725"
   xml:space="preserve"
   width="1453.3285"
   height="718.11499"
   viewBox="0 0 1453.3285 718.11501"
   sodipodi:docname="plantilla.svg"><metadata
     id="metadata4142"><rdf:RDF><cc:Work
         rdf:about=""><dc:format>image/svg+xml</dc:format><dc:type
           rdf:resource="http://purl.org/dc/dcmitype/StillImage" /><dc:title></dc:title></cc:Work></rdf:RDF></metadata><defs
     id="defs4140"><linearGradient
       id="linearGradient4690"
       osb:paint="solid"><stop
         style="stop-color:#6272a4;stop-opacity:1;"
         offset="0"
         id="stop4692" /></linearGradient><linearGradient
       id="linearGradient4961"
       osb:paint="solid"><stop
         style="stop-color:#f1fa8c;stop-opacity:1;"
         offset="0"
         id="stop4963" /></linearGradient><linearGradient
       id="linearGradient4955"
       osb:paint="solid"><stop
         style="stop-color:#ff5555;stop-opacity:1;"
         offset="0"
         id="stop4957" /></linearGradient><linearGradient
       id="linearGradient4949"
       osb:paint="solid"><stop
         style="stop-color:#bd93f9;stop-opacity:1;"
         offset="0"
         id="stop4951" /></linearGradient><linearGradient
       id="linearGradient4943"
       osb:paint="solid"><stop
         style="stop-color:#ff79c6;stop-opacity:1;"
         offset="0"
         id="stop4945" /></linearGradient><linearGradient
       id="linearGradient4937"
       osb:paint="solid"><stop
         style="stop-color:#ffb86c;stop-opacity:1;"
         offset="0"
         id="stop4939" /></linearGradient><linearGradient
       id="linearGradient4931"
       osb:paint="solid"><stop
         style="stop-color:#50fa7b;stop-opacity:1;"
         offset="0"
         id="stop4933" /></linearGradient><linearGradient
       id="linearGradient4925"
       osb:paint="solid"><stop
         style="stop-color:#8be9fd;stop-opacity:1;"
         offset="0"
         id="stop4927" /></linearGradient><linearGradient
       id="linearGradient4919"
       osb:paint="solid"><stop
         style="stop-color:#282a36;stop-opacity:1;"
         offset="0"
         id="stop4921" /></linearGradient><linearGradient
       id="linearGradient4913"
       osb:paint="solid"><stop
         style="stop-color:#ffffff;stop-opacity:1;"
         offset="0"
         id="stop4915" /></linearGradient></defs><sodipodi:namedview
     pagecolor="#ffffff"
     bordercolor="#666666"
     borderopacity="1"
     objecttolerance="10"
     gridtolerance="10"
     guidetolerance="10"
     inkscape:pageopacity="0"
     inkscape:pageshadow="2"
     inkscape:window-width="2560"
     inkscape:window-height="1377"
     id="namedview4138"
     showgrid="false"
     fit-margin-top="0"
     fit-margin-left="0"
     fit-margin-right="0"
     fit-margin-bottom="0"
     inkscape:zoom="0.92881897"
     inkscape:cx="527.53525"
     inkscape:cy="166.49632"
     inkscape:window-x="892"
     inkscape:window-y="-8"
     inkscape:window-maximized="1"
     inkscape:current-layer="g4146" /><g
     id="g4144"
     inkscape:groupmode="layer"
     inkscape:label="ink_ext_XXXXXX"
     transform="matrix(1.25,0,0,-1.25,-0.9624025,837.3225)"><g
       id="g4146"
       transform="scale(0.1,0.1)"><path
         d="m 40.75349,6698.58 12662.97251,0 c 18.283,0 33.076,-10.544 33.076,-23.612 l 0,-4862.2184 c 0,-13.0702 -14.793,-23.6202 -33.076,-23.6202 l -12662.97251,0 c -18.292606,0 -33.05427,10.55 -33.05427,23.6202 l 0,4862.2184 c 0,13.068 14.761664,23.612 33.05427,23.612 z"
         style="fill:#282a36;fill-opacity:1;fill-rule:nonzero;stroke:none"
         id="path4148"
         inkscape:connector-curvature="0" /><g
         transform="matrix(8,0,0,-8,0,6822)"
         style="font-style:normal;font-weight:normal;font-size:40px;line-height:125%;font-family:sans-serif;letter-spacing:0px;word-spacing:0px;fill:#ffffff;fill-opacity:1;stroke:none;stroke-width:1px;stroke-linecap:butt;stroke-linejoin:miter;stroke-opacity:1"
         id="flowRoot4748"><flowRoot
           xml:space="preserve"
           id="flowRoot4284"
           style="font-style:normal;font-weight:normal;font-size:40px;line-height:125%;font-family:sans-serif;letter-spacing:0px;word-spacing:0px;fill:#000000;fill-opacity:1;stroke:none;stroke-width:1px;stroke-linecap:butt;stroke-linejoin:miter;stroke-opacity:1"
           transform="translate(-3.3441418,4.6611394)"><flowRegion
             id="flowRegion4286"><rect
               id="rect4288"
               width="1690.3186"
               height="1084.1726"
               x="47.371986"
               y="44.140869" /></flowRegion><flowPara
             style="font-style:normal;font-variant:normal;font-weight:normal;font-stretch:normal;font-family:'fira code';-inkscape-font-specification:'fira code';fill:url(#linearGradient4913)"
             id="flowPara4939">describe <flowSpan
   style="fill:url(#linearGradient4961)"
   id="flowSpan5044">'.find_by_like'</flowSpan><flowSpan
   style="fill:url(#linearGradient4943)"
   id="flowSpan5028"> do</flowSpan></flowPara><flowPara
             style="font-style:normal;font-variant:normal;font-weight:normal;font-stretch:normal;font-family:'fira code';-inkscape-font-specification:'fira code';fill:url(#linearGradient4913)"
             id="flowPara5006">  context <flowSpan
   style="fill:url(#linearGradient4961)"
   id="flowSpan5042">'buscando por campos específicos'</flowSpan><flowSpan
   style="fill:url(#linearGradient4943)"
   id="flowSpan5030"> do</flowSpan></flowPara><flowPara
             style="font-style:normal;font-variant:normal;font-weight:normal;font-stretch:normal;font-family:'fira code';-inkscape-font-specification:'fira code';fill:url(#linearGradient4913)"
             id="flowPara5008">    context <flowSpan
   style="fill:url(#linearGradient4961)"
   id="flowSpan5040">'como el nombre en español'</flowSpan><flowSpan
   style="fill:url(#linearGradient4943)"
   id="flowSpan5032"> do</flowSpan></flowPara><flowPara
             style="font-style:normal;font-variant:normal;font-weight:normal;font-stretch:normal;font-family:'fira code';-inkscape-font-specification:'fira code';fill:url(#linearGradient4913)"
             id="flowPara5010">      subject { <flowSpan
   style="fill:url(#linearGradient4925);-inkscape-font-specification:'fira code Italic';font-family:'fira code';font-weight:normal;font-style:italic;font-stretch:normal;font-variant:normal"
   id="flowSpan5046">DietaryDsl</flowSpan>::<flowSpan
   style="fill:url(#linearGradient4925);-inkscape-font-specification:'fira code Italic';font-family:'fira code';font-weight:normal;font-style:italic;font-stretch:normal;font-variant:normal"
   id="flowSpan5048">Food</flowSpan>.find_by_like(<flowSpan
   style="fill:url(#linearGradient4949)"
   id="flowSpan5054">nombre:</flowSpan><flowSpan
   style="fill:url(#linearGradient4961)"
   id="flowSpan5056"> 'magd'</flowSpan>) }</flowPara><flowPara
             style="font-style:normal;font-variant:normal;font-weight:normal;font-stretch:normal;font-family:'fira code';-inkscape-font-specification:'fira code';fill:url(#linearGradient4913)"
             id="flowPara5012">      it <flowSpan
   style="fill:url(#linearGradient4961)"
   id="flowSpan5062">'devuelve los datos correctamente'</flowSpan><flowSpan
   style="fill:url(#linearGradient4943)"
   id="flowSpan5034"> do</flowSpan></flowPara><flowPara
             style="font-style:normal;font-variant:normal;font-weight:normal;font-stretch:normal;font-family:'fira code';-inkscape-font-specification:'fira code';fill:url(#linearGradient4913)"
             id="flowPara5014">        expect(subject[<flowSpan
   style="fill:url(#linearGradient4949)"
   id="flowSpan5058">:nombre</flowSpan>]).to equal <flowSpan
   style="fill:url(#linearGradient4961)"
   id="flowSpan5036">'Magdalena'</flowSpan></flowPara><flowPara
             style="font-style:normal;font-variant:normal;font-weight:normal;font-stretch:normal;font-family:'fira code';-inkscape-font-specification:'fira code';fill:url(#linearGradient4913)"
             id="flowPara5016">        expect(subject[<flowSpan
   style="fill:url(#linearGradient4949)"
   id="flowSpan5060">:name</flowSpan>]).to equal <flowSpan
   style="fill:url(#linearGradient4961)"
   id="flowSpan5038">'Muffin'</flowSpan></flowPara><flowPara
             style="font-style:normal;font-variant:normal;font-weight:normal;font-stretch:normal;font-family:'fira code';-inkscape-font-specification:'fira code';fill:url(#linearGradient4943)"
             id="flowPara5018">      end</flowPara><flowPara
             style="font-style:normal;font-variant:normal;font-weight:normal;font-stretch:normal;font-family:'fira code';-inkscape-font-specification:'fira code';fill:url(#linearGradient4943)"
             id="flowPara5020">    end</flowPara><flowPara
             style="font-style:normal;font-variant:normal;font-weight:normal;font-stretch:normal;font-family:'fira code';-inkscape-font-specification:'fira code';fill:url(#linearGradient4943)"
             id="flowPara5022">  end</flowPara><flowPara
             style="font-style:normal;font-variant:normal;font-weight:normal;font-stretch:normal;font-family:'fira code';-inkscape-font-specification:'fira code';fill:url(#linearGradient4943)"
             id="flowPara5024">end</flowPara></flowRoot></g></g></g></svg>